# dyad-tip, V78-L292, W41-Y77 
11.10 16.20 2.11
10.53 9.50 2.05
11.47 15.19 1.72
10.72 16.23 2.20
10.90 16.53 2.09
10.72 16.92 3.14
10.78 9.90 2.27
10.43 9.31 2.33
10.28 9.60 2.24
10.37 8.71 2.26
10.65 16.29 2.75
10.87 17.06 2.84
10.97 16.95 2.82
11.27 15.10 2.48
11.41 15.50 3.07
10.53 17.59 2.24
10.86 16.63 2.10
10.85 17.19 2.51
10.29 8.86 2.42
10.27 8.95 1.93
10.35 7.92 3.07
10.88 14.95 2.90
11.19 15.14 2.96
10.42 8.98 1.88
10.74 17.39 2.36
10.68 16.51 2.78
10.33 9.85 2.97
10.56 9.07 1.94
10.57 16.96 2.12
10.58 16.48 2.09
10.41 9.89 1.88
10.42 15.85 3.20
10.78 16.28 2.59
10.10 10.21 2.28
10.96 15.50 2.78
10.61 16.27 2.61
10.85 16.26 2.03
10.76 15.12 3.19
11.28 15.31 2.87
10.45 16.61 2.01
10.49 16.62 2.08
10.68 16.48 2.11
10.91 17.39 1.95
10.73 14.79 2.03
10.23 9.91 2.28
10.38 9.63 1.91
10.40 14.37 2.21
10.78 14.74 2.33
10.81 14.69 2.64
11.22 17.16 2.03
11.53 17.13 1.99
11.36 17.19 2.36
11.30 16.86 2.39
11.38 17.00 1.88
11.24 16.56 2.67
10.80 14.90 2.61
11.01 15.52 2.95
11.11 16.33 2.95
10.79 16.28 2.45
11.26 16.50 1.96
10.96 16.62 2.77
11.22 16.99 1.98
11.09 16.62 2.23
11.09 15.57 2.65
11.19 15.39 2.15
11.10 16.63 2.39
11.43 17.67 2.62
11.04 17.07 1.99
10.03 9.83 2.83
10.79 10.15 2.52
10.99 16.35 2.36
11.70 15.30 3.25
11.63 15.23 3.16
11.19 16.00 2.19
11.09 16.42 2.64
10.72 16.27 2.50
11.50 16.87 2.23
11.12 15.54 2.60
10.35 9.29 3.00
10.35 9.25 2.25
10.82 14.97 2.03
10.60 12.23 2.45
10.66 12.61 2.62
11.06 14.71 2.13
10.53 9.64 3.09
10.46 9.08 2.54
10.45 9.83 2.65
10.33 9.52 2.43
10.90 15.03 2.64
11.27 15.64 2.76
10.73 15.66 2.21
11.16 15.42 2.00
10.98 15.00 1.94
11.22 16.46 2.12
11.17 16.32 2.31
11.28 14.45 2.05
11.00 14.25 1.97
10.94 14.64 2.52
11.25 14.51 2.46
11.46 16.04 1.89
11.06 15.91 2.45
10.87 14.67 2.41
10.92 15.22 2.15
11.35 15.77 2.51
11.24 15.70 2.64
11.06 14.90 2.56
10.90 14.32 2.27
10.76 12.15 2.58
10.68 12.79 3.07
11.44 16.39 2.52
10.93 16.25 2.28
11.09 16.14 2.78
10.88 16.16 1.81
11.12 15.74 2.34
11.22 16.07 2.33
11.03 16.42 2.39
10.72 16.79 3.37
10.67 15.90 2.52
11.09 16.01 2.38
10.60 16.06 2.05
11.04 15.42 2.06
10.65 15.18 2.32
10.56 15.31 1.93
10.89 15.41 2.74
11.07 14.85 2.12
10.32 12.27 2.68
10.33 12.79 3.36
11.19 15.03 2.44
11.14 15.48 1.89
10.81 15.46 2.13
10.31 9.74 2.29
9.82 9.76 2.12
10.47 15.73 3.01
10.94 15.60 2.24
11.04 15.72 3.30
11.05 15.70 2.28
10.41 15.26 2.21
10.75 12.95 2.88
10.85 13.53 2.30
10.91 15.11 2.03
10.85 15.19 2.40
10.62 14.81 2.98
10.38 13.51 1.92
10.56 14.09 2.07
10.39 14.88 3.03
10.23 15.68 2.36
10.26 9.46 2.26
10.46 9.18 2.02
10.79 15.38 2.20
10.96 15.52 2.17
10.61 14.78 2.38
10.70 14.90 2.37
10.52 14.95 2.52
10.78 15.69 2.16
10.72 15.59 2.06
10.70 14.99 2.55
10.51 9.43 2.12
10.22 9.78 2.12
10.33 9.85 2.02
10.79 12.86 2.84
10.67 12.66 3.14
9.90 8.85 2.17
10.37 9.89 2.31
10.05 9.34 2.52
10.09 9.22 2.32
10.29 9.41 2.35
10.46 9.19 2.29
10.46 9.91 2.74
10.29 14.69 2.41
10.95 14.99 2.11
10.47 15.00 2.87
10.68 15.39 2.20
10.17 9.12 2.44
10.28 9.39 2.19
10.04 9.22 2.11
10.42 9.71 2.55
10.74 15.41 2.38
10.66 15.85 2.67
9.93 9.86 1.94
10.45 10.55 2.43
10.08 9.63 2.21
10.14 10.08 1.96
10.52 9.78 2.31
10.40 9.65 2.28
10.88 16.24 2.14
10.94 16.30 2.86
10.23 9.46 3.20
10.44 9.27 1.98
10.43 9.67 2.01
10.33 8.79 2.60
10.13 10.06 3.05
10.32 9.26 2.86
10.04 9.27 2.96
11.51 15.70 2.24
11.55 15.79 2.72
10.47 9.28 1.98
10.42 9.54 2.26
10.50 9.13 2.51
10.60 16.47 2.70
11.00 16.58 2.04
10.14 9.67 2.89
10.40 9.50 3.37
10.23 16.05 2.71
10.68 16.39 2.14
10.22 9.21 2.08
10.26 8.98 2.84
10.95 16.05 2.49
11.06 15.21 2.97
10.48 16.14 2.67
10.77 16.36 1.99
10.46 9.07 2.88
10.46 9.28 2.69
10.49 15.46 2.01
10.46 15.43 1.88
10.73 15.05 2.19
10.95 15.02 1.89
10.95 14.88 1.94
10.82 15.03 1.95
10.54 15.49 2.21
10.71 14.85 2.33
10.94 14.91 2.45
10.57 13.54 2.27
10.58 13.66 2.01
10.48 13.76 2.67
10.68 13.83 2.56
10.55 14.59 1.88
10.71 14.87 2.55
10.62 14.62 2.45
10.79 14.46 4.04
11.05 14.82 2.36
10.60 14.44 2.40
10.55 15.07 2.72
10.84 14.66 1.89
10.75 14.20 2.51
10.70 9.05 2.20
10.31 10.21 2.15
11.00 9.35 2.50
10.33 9.78 2.28
10.68 9.56 2.08
10.57 9.57 2.37
10.33 9.80 1.94
10.62 9.60 2.43
10.16 9.90 2.24
10.64 10.23 3.08
10.21 10.18 1.96
10.38 10.10 2.40
10.56 9.80 2.42
10.02 9.82 2.33
10.29 9.27 2.18
9.94 9.94 2.25
9.54 9.40 2.01
10.05 9.86 2.43
10.17 10.72 2.14
9.70 10.09 2.47
11.07 14.36 2.18
11.22 13.99 1.84
10.23 9.64 2.15
10.18 10.12 2.36
10.17 10.14 2.93
10.18 10.35 2.63
10.12 9.78 2.39
9.98 9.98 2.03
10.37 9.31 2.28
9.82 9.65 2.12
10.17 9.86 1.90
10.36 13.17 2.80
10.62 13.71 3.02
10.00 10.05 2.09
10.95 15.15 2.43
11.69 15.80 2.30
11.38 15.69 2.19
11.36 15.64 2.63
10.38 9.52 2.25
10.15 9.89 2.19
10.14 9.86 2.87
10.21 9.91 2.02
10.06 9.55 1.98
10.09 9.70 2.18
10.07 10.33 2.16
9.96 10.07 2.22
10.83 15.16 1.90
10.50 15.46 3.31
10.46 9.74 2.05
10.25 9.67 1.91
10.02 9.23 2.31
10.70 13.77 2.85
10.95 13.47 2.18
10.31 9.26 2.42
10.04 9.84 2.76
9.88 9.60 2.47
10.36 9.31 2.06
9.92 12.69 2.67
10.75 13.59 2.36
10.48 8.93 2.04
10.43 9.71 2.35
10.41 14.73 2.40
10.75 14.71 2.14
10.59 9.72 2.45
10.77 13.92 1.98
11.37 14.25 2.69
10.79 14.50 2.15
10.52 14.62 2.84
10.62 14.23 3.06
10.67 15.11 2.45
10.81 15.11 2.56
11.55 15.90 3.10
11.17 15.36 2.46
10.57 14.82 1.93
9.97 11.21 2.04
10.38 10.63 2.09
10.43 14.98 2.37
10.64 15.59 2.36
10.34 10.68 2.25
10.84 14.04 2.24
10.29 13.66 2.17
10.66 10.58 2.33
10.95 10.10 2.07
10.25 10.03 2.29
10.77 15.37 2.09
10.32 14.81 2.34
10.40 14.71 2.29
10.37 15.21 2.83
10.23 15.50 3.31
10.39 14.61 2.57
10.28 10.00 2.10
9.95 10.23 2.38
10.20 15.07 2.74
10.29 14.38 2.01
10.31 14.49 2.24
10.58 14.82 2.98
10.49 9.21 2.53
10.07 9.43 2.05
10.33 9.54 2.34
10.61 9.38 1.97
10.59 9.64 2.66
10.18 9.52 1.90
10.51 9.07 1.86
10.36 9.84 2.00
10.67 14.60 2.55
10.68 14.41 2.95
10.52 14.96 2.37
10.76 15.44 2.67
10.52 14.54 1.94
10.12 14.75 2.53
10.31 14.58 2.60
10.53 14.61 2.53
10.48 15.33 2.72
10.95 14.67 2.21
10.46 9.29 2.16
10.77 9.44 2.27
10.66 9.62 2.21
11.78 15.04 2.18
10.51 15.04 2.23
10.49 14.75 2.03
10.90 15.28 1.93
10.48 14.88 3.03
10.67 14.90 2.44
10.75 15.39 2.26
11.03 15.13 3.21
10.00 10.00 2.22
10.07 9.97 1.84
11.45 15.18 2.69
10.86 14.86 2.58
10.18 10.46 2.11
10.46 10.59 2.00
10.49 10.80 2.73
10.50 9.97 2.86
10.33 9.93 2.26
10.63 10.11 1.85
10.73 9.91 2.50
10.48 10.15 2.60
10.49 9.82 2.29
10.17 13.74 2.19
10.41 13.94 1.86
10.04 13.84 2.37
10.06 14.10 2.60
10.40 14.27 2.26
10.59 14.08 2.09
10.42 14.20 2.12
10.38 14.17 2.26
10.67 14.56 2.29
10.47 14.82 2.54
10.60 9.46 2.12
10.72 9.31 2.60
10.62 15.04 2.21
10.67 16.43 2.49
10.29 9.73 2.09
10.14 9.47 2.19
10.49 9.87 2.31
10.15 9.40 2.73
10.14 9.84 2.14
10.37 9.84 2.42
10.64 9.86 2.24
10.11 10.16 2.18
10.39 10.86 2.09
10.14 11.00 1.87
10.46 10.17 2.12
10.51 11.14 2.42
10.71 14.18 2.04
10.41 14.21 2.48
10.99 15.20 2.45
10.90 14.61 1.96
10.04 10.58 2.39
10.05 11.11 1.93
10.02 11.50 2.76
10.35 11.30 2.58
10.07 11.15 2.01
9.92 11.98 2.23
10.16 11.46 2.84
10.04 11.38 2.08
10.42 10.98 2.52
10.01 10.90 2.42
10.12 10.96 2.00
10.46 10.76 1.95
10.18 10.88 2.30
10.22 10.46 2.23
10.34 10.35 2.42
10.38 9.73 2.45
10.58 9.77 2.18
11.23 15.15 2.29
11.43 14.79 2.38
11.17 14.48 2.54
11.45 14.78 2.97
11.50 14.96 2.13
11.35 14.46 2.31
11.70 15.29 2.22
11.32 14.95 2.20
11.49 14.96 2.16
11.36 15.44 2.41
11.43 15.53 2.64
10.58 15.73 2.56
10.39 16.30 2.38
11.58 14.48 2.02
11.76 14.12 2.33
11.05 14.47 2.16
10.39 10.93 2.25
10.51 10.26 1.85
10.32 10.82 2.91
10.13 10.36 2.26
10.58 10.37 1.99
10.59 15.85 2.42
10.44 16.04 2.11
10.91 10.24 2.18
10.00 10.24 3.02
10.80 16.08 2.05
11.24 14.53 2.79
11.43 13.27 2.41
10.50 16.47 2.96
10.17 10.14 2.04
10.93 13.45 2.67
11.61 13.11 2.43
10.18 10.04 2.12
10.76 16.99 2.94
10.67 16.89 2.33
10.91 17.20 2.11
10.89 16.90 2.71
10.00 10.18 2.00
10.14 9.93 2.73
10.05 10.26 2.78
10.36 9.40 2.54
10.29 9.91 2.36
10.77 13.90 1.98
10.56 13.41 3.10
10.44 13.70 2.17
10.80 13.91 2.85
10.27 10.21 2.02
10.12 10.46 2.11
10.48 10.41 1.85
10.66 16.40 2.27
10.50 16.11 2.36
10.17 10.26 3.22
10.46 14.30 2.40
10.73 15.51 2.67
10.90 16.04 2.53
10.92 13.40 2.88
11.09 12.88 1.94
10.84 13.45 2.56
10.39 9.83 1.92
10.42 9.90 2.81
10.23 9.89 2.18
10.57 9.59 2.11
10.96 14.32 2.68
11.04 14.75 2.91
10.72 15.21 2.51
10.85 14.20 2.58
10.21 10.53 2.23
10.23 10.33 2.28
11.35 14.91 2.19
11.03 15.27 2.18
10.53 14.75 2.45
10.64 14.42 2.21
10.24 10.08 2.04
11.21 14.20 2.36
11.12 14.12 2.14
9.62 9.46 2.08
9.98 9.47 2.50
10.13 9.11 2.43
10.00 9.07 2.27
10.70 14.24 2.16
10.32 13.54 2.62
10.72 13.61 2.32
10.76 13.74 1.82
10.90 13.93 2.55
10.93 14.24 2.11
10.04 10.00 3.32
10.13 10.57 2.59
10.54 13.98 1.93
10.80 14.40 2.32
11.22 14.35 2.15
11.37 13.93 2.40
10.23 9.88 2.54
10.39 9.49 2.58
10.99 14.43 2.20
11.09 13.81 2.25
10.35 10.36 2.73
10.04 10.46 1.81
10.86 12.89 2.42
10.84 13.36 1.85
10.95 13.42 2.23
10.72 13.92 3.12
10.94 14.03 3.41
10.54 12.86 1.97
10.67 13.75 2.69
10.76 13.87 1.74
10.61 13.69 1.96
10.92 12.91 2.21
10.67 13.37 2.26
10.74 13.30 1.75
9.92 10.28 2.11
9.83 9.76 2.29
10.48 13.10 2.82
11.02 12.57 1.83
11.08 12.88 2.62
10.77 14.16 3.40
10.32 14.37 2.03
10.72 13.74 2.31
10.87 13.50 2.27
10.70 13.28 2.29
10.29 9.77 3.32
10.29 9.42 3.01
10.45 13.95 2.62
11.52 12.36 2.41
10.95 12.65 2.30
10.71 14.33 2.38
10.69 14.54 2.14
10.41 12.83 2.40
10.81 13.04 2.53
10.73 13.65 2.21
10.34 9.23 2.39
10.78 14.43 3.00
10.90 14.25 2.41
10.39 9.25 2.09
10.58 14.18 1.82
10.68 14.19 2.23
10.41 14.53 2.41
11.09 14.75 2.39
10.54 13.81 2.43
10.45 13.45 1.97
10.99 13.69 2.44
10.74 13.49 2.13
10.49 9.08 2.42
10.18 9.08 1.96
10.22 9.60 2.55
10.12 9.42 2.16
10.93 12.99 2.11
11.00 13.48 2.40
10.08 9.48 2.16
10.27 9.05 2.45
10.90 13.24 2.30
10.81 14.01 2.23
10.88 14.09 2.24
10.82 13.64 2.04
10.79 12.95 2.29
10.63 14.79 2.51
10.65 14.88 3.11
11.52 13.97 2.03
11.65 14.50 2.33
10.68 13.99 2.02
10.96 13.98 2.19
10.88 13.44 2.25
11.25 13.39 2.90
11.13 13.63 2.15
10.54 13.72 2.30
10.88 13.35 3.47
10.82 13.67 1.98
10.24 15.46 2.73
10.66 14.61 2.17
10.42 14.42 2.87
10.49 14.41 2.36
11.01 15.30 2.90
10.82 15.09 3.05
10.82 13.61 3.04
10.63 13.32 2.42
11.32 15.49 2.82
11.38 15.65 2.69
10.73 13.67 2.01
10.84 14.25 2.49
10.52 14.65 3.02
10.41 13.50 2.07
10.77 13.03 2.09
10.94 14.70 1.98
10.93 14.51 2.21
10.65 13.90 3.05
10.88 13.47 2.01
10.65 14.19 2.90
10.31 13.82 2.77
10.79 14.21 2.20
10.84 13.92 2.85
10.22 14.16 2.48
10.68 14.09 2.94
10.39 14.29 2.41
10.63 14.21 2.39
10.55 14.08 2.23
10.68 14.74 3.15
10.64 14.77 2.89
10.93 14.33 2.68
11.11 13.77 2.30
11.38 14.10 1.92
11.73 14.25 2.58
10.80 14.11 3.47
11.53 14.15 2.22
10.61 15.59 2.62
10.51 14.98 2.49
11.38 14.81 2.27
11.57 14.31 2.35
11.08 14.07 2.75
11.37 14.12 2.55
10.69 14.39 3.32
10.28 14.11 2.92
11.19 13.96 1.95
10.94 14.11 2.51
10.59 14.70 3.26
10.42 14.52 2.85
10.81 14.58 2.11
11.02 14.31 2.94
10.87 14.19 2.99
11.18 14.11 2.21
11.85 14.96 2.19
11.54 14.68 2.79
11.16 14.78 2.26
11.32 14.87 1.86
10.61 14.92 2.04
10.82 15.09 2.08
10.84 14.73 2.17
11.03 14.29 2.95
10.68 14.40 2.14
10.89 14.24 2.41
11.31 14.53 2.30
11.13 13.99 2.28
11.06 14.15 2.48
11.39 14.06 2.58
11.26 14.45 2.31
11.59 13.94 2.53
11.10 14.52 2.44
10.86 14.09 2.18
11.27 14.19 2.39
10.78 15.05 1.91
11.36 16.10 2.84
11.13 15.58 2.22
10.87 15.23 2.05
10.99 15.32 2.51
10.98 15.54 2.13
11.27 13.76 1.94
11.31 13.81 2.94
11.08 12.93 2.61
11.16 13.04 2.13
11.13 12.79 2.26
11.40 12.81 2.57
11.77 13.11 2.56
11.31 13.67 2.43
11.22 13.25 3.04
11.42 13.95 2.54
10.99 14.79 2.06
11.29 14.94 2.12
11.32 14.49 3.78
11.45 14.65 2.30
11.37 14.82 2.62
11.37 14.86 2.78
11.62 14.83 2.36
11.37 14.73 2.52
11.44 14.88 3.00
11.48 14.30 3.24
11.54 14.65 3.06
11.18 15.00 2.99
11.64 15.25 2.36
11.58 15.26 3.29
11.23 14.97 2.31
11.47 14.65 2.34
11.02 15.68 2.69
11.08 15.42 2.83
11.32 14.88 2.50
11.45 14.59 2.12
10.94 15.17 2.31
11.26 15.61 2.80
10.68 14.78 2.03
11.38 13.49 2.40
11.43 12.59 1.91
10.30 15.03 2.41
10.61 14.82 3.12
11.22 12.39 2.37
11.58 12.71 2.81
10.42 15.09 2.20
11.39 14.65 4.42
11.81 13.03 2.11
12.05 12.26 2.32
10.98 15.04 2.97
11.63 14.44 2.91
11.19 14.61 3.06
11.52 14.02 2.45
11.47 12.23 2.38
10.99 14.27 3.16
11.34 14.10 2.87
11.37 11.84 2.40
10.95 14.43 2.15
11.20 14.30 1.82
11.69 11.59 2.40
11.51 12.17 3.02
10.93 14.69 2.67
11.14 13.71 2.36
11.53 12.64 2.36
11.48 12.84 3.25
11.37 12.30 2.63
11.58 12.10 2.16
10.95 14.71 2.95
11.54 14.86 3.32
11.22 14.50 2.57
11.31 14.94 2.54
10.96 14.79 3.41
11.86 14.27 2.08
11.78 11.97 2.89
11.58 12.38 2.34
11.31 14.96 2.40
11.04 14.66 3.00
11.17 12.01 2.44
11.42 12.45 1.99
10.76 14.17 2.33
11.08 13.62 2.75
11.18 13.64 2.47
11.39 13.32 2.21
11.37 13.91 2.45
11.19 14.08 2.30
11.50 14.03 2.66
11.36 14.66 2.60
11.32 13.62 2.43
10.09 9.86 2.68
10.73 9.45 2.18
11.01 13.69 2.58
11.48 13.56 2.46
11.92 13.66 2.61
11.69 13.27 2.47
11.61 13.34 3.18
11.24 13.31 3.66
11.42 13.51 2.80
11.77 14.07 2.23
10.40 10.02 2.46
10.26 10.78 2.41
11.41 13.63 2.91
11.17 13.60 2.41
11.62 14.25 2.50
11.57 14.10 2.93
11.48 14.64 3.11
11.60 14.72 3.62
11.72 14.49 2.20
11.22 14.74 2.31
11.42 14.91 2.87
11.14 14.32 2.27
11.33 15.21 3.47
11.39 14.79 2.84
10.55 9.76 2.21
11.12 14.36 2.69
11.31 14.26 2.81
10.76 9.25 2.35
10.85 9.67 2.30
10.38 10.48 2.24
11.78 15.17 2.06
11.59 14.42 3.26
10.84 10.71 2.15
10.58 10.41 2.07
11.59 15.72 2.98
11.20 15.43 2.35
11.20 15.01 2.97
11.49 14.71 2.30
11.19 14.73 2.38
11.14 14.46 2.36
11.07 14.30 2.58
11.72 14.98 2.44
11.53 15.04 2.47
11.54 14.53 2.16
11.63 14.91 2.35
11.36 14.95 2.38
11.55 14.59 2.49
11.13 15.05 2.06
11.37 14.96 1.98
11.30 15.81 2.37
11.08 14.39 2.20
11.63 15.67 2.38
11.09 14.93 2.83
10.88 13.79 2.79
10.92 14.25 2.26
11.39 14.15 3.51
10.96 14.21 2.57
11.24 14.39 1.92
10.96 14.51 1.85
11.11 14.11 2.61
11.36 14.13 2.50
10.88 13.70 1.94
12.08 15.20 2.40
10.71 14.30 2.36
11.13 14.22 2.09
11.35 14.66 2.33
11.67 15.12 2.91
11.85 15.30 2.30
10.93 13.84 2.02
10.97 14.06 2.71
11.37 15.95 2.49
11.45 16.39 2.68
11.57 14.25 1.89
11.01 14.83 2.30
10.77 14.40 2.57
10.61 14.65 2.39
10.52 9.08 3.62
10.48 9.45 2.55
11.69 15.84 2.73
11.31 15.48 2.10
11.25 15.30 3.00
11.39 14.97 2.21
11.27 14.59 2.48
11.21 14.20 2.17
11.07 14.06 2.04
10.85 14.18 1.99
11.28 14.51 2.72
10.94 16.22 3.24
10.71 15.41 2.49
10.43 15.92 2.86
10.70 15.29 2.68
10.96 15.01 2.14
10.52 15.21 2.43
10.88 15.60 2.19
10.76 15.47 2.30
10.56 15.12 3.20
11.10 14.92 1.89
11.30 14.68 1.88
11.04 14.78 2.09
10.87 14.55 2.00
11.08 15.04 3.14
11.14 14.58 2.07
10.64 15.56 2.24
10.95 15.16 2.66
11.10 14.34 2.67
10.82 15.40 2.47
10.56 14.73 3.18
11.13 14.60 2.29
10.88 14.21 2.55
10.75 14.64 2.32
10.77 14.84 2.30
10.53 14.83 2.43
11.34 15.15 2.31
11.14 15.06 2.12
10.45 14.69 2.91
11.32 14.37 2.03
11.15 14.77 1.92
10.89 14.88 2.15
10.86 15.36 2.26
10.61 15.19 1.81
11.13 14.53 2.94
11.10 13.93 3.49
11.28 15.39 2.25
11.03 15.63 2.18
11.16 13.93 2.42
11.20 14.10 2.33
11.15 15.90 2.02
11.06 15.88 1.87
11.37 14.18 2.01
11.51 14.62 2.16
11.34 14.71 2.81
11.28 14.30 2.67
11.31 14.79 2.76
11.52 15.30 2.80
11.18 15.16 2.51
11.19 15.37 2.59
10.48 15.86 2.25
10.93 15.87 1.95
11.28 15.59 2.37
11.24 15.23 2.57
11.01 16.84 2.19
10.80 16.63 2.03
11.84 14.79 2.31
11.88 15.45 2.20
11.71 15.35 2.78
11.53 15.48 2.29
10.74 15.47 1.90
10.88 15.69 1.99
11.94 14.79 2.22
11.16 12.49 3.23
11.34 11.72 2.60
11.65 14.68 2.62
11.69 14.85 2.68
11.32 14.52 2.87
12.03 15.59 2.85
11.81 14.81 2.92
12.27 15.26 2.38
11.25 12.87 2.43
11.65 14.18 2.67
11.51 15.72 2.24
10.91 15.93 1.94
10.73 15.99 2.21
10.56 15.83 1.90
10.92 15.19 2.13
12.03 15.18 2.61
12.02 15.17 2.22
11.04 15.19 2.03
10.44 15.52 2.03
10.25 10.15 2.10
10.33 10.55 2.76
9.77 9.97 2.60
9.79 9.05 2.08
10.34 9.74 2.59
10.12 9.86 2.43
10.13 9.18 2.15
10.83 14.59 2.30
10.18 14.35 2.76
10.69 9.02 2.23
10.23 9.42 2.80
10.50 9.37 2.48
10.51 9.83 2.07
10.19 9.80 3.00
10.18 9.50 2.08
10.37 9.52 2.47
10.20 10.11 1.95
10.15 9.60 1.95
10.04 9.98 2.36
11.08 14.41 2.45
11.10 14.05 2.14
10.21 10.44 2.61
10.18 10.06 2.34
10.48 9.98 2.50
10.05 9.78 2.29
10.02 9.13 2.83
9.85 9.04 2.03
10.14 9.61 2.30
10.55 16.67 2.04
10.59 16.37 2.03
10.94 16.75 2.28
10.64 15.78 2.11
10.79 16.34 2.03
10.97 16.40 1.91
10.10 9.39 2.26
10.34 9.55 2.17
11.01 17.05 2.60
10.64 17.06 2.27
10.41 16.06 2.24
11.87 14.75 2.64
11.75 14.88 3.15
12.15 13.98 2.35
12.02 14.46 2.88
10.38 17.01 2.42
10.61 17.57 2.11
10.65 17.36 1.92
10.84 17.68 2.08
10.90 18.04 2.14
10.54 9.56 2.28
10.08 9.91 2.00
10.54 16.92 2.44
10.67 16.28 2.04
10.00 9.26 1.95
10.02 9.39 2.10
10.74 16.36 2.18
10.72 16.67 2.16
10.31 15.35 2.17
11.13 16.14 1.97
10.07 9.80 2.30
9.86 9.78 2.88
10.72 15.64 2.23
10.74 16.16 2.78
10.77 14.82 2.49
10.66 14.64 2.98
11.16 15.06 2.68
10.81 14.78 2.04
10.74 15.95 2.32
10.54 16.58 2.80
10.95 16.05 2.09
11.33 12.58 3.33
11.22 12.80 3.45
10.13 15.75 1.92
10.32 9.80 2.73
10.28 10.23 2.26
10.07 15.94 2.61
10.50 14.95 2.87
10.80 14.88 2.18
10.65 15.82 1.99
10.73 15.74 2.24
10.88 15.13 2.55
10.78 15.42 2.85
10.80 14.92 2.51
10.71 14.92 2.46
10.53 14.89 3.15
10.79 15.18 2.04
10.34 15.28 2.22
10.21 14.99 1.85
10.91 15.24 2.46
10.74 15.48 2.69
10.21 14.47 3.15
10.22 14.30 2.33
10.31 13.71 2.41
10.29 13.80 2.42
10.87 16.02 2.36
10.77 14.61 2.12
11.03 14.86 2.28
10.48 15.51 2.07
11.10 15.55 2.03
10.81 16.00 2.08
10.26 13.44 2.04
10.76 14.60 2.96
10.56 14.85 2.32
10.71 13.01 2.23
10.31 12.71 2.32
10.49 15.13 2.34
10.58 14.78 2.12
10.81 14.26 2.89
10.33 14.00 2.29
10.96 14.24 2.32
10.43 13.70 2.23
10.56 14.39 2.49
10.28 14.48 2.75
10.41 14.09 2.19
10.34 13.53 1.90
10.56 14.87 3.39
10.28 14.79 2.65
10.34 15.26 2.24
10.15 14.50 2.14
10.01 14.12 2.21
10.88 14.95 2.76
11.05 15.01 2.67
10.52 14.50 2.52
10.61 14.82 2.80
9.98 13.92 2.09
10.42 14.10 2.82
10.78 13.62 2.29
10.58 13.98 2.80
10.82 15.99 2.32
10.92 15.78 2.35
10.76 16.26 2.69
11.00 16.56 2.10
10.72 16.11 2.69
10.77 16.27 2.66
10.48 15.66 2.76
10.67 16.15 2.96
10.67 13.98 2.59
10.96 14.46 2.65
10.92 15.36 2.40
11.41 16.48 2.69
11.27 16.14 2.12
11.18 16.40 2.57
10.98 14.01 2.77
11.24 14.63 2.63
11.22 14.35 2.25
11.37 14.72 2.87
10.63 14.87 3.01
10.63 15.14 2.43
11.52 15.32 2.19
11.47 15.06 2.39
10.99 14.48 2.54
10.96 14.06 2.15
11.27 13.91 2.82
11.16 15.16 2.96
11.54 14.90 3.45
11.48 15.00 2.77
10.64 16.65 2.69
10.59 16.44 2.10
11.35 15.07 2.71
11.01 14.11 2.81
11.24 15.30 2.11
11.36 15.26 2.62
11.69 15.63 2.70
10.27 13.05 2.33
10.50 13.74 3.02
11.26 14.81 2.27
10.91 16.35 3.10
10.86 17.63 3.17
11.12 14.60 2.10
11.11 14.99 2.99
10.84 14.74 3.08
10.33 13.36 2.38
10.68 13.31 2.82
11.08 14.66 2.99
10.84 14.56 2.14
10.84 14.05 2.45
10.89 14.48 2.83
10.67 14.26 1.99
10.54 14.49 3.08
10.94 15.32 2.23
11.30 15.42 2.30
11.08 15.51 2.19
11.63 16.08 2.53
10.73 14.19 2.35
10.79 15.19 3.05
10.82 15.62 2.60
10.61 14.03 2.23
11.35 16.11 2.23
11.59 16.58 3.33
10.50 14.09 2.36
10.44 14.12 2.63
10.94 13.23 1.89
10.62 13.47 2.36
10.41 13.48 1.95
10.63 13.22 2.47
10.66 13.80 2.36
10.50 13.30 1.90
10.98 13.77 2.14
10.52 16.25 2.35
10.94 15.97 2.02
10.31 13.70 2.92
10.23 13.79 2.30
10.44 13.81 2.17
10.46 14.00 2.97
10.87 14.70 2.44
10.52 13.95 2.45
10.27 13.40 2.70
10.51 13.29 2.25
9.76 13.68 2.48
10.32 13.31 2.09
11.11 15.14 2.36
10.95 14.87 2.21
10.27 13.81 2.32
10.72 14.06 2.74
10.51 13.85 3.38
10.55 13.88 2.14
10.47 13.48 2.50
10.78 14.50 2.59
10.96 15.13 2.73
10.44 15.83 3.07
10.58 14.83 2.29
10.94 14.53 2.40
10.98 15.19 2.37
10.21 14.71 2.75
10.29 14.54 2.10
10.65 14.18 2.41
10.61 14.50 2.57
10.72 14.67 3.00
11.39 14.36 2.83
10.39 15.02 2.84
10.65 15.47 2.49
11.26 14.62 2.60
11.67 13.85 2.70
11.19 15.03 2.41
10.71 14.50 2.48
10.98 14.08 3.50
11.11 14.37 3.02
11.02 14.29 2.66
10.68 14.53 2.31
10.49 14.93 2.07
10.51 14.48 2.55
10.58 14.07 3.91
10.30 13.41 2.17
10.58 14.26 2.75
10.74 14.38 2.05
11.40 15.00 3.35
11.56 14.69 2.42
11.01 14.29 2.22
10.45 14.83 2.33
10.68 15.14 2.36
11.11 14.65 1.93
11.44 14.81 2.27
10.58 14.23 2.17
10.75 14.96 2.55
11.16 15.08 2.85
11.34 14.51 3.16
11.15 13.64 2.66
10.61 13.83 2.99
10.71 14.30 2.14
10.96 14.75 3.14
11.20 14.57 2.74
11.00 14.81 3.30
11.17 14.22 2.38
11.26 13.79 2.80
11.22 14.11 3.20
10.70 14.27 2.41
10.51 14.33 2.20
11.19 14.23 2.71
11.59 14.62 2.66
10.72 14.35 2.20
10.74 14.79 3.69
11.37 14.59 2.38
11.07 15.27 3.11
11.48 14.26 2.16
10.90 14.14 2.30
10.61 14.33 2.18
10.78 15.23 2.49
11.00 12.90 2.18
11.59 14.07 2.69
11.57 14.13 2.21
10.92 15.70 2.89
10.16 14.31 3.17
10.87 14.24 2.23
10.94 15.23 2.08
10.85 14.89 2.87
10.73 14.50 2.08
10.56 14.12 2.41
11.03 15.65 2.16
10.68 15.89 2.30
10.59 15.38 2.74
11.32 14.21 2.07
10.72 14.74 2.18
10.70 14.91 2.57
10.83 14.82 3.10
10.70 14.63 2.54
10.61 15.01 2.19
10.72 13.86 2.31
10.46 13.90 2.19
10.41 14.25 3.32
10.49 14.29 3.41
10.57 14.32 2.49
10.44 14.21 2.90
10.78 14.21 2.50
10.63 14.37 2.21
10.75 14.13 2.16
10.56 14.29 3.12
10.60 14.23 2.42
11.37 13.02 3.13
11.46 13.25 2.66
11.54 13.34 2.46
11.16 13.12 2.43
10.63 14.70 2.22
10.67 14.94 2.78
10.62 14.85 2.87
10.62 14.80 3.90
10.65 15.05 3.29
10.54 14.18 2.58
10.91 13.77 2.98
10.74 13.63 2.41
10.70 14.29 2.75
10.76 13.92 2.83
10.90 13.94 2.25
10.45 13.81 2.28
11.00 10.96 1.97
10.50 10.62 2.56
10.85 14.23 2.42
10.97 13.99 2.27
10.34 9.81 3.00
10.47 9.35 2.09
10.14 10.10 3.01
10.05 9.71 2.14
10.33 10.00 2.01
10.46 9.42 1.98
10.31 9.87 2.22
9.86 10.42 2.54
10.47 9.96 2.16
10.27 10.52 3.12
10.72 13.70 2.19
10.52 13.74 2.46
10.76 14.38 2.44
10.32 14.37 2.41
10.19 14.58 3.32
10.35 14.94 2.11
10.32 15.28 2.08
10.58 15.01 2.49
10.71 10.06 2.21
10.44 9.75 2.57
10.41 14.62 3.05
10.40 14.41 2.39
10.36 9.51 1.96
10.38 9.65 2.23
10.87 13.97 2.78
10.82 13.73 2.33
10.34 10.09 1.93
10.41 15.69 3.51
10.32 13.22 3.44
10.98 12.97 1.91
10.45 15.60 2.81
10.44 9.44 2.74
10.36 9.42 2.58
10.36 9.51 2.38
10.39 9.21 2.53
10.80 15.20 2.20
11.07 16.32 2.51
10.48 9.63 2.08
10.65 13.49 1.89
10.65 13.57 3.22
10.36 9.90 2.58
10.67 9.71 2.82
10.41 9.89 1.98
10.53 9.80 2.48
10.71 13.21 2.16
10.34 13.94 2.49
10.22 9.15 1.96
10.31 9.66 2.09
11.28 14.11 1.93
11.30 13.98 2.19
11.46 14.36 2.67
11.41 13.80 3.01
10.47 13.34 2.29
10.86 13.88 1.99
11.32 13.91 2.96
11.40 14.31 3.46
11.19 14.36 2.38
10.53 14.99 2.73
10.50 14.41 1.81
11.12 15.48 2.61
10.91 15.09 2.36
11.18 14.44 2.98
11.65 14.22 2.47
11.38 13.97 2.52
10.79 13.94 3.10
10.36 13.83 2.41
10.68 13.82 2.29
10.59 13.32 2.19
11.57 14.94 3.10
10.79 15.51 2.48
11.00 15.09 3.01
11.70 14.48 2.61
10.30 14.26 2.58
10.68 13.88 2.56
10.74 14.30 2.52
10.78 14.04 2.93
11.49 13.97 3.12
11.34 14.02 2.60
10.68 13.59 3.07
10.58 14.41 3.43
10.79 14.22 2.75
10.72 15.68 2.16
10.16 15.78 2.26
10.40 14.60 2.61
10.46 13.94 2.73
10.34 14.24 3.13
10.40 14.03 1.83
10.41 14.07 2.65
11.38 13.78 2.19
11.36 13.42 2.56
10.27 13.70 2.48
10.68 14.97 2.29
10.76 15.19 2.14
10.88 14.79 3.50
10.73 14.80 2.37
10.69 14.38 2.40
10.51 15.05 2.26
10.41 14.78 1.88
11.57 14.40 2.70
11.47 14.55 2.29
10.65 14.78 2.54
10.81 14.49 2.98
11.13 14.47 2.46
11.83 14.01 2.69
11.89 14.30 2.83
11.91 13.56 2.43
11.24 13.51 2.07
11.22 13.19 2.62
11.08 15.21 2.22
11.02 15.70 2.10
11.63 14.15 3.22
11.81 13.88 2.42
11.39 14.07 2.38
11.56 13.63 2.43
11.18 13.90 2.63
11.61 14.25 2.76
11.74 14.39 2.50
11.04 14.31 2.52
10.92 15.95 2.01
10.44 15.29 2.69
10.67 15.42 2.44
10.55 14.55 2.22
11.66 14.43 3.01
11.48 13.71 2.17
10.04 15.54 2.98
10.26 15.13 3.07
10.46 15.07 2.35
10.54 14.88 3.42
10.50 14.58 3.00
11.00 14.05 2.74
11.32 13.84 2.79
11.41 13.88 3.64
11.36 13.27 2.44
11.32 14.36 2.24
10.73 13.72 3.01
11.24 14.19 2.83
10.37 14.74 3.46
10.66 13.81 2.52
11.45 13.82 3.63
11.00 13.23 2.64
11.29 13.97 2.87
11.36 13.30 2.22
10.35 13.63 2.66
10.39 14.04 2.61
10.99 14.28 2.61
11.61 15.26 3.50
10.34 14.47 3.01
10.56 14.57 2.38
11.20 14.87 2.93
10.99 14.06 2.28
10.83 14.42 3.09
11.13 14.62 2.19
11.17 14.99 2.28
11.03 13.94 1.89
11.07 13.70 2.23
11.07 14.01 2.86
11.19 14.49 2.40
11.22 14.49 2.55
11.08 14.52 2.11
10.96 15.15 3.31
11.28 14.82 2.85
11.73 13.59 2.30
11.22 14.78 3.02
11.31 15.29 3.25
11.28 13.59 2.28
11.33 13.78 2.65
11.17 15.53 3.08
11.43 16.03 2.96
11.18 13.71 2.97
11.11 13.63 1.98
11.04 16.10 2.29
10.84 15.72 2.46
11.03 13.34 2.30
11.29 13.56 2.07
10.76 16.11 3.12
10.88 15.82 2.52
11.36 13.21 2.25
11.27 13.08 2.98
11.02 15.77 2.21
11.25 15.10 3.09
11.50 13.53 2.47
11.37 13.11 1.89
11.29 13.50 2.14
11.63 13.84 2.19
11.38 14.87 2.43
11.22 14.51 3.34
11.33 14.14 2.07
10.90 14.64 2.60
11.82 14.78 2.31
11.43 14.97 2.30
11.22 14.08 2.14
11.14 14.53 2.36
10.81 14.86 2.51
11.32 14.93 3.48
11.18 14.72 2.33
10.97 12.82 2.36
11.57 14.18 1.94
11.50 13.97 2.23
10.45 13.15 2.35
11.41 15.60 2.76
11.12 14.80 2.22
11.65 14.96 3.39
11.24 14.28 2.13
10.65 15.31 2.76
10.59 15.66 2.23
11.35 14.18 2.63
11.23 14.32 2.53
10.79 13.25 2.08
10.80 13.73 3.01
11.21 13.94 2.54
11.34 13.69 2.93
10.25 15.33 2.02
10.46 15.63 3.09
10.87 14.22 3.09
10.48 13.46 2.65
10.70 15.21 2.16
11.67 14.14 2.49
11.68 13.95 2.04
11.33 14.63 1.95
11.36 14.81 2.42
10.90 14.79 2.44
10.75 14.38 2.10
10.41 13.93 3.12
11.10 15.35 2.04
10.43 14.98 2.73
10.99 15.27 2.83
11.23 14.50 3.26
11.90 13.90 2.91
10.71 16.29 2.73
10.58 14.80 2.73
10.80 14.18 2.39
10.95 15.16 2.11
11.57 14.72 2.08
11.77 15.26 2.21
10.71 14.78 2.52
11.29 14.93 3.51
11.43 14.32 2.74
11.16 14.24 2.61
10.69 15.15 2.28
10.55 14.07 2.27
10.31 15.14 2.20
10.87 15.65 3.13
10.62 15.75 3.01
10.55 15.27 2.39
10.99 15.07 2.30
10.33 14.67 1.95
10.55 14.14 3.21
10.77 16.27 2.46
10.78 16.23 3.07
10.91 16.06 2.71
11.62 14.72 2.55
11.17 14.96 2.96
10.88 13.78 3.21
10.55 14.18 3.11
10.34 14.68 2.41
11.21 14.01 2.27
10.95 13.78 2.44
11.04 14.85 2.57
10.48 15.56 2.74
10.22 15.65 3.68
10.20 16.54 2.88
10.85 14.51 2.53
10.88 14.91 2.44
10.42 16.11 2.48
10.75 15.74 2.29
11.27 14.96 2.40
10.82 14.01 3.38
10.89 15.89 2.64
10.49 15.78 2.45
10.74 14.16 2.13
10.69 14.82 2.83
10.75 14.07 2.44
10.85 14.25 2.73
10.53 13.29 2.27
10.89 14.03 2.54
10.13 14.66 2.71
10.74 14.18 2.73
10.17 14.22 2.86
10.30 14.33 2.85
10.69 15.23 2.63
10.92 14.88 2.42
10.64 15.01 2.28
10.29 15.28 2.16
10.63 15.35 2.29
10.59 15.18 2.27
10.44 15.38 2.30
10.66 15.43 2.45
10.74 15.46 2.74
10.16 15.42 2.03
10.62 15.15 2.76
10.42 15.20 2.20
10.29 15.19 2.16
11.01 16.45 2.33
11.35 14.68 2.60
10.52 15.04 2.24
10.08 16.78 2.03
10.67 16.07 3.73
10.97 14.00 2.86
10.91 14.89 2.84
10.41 15.51 2.14
10.29 16.10 2.42
11.00 14.76 2.94
11.09 15.63 2.37
10.78 14.86 2.43
10.89 15.18 2.43
10.87 15.80 3.30
10.62 14.92 3.03
11.31 12.97 1.99
11.01 13.33 2.49
10.36 14.00 2.98
11.51 14.76 2.82
11.43 15.36 2.19
10.43 14.90 2.57
10.47 15.82 2.33
10.15 15.12 3.30
10.39 14.92 2.50
10.43 15.39 2.50
10.86 14.81 2.34
11.11 14.43 2.34
10.17 15.22 2.68
10.24 14.96 2.28
10.65 15.53 2.04
10.87 15.20 2.47
10.73 15.01 2.80
10.81 14.61 2.60
10.76 15.35 2.65
10.39 15.08 3.21
10.64 15.28 3.16
10.75 15.16 2.51
10.75 14.96 2.51
10.36 14.87 2.44
10.39 14.94 3.36
10.33 14.55 2.19
10.33 15.64 3.43
10.63 16.04 2.34
10.74 15.66 2.37
10.64 15.41 2.32
10.76 15.87 2.33
10.56 15.85 2.26
10.67 15.68 2.51
10.41 16.35 2.55
10.49 15.89 2.59
10.44 16.05 2.62
10.59 16.24 2.39
10.74 15.91 2.56
11.00 15.54 2.08
10.48 15.49 2.48
10.29 16.00 3.12
10.86 16.00 2.51
10.77 14.06 2.90
10.46 15.60 2.85
10.60 15.43 2.18
10.73 13.75 2.79
10.60 15.91 2.47
10.40 16.49 2.40
10.35 17.22 2.83
10.48 16.18 2.30
10.82 14.55 2.18
10.54 14.57 2.23
11.35 15.82 2.11
11.51 16.03 2.12
10.39 13.98 3.03
11.39 14.27 2.23
11.43 14.05 2.16
11.39 13.99 1.95
11.61 13.63 2.62
11.33 13.94 2.23
11.00 13.75 2.25
11.18 13.79 2.81
10.74 13.99 3.36
11.08 13.81 2.46
11.18 13.58 2.80
11.07 13.56 2.51
11.16 14.39 2.47
11.11 14.48 2.04
10.93 15.83 3.75
10.83 16.03 2.32
11.03 14.41 3.19
10.47 13.64 2.32
10.51 14.72 3.86
10.72 14.05 2.73
10.34 16.08 3.08
10.52 16.74 2.45
10.88 16.86 2.73
10.88 16.95 3.04
10.76 13.17 2.81
10.70 13.22 3.25
11.11 13.35 1.90
10.98 13.07 2.49
10.68 15.21 3.82
10.19 14.94 2.55
10.75 15.28 3.24
10.43 16.17 3.00
10.66 14.34 2.88
10.32 13.86 3.24
10.04 13.76 2.63
10.45 13.31 3.24
10.33 14.71 3.16
10.06 14.84 2.29
10.21 15.20 3.58
10.39 15.29 2.98
10.72 12.49 2.07
10.70 12.68 2.61
10.36 12.59 2.94
10.47 12.64 3.23
10.27 11.63 3.07
10.09 11.82 2.05
10.68 12.63 2.95
10.68 13.25 3.09
10.35 13.07 2.86
10.24 13.10 2.23
10.59 15.10 3.48
10.83 15.56 2.72
10.53 13.36 2.58
10.89 13.80 2.23
10.75 13.95 2.39
10.15 13.79 3.19
10.62 13.38 2.48
10.71 13.78 2.27
10.44 14.75 2.34
10.34 13.81 3.02
10.33 14.18 3.37
10.31 14.70 2.45
10.48 13.95 3.15
10.46 14.14 2.39
10.59 15.45 3.47
10.35 15.55 2.75
10.01 14.19 2.89
10.11 14.08 2.96
10.63 15.51 2.60
10.55 15.24 2.89
10.97 14.61 2.33
10.93 14.73 2.04
10.89 14.04 2.79
10.72 14.04 2.37
10.79 14.18 2.23
10.53 13.95 2.66
10.78 14.11 2.70
11.13 14.13 3.14
10.90 14.22 3.79
10.41 14.81 3.29
10.62 14.01 2.19
10.90 14.58 2.19
10.65 13.16 2.93
10.46 14.72 2.83
10.06 15.09 2.90
10.11 15.40 1.99
10.75 14.44 2.59
10.32 14.48 3.01
10.32 15.12 2.93
10.30 15.31 3.19
10.67 14.80 2.12
10.34 15.00 2.08
10.62 14.81 3.17
10.55 14.57 2.40
10.66 14.38 2.53
10.62 14.47 2.51
10.70 14.54 2.71
10.37 14.34 2.41
10.72 14.98 3.58
10.73 14.61 2.07
11.09 14.72 2.82
11.06 14.79 2.58
10.83 14.65 1.97
10.80 14.68 2.29
10.89 14.89 2.36
10.35 14.96 2.53
10.22 14.25 2.57
10.93 15.07 2.63
11.04 15.07 3.18
11.20 15.71 2.59
10.91 14.47 2.28
11.23 15.49 2.30
10.39 15.18 2.14
10.48 15.39 2.92
10.79 15.16 2.13
10.93 15.25 2.38
10.37 14.92 3.03
10.23 15.25 2.89
10.16 15.03 2.52
10.75 14.75 2.19
10.40 14.84 2.91
10.56 14.97 2.69
10.51 14.84 2.23
10.60 14.99 2.36
10.41 14.65 2.53
10.18 14.48 2.03
11.10 15.09 2.76
10.58 14.38 2.74
10.78 14.39 2.43
10.55 14.72 2.62
10.82 14.99 2.46
10.39 14.40 2.10
10.61 14.37 2.36
10.66 13.44 2.51
10.60 14.26 3.09
10.72 13.87 2.72
10.79 12.98 2.27
10.62 13.46 2.67
10.42 13.86 2.65
10.80 13.72 2.24
10.80 13.50 2.49
10.61 13.14 2.38
10.75 13.90 2.65
10.83 13.32 2.20
11.50 15.59 2.41
11.30 15.57 2.21
11.01 14.17 2.85
10.71 13.98 3.55
11.06 14.82 2.76
10.73 15.20 3.45
10.89 14.88 3.75
10.89 15.17 3.00
10.76 14.89 2.36
10.75 14.41 2.54
10.42 14.16 2.44
11.04 14.00 2.54
10.83 14.05 3.33
10.88 13.71 2.36
10.73 14.08 2.47
10.64 13.42 2.42
11.17 15.84 3.65
11.01 16.10 2.23
10.52 16.45 2.33
10.98 16.62 2.93
10.56 13.97 1.88
10.54 14.48 2.88
11.07 15.16 2.17
10.82 14.80 3.16
11.22 15.52 2.76
11.47 14.93 2.70
11.36 15.15 2.31
11.00 15.21 3.03
11.57 15.54 2.34
11.36 15.21 2.15
11.05 15.35 2.70
11.07 15.05 2.11
11.20 15.73 3.01
11.16 15.73 2.03
11.10 15.64 2.54
11.08 15.40 2.51
11.14 15.63 2.46
11.05 15.97 2.38
11.35 14.57 2.45
10.95 15.33 2.75
11.30 14.98 3.80
11.17 15.54 2.67
11.09 16.16 2.42
11.46 15.98 2.36
11.40 16.07 2.54
11.38 15.67 2.56
11.37 15.50 2.67
11.31 15.70 2.28
11.25 15.24 2.04
11.39 15.18 2.79
11.34 14.83 3.05
11.78 14.73 2.26
10.59 13.04 3.31
10.53 13.38 2.74
11.07 15.27 2.40
10.73 15.34 3.05
10.93 14.87 2.03
11.26 15.56 2.47
10.61 16.21 3.03
10.92 15.32 2.30
10.54 14.69 2.16
10.52 14.19 2.36
11.37 14.03 2.93
11.60 13.91 2.52
10.57 14.11 2.58
10.48 14.60 2.17
11.37 13.85 2.24
10.85 13.98 2.78
11.18 13.03 2.75
11.60 13.56 2.33
11.65 13.80 2.68
11.17 14.21 2.56
10.23 14.47 2.07
10.63 14.67 2.35
10.25 15.10 3.58
11.34 13.80 2.10
11.09 13.55 2.29
11.12 15.04 2.36
10.17 15.10 2.19
10.26 15.02 2.15
11.10 13.96 3.24
10.94 13.63 2.42
10.36 14.41 1.93
11.61 12.87 2.24
11.23 13.50 2.91
10.30 13.53 2.22
10.73 14.01 3.24
11.61 13.37 2.57
11.31 13.28 2.50
10.18 13.89 2.00
10.32 15.06 2.25
10.63 15.58 2.93
10.77 14.21 2.00
10.47 14.21 2.06
10.47 15.77 2.12
10.16 15.46 3.00
10.69 15.11 2.37
10.12 15.28 2.52
10.63 15.40 2.19
10.57 15.18 3.35
10.61 15.21 3.26
10.19 15.14 2.17
10.41 15.05 1.93
9.80 15.17 2.54
10.76 15.46 2.90
10.60 15.67 2.20
10.49 15.18 2.30
10.70 15.10 3.03
10.70 14.74 1.82
10.84 14.99 2.00
10.83 15.67 2.56
10.52 15.24 2.70
11.79 14.15 2.73
12.07 14.39 2.31
10.39 15.75 2.72
10.76 15.83 2.44
10.55 15.33 2.69
10.22 15.37 2.44
10.54 15.39 2.11
10.94 15.67 2.02
10.44 15.36 2.22
10.90 16.07 2.96
10.36 15.71 2.82
10.18 15.34 2.02
10.61 15.77 2.08
10.15 15.32 2.17
10.45 14.84 2.64
11.38 13.26 2.31
11.62 14.13 3.30
10.29 14.97 2.22
10.52 14.64 2.63
10.55 15.09 2.34
10.39 14.92 2.32
10.25 14.33 2.98
10.10 14.87 2.57
10.30 15.47 2.84
10.93 14.77 2.30
10.44 14.64 1.94
10.40 14.85 2.31
10.58 13.91 2.30
10.35 14.52 2.14
11.66 14.61 2.45
10.38 13.47 2.31
10.43 14.37 3.17
11.13 14.18 2.26
11.57 14.63 2.49
10.97 14.15 2.23
10.42 14.86 2.89
10.68 14.71 2.68
10.29 16.02 3.08
10.75 14.33 3.15
10.40 14.27 2.01
10.80 14.72 2.57
10.66 16.01 3.41
10.41 15.40 1.91
10.31 15.26 2.54
10.48 15.03 2.38
10.80 14.44 2.74
10.44 15.36 2.10
10.56 14.79 2.58
10.45 14.04 2.40
10.49 14.36 2.72
10.93 15.79 2.13
10.16 15.23 2.73
10.75 14.42 3.12
10.73 14.78 2.38
10.73 14.11 2.54
11.06 13.88 2.71
10.75 14.68 2.78
11.12 15.60 2.29
11.29 15.00 3.11
10.91 14.81 2.99
10.81 15.86 2.55
10.57 16.00 3.12
10.60 14.62 3.36
11.17 13.97 2.42
11.68 14.31 2.07
11.28 14.41 2.75
11.04 13.97 2.74
11.24 13.52 2.13
10.99 14.28 2.26
11.32 14.23 2.59
11.29 14.62 3.63
11.36 14.62 2.39
10.74 14.30 3.17
10.89 14.13 2.42
10.53 13.98 1.90
10.60 13.90 2.58
10.37 14.49 2.34
10.38 14.16 2.37
11.04 13.90 2.18
11.12 13.77 2.34
10.54 13.82 2.36
10.31 14.54 2.51
10.35 14.36 2.75
10.19 14.80 2.51
10.04 14.44 2.29
10.44 14.74 2.54
11.05 13.35 2.43
10.97 13.29 2.34
11.17 13.50 2.40
11.04 12.67 2.01
11.58 13.54 2.09
11.45 13.33 2.86
10.34 14.89 1.92
10.70 14.28 4.34
10.59 14.96 3.01
10.48 14.92 1.85
11.25 13.87 3.27
11.07 14.20 3.04
11.15 13.83 2.68
10.88 14.24 2.74
10.71 14.27 3.20
11.14 14.32 2.78
10.73 14.69 2.92
10.67 14.04 2.21
10.63 13.99 2.48
10.94 13.84 2.94
10.58 14.40 2.55
10.84 14.28 2.67
10.49 13.88 2.44
11.48 14.11 2.39
10.88 13.38 1.91
10.98 12.75 2.28
10.69 13.51 3.59
11.08 13.89 2.25
11.18 13.99 1.98
11.67 14.02 2.85
11.09 13.78 3.66
10.94 13.38 2.17
11.34 12.74 3.10
11.68 15.25 3.58
11.61 14.89 1.97
11.24 13.28 3.47
11.01 13.08 3.07
11.37 15.31 2.69
11.79 15.08 3.20
11.12 14.02 3.45
11.10 14.07 2.56
11.49 15.77 3.01
11.70 15.28 2.86
11.16 13.20 2.12
10.99 13.50 2.74
11.70 15.48 3.14
11.26 15.49 2.83
11.33 15.57 2.40
11.56 15.51 2.42
11.24 15.42 2.55
11.51 15.71 2.06
11.36 14.58 3.61
10.58 14.74 2.68
10.84 15.06 2.71
11.37 15.13 2.55
11.45 15.76 2.41
11.49 15.67 2.12
11.59 15.64 1.89
11.59 15.89 2.81
