# dyad-tip, V78-L292, W41-Y77 
10.79 11.73 2.18
10.48 12.01 2.45
11.03 9.24 2.55
11.04 9.62 2.33
10.53 9.27 2.22
10.55 10.26 2.36
10.76 10.98 2.02
10.75 11.87 2.83
10.86 12.53 2.27
10.89 12.14 2.62
10.21 11.74 2.06
11.02 15.07 2.42
11.12 15.32 2.34
12.05 14.49 2.33
11.94 13.64 2.42
11.04 15.34 2.28
11.24 14.75 2.18
11.24 15.33 2.26
10.70 10.29 2.15
10.21 10.31 2.05
10.73 14.37 2.62
11.05 14.15 1.88
10.71 14.50 2.24
11.04 14.53 2.16
10.61 14.99 2.74
10.94 15.49 2.77
10.91 15.27 2.20
10.49 14.85 2.45
10.64 14.54 2.07
11.09 14.73 2.16
11.14 14.80 2.73
11.09 14.98 2.08
11.12 15.18 2.80
11.12 14.98 2.28
11.19 15.41 2.42
10.79 12.58 2.19
10.64 11.99 2.34
10.78 14.32 2.42
10.46 14.67 2.91
10.97 14.23 2.49
10.35 14.53 2.80
10.91 14.73 1.92
10.76 14.56 3.21
10.40 14.83 2.53
10.89 14.09 2.36
10.44 13.74 1.99
10.49 10.66 2.00
10.37 10.10 1.96
10.67 14.15 2.55
10.69 14.28 2.06
10.61 9.85 2.10
10.86 10.19 2.57
11.01 15.24 2.20
10.67 15.01 2.60
10.54 10.15 2.43
10.48 10.10 2.43
10.64 14.60 1.91
10.71 12.72 2.18
10.53 12.69 2.53
10.58 14.74 2.05
10.45 9.62 2.49
10.52 10.45 2.23
10.80 15.04 2.11
11.13 15.18 2.29
10.48 10.53 2.61
10.77 13.35 1.83
10.64 13.67 2.13
10.70 10.36 2.38
10.45 10.06 2.59
11.24 15.27 2.60
10.90 15.16 2.50
10.67 13.04 2.22
10.75 13.06 1.87
10.66 13.29 2.11
10.40 13.55 2.41
10.56 9.80 2.38
10.73 9.78 2.45
10.88 9.61 2.16
10.58 15.49 2.38
10.78 15.50 2.41
10.85 15.58 2.51
10.52 15.14 3.01
10.52 14.98 1.93
10.74 15.36 2.11
10.80 15.19 2.12
10.41 14.22 2.15
10.93 14.51 2.44
10.37 14.73 2.24
10.56 14.99 2.57
10.58 14.71 2.81
10.75 14.70 2.17
11.00 14.04 2.30
10.43 9.47 2.37
10.46 9.47 2.65
10.43 9.53 2.60
10.67 12.44 2.22
10.47 12.92 2.43
10.53 10.13 2.42
10.84 10.25 2.36
10.76 9.75 2.31
10.66 14.94 2.22
10.57 14.65 2.40
10.71 9.85 2.64
10.84 9.70 2.23
10.72 15.07 2.42
10.90 15.10 2.27
11.07 14.06 2.72
11.36 13.66 2.86
10.51 14.59 2.31
10.64 14.45 1.99
11.03 15.00 2.37
10.41 15.10 2.72
10.91 14.98 3.70
10.28 14.59 2.48
10.50 11.54 2.14
10.64 11.24 2.70
10.75 14.86 2.49
10.85 13.76 2.20
10.88 9.91 2.34
10.73 10.38 2.70
10.88 13.87 2.22
10.60 13.91 2.27
10.52 13.26 2.04
10.82 13.62 2.27
11.27 13.94 2.21
10.90 14.27 2.12
10.59 14.50 2.20
10.45 14.26 2.26
10.44 13.76 3.09
10.45 14.22 2.16
10.55 14.33 2.63
10.70 15.18 2.56
10.40 14.10 2.47
10.94 13.99 2.01
10.76 11.19 2.48
10.86 9.70 2.21
10.43 10.57 2.55
10.42 10.18 2.02
10.69 10.50 2.39
10.88 10.85 2.31
10.97 10.61 2.50
10.92 11.49 2.66
10.55 11.75 2.75
10.90 11.24 2.14
11.15 11.13 2.16
11.25 11.22 2.27
10.97 11.55 2.89
10.98 10.96 2.33
10.73 13.41 2.13
10.53 13.51 2.88
11.18 9.78 2.09
11.07 9.64 2.06
10.84 13.69 2.28
10.72 13.81 2.43
10.03 14.28 2.55
10.55 13.96 2.07
10.93 9.87 2.04
10.79 15.99 2.61
10.69 15.73 2.82
11.18 10.15 2.12
10.54 15.06 2.64
10.51 15.91 2.36
10.27 16.08 2.57
10.55 15.73 2.38
10.38 15.61 3.27
10.80 15.65 2.65
10.88 15.00 2.92
10.53 15.79 2.85
10.40 15.56 2.75
10.46 14.23 2.16
10.50 13.93 2.55
10.76 14.90 2.61
10.83 14.55 2.28
10.78 14.88 2.60
10.44 14.68 2.30
10.48 14.47 2.43
10.72 14.66 2.33
10.77 14.67 2.09
10.80 14.45 2.19
10.42 14.07 2.39
10.90 14.15 2.16
10.33 13.99 2.36
11.53 14.88 2.64
11.29 14.13 2.41
10.85 13.60 2.57
10.40 14.58 2.80
10.89 14.89 2.28
10.63 15.29 2.94
10.67 14.81 2.10
11.00 13.75 2.36
10.68 13.84 2.22
10.53 14.54 2.52
10.52 14.89 2.65
10.60 13.60 2.17
10.59 9.94 2.78
10.48 9.85 2.37
10.80 13.26 2.24
10.90 14.72 2.34
10.34 9.62 2.11
10.75 13.43 2.48
11.17 13.92 1.98
11.08 15.16 1.93
10.57 14.86 3.14
11.10 14.18 2.29
10.68 13.90 1.98
10.83 13.02 2.31
10.44 13.69 2.22
10.87 9.42 2.43
10.37 9.60 2.23
10.70 14.08 2.56
11.10 13.19 2.97
10.78 13.11 1.90
10.87 13.94 2.73
10.90 9.35 2.27
10.74 13.39 2.31
10.89 13.15 1.86
10.25 10.15 2.37
10.83 9.46 2.60
10.76 13.53 2.33
10.73 13.91 2.10
10.75 9.05 2.43
10.78 8.87 1.98
10.80 13.45 2.77
10.68 13.65 2.16
10.97 13.93 2.40
10.87 14.27 1.94
10.65 14.21 2.15
10.50 14.16 1.87
10.61 13.87 2.21
10.77 13.40 2.42
10.68 13.39 2.19
11.53 12.74 1.95
12.00 12.85 2.20
11.58 13.02 2.20
11.52 13.22 2.38
12.07 12.88 2.14
12.04 12.52 1.84
11.95 13.03 1.89
12.08 13.00 2.06
12.14 13.65 2.11
11.82 14.26 2.15
12.34 13.85 2.08
11.72 14.31 3.72
12.00 14.09 2.35
12.08 14.10 2.03
10.44 13.33 2.16
11.13 13.54 2.03
11.01 15.59 2.22
10.46 15.17 2.63
10.56 15.17 2.97
