3 0.3239740820734198
3.4943820224719095 65.2267818574514
3.7847882454624022 96.43628509719223
3.985306828003457 96.65226781857451
4.189282627484874 98.0561555075594
4.386343993085566 99.89200863930886
4.694036300777873 85.09719222462203
5.005185825410544 73.97408207343412
5.496110630942091 43.9524838012959
5.997407087294727 26.88984881209504
6.495246326707 10.1511879049676
6.999999999999998 -0.6479481641468681
