# r1:Y77-D34, r2:S79-D214 
13.73 2.21 
15.05 2.04 
14.97 1.92 
12.95 2.17 
13.58 1.93 
13.61 2.22 
16.71 5.23 
15.11 2.04 
14.79 2.56 
15.91 6.02 
16.26 1.99 
14.58 2.17 
13.86 2.12 
14.13 2.04 
14.91 2.32 
14.47 2.05 
13.72 2.67 
14.06 2.15 
9.96 3.17 
10.06 2.78 
15.02 2.19 
15.18 2.11 
14.42 2.31 
14.16 2.20 
15.22 2.02 
15.08 2.31 
14.78 2.47 
15.00 2.17 
15.68 2.13 
14.75 2.27 
14.87 2.34 
10.15 2.99 
9.79 3.72 
14.98 2.05 
16.02 6.27 
15.33 5.94 
10.27 2.20 
11.51 2.96 
13.98 1.87 
14.95 2.52 
14.76 2.53 
9.42 3.26 
9.60 3.01 
14.41 2.07 
13.91 2.34 
15.91 2.03 
15.48 2.16 
9.05 3.04 
9.71 3.21 
15.29 2.88 
15.12 2.17 
15.08 2.49 
10.43 2.80 
9.52 4.00 
9.97 2.72 
10.91 3.25 
11.06 2.61 
10.61 3.42 
10.38 3.24 
8.94 2.73 
9.07 2.73 
10.80 2.60 
14.59 2.41 
9.87 2.54 
9.03 3.24 
14.57 1.96 
10.03 2.74 
10.24 3.13 
9.91 2.77 
9.54 3.44 
14.56 2.06 
10.39 2.87 
10.46 2.36 
10.85 3.13 
9.96 2.79 
9.03 3.28 
10.91 4.43 
14.53 1.96 
9.97 3.44 
9.59 3.42 
14.30 2.28 
9.18 2.41 
9.31 2.39 
14.91 3.27 
15.04 2.50 
14.95 2.59 
14.91 2.18 
10.26 2.94 
10.81 2.56 
14.82 2.01 
9.99 2.39 
10.15 2.79 
10.58 2.15 
10.49 2.43 
13.90 2.16 
14.65 1.96 
14.94 2.26 
14.47 2.30 
14.13 2.30 
17.95 2.67 
17.30 2.04 
17.35 2.16 
17.09 2.57 
14.74 2.53 
15.15 2.33 
16.76 2.54 
9.53 3.14 
10.22 2.39 
16.56 2.41 
15.74 2.18 
10.47 3.08 
16.17 2.12 
16.33 2.06 
10.49 3.72 
14.88 2.09 
10.38 2.08 
10.73 3.11 
16.52 2.05 
16.36 2.16 
15.64 2.28 
10.36 2.88 
11.36 2.20 
15.40 2.28 
15.68 3.42 
15.12 2.39 
10.76 3.21 
11.16 2.93 
16.46 1.96 
18.76 7.17 
18.35 6.66 
15.91 2.09 
16.10 2.13 
15.61 2.10 
15.25 2.34 
14.53 2.09 
10.32 3.11 
9.91 2.87 
16.52 2.15 
16.67 2.13 
15.55 2.40 
15.25 2.02 
15.25 2.25 
14.33 2.06 
15.80 1.97 
10.54 2.57 
15.05 2.27 
15.79 2.05 
10.27 2.31 
15.30 2.37 
15.34 2.30 
10.38 2.22 
16.27 2.34 
15.54 3.17 
10.33 2.58 
15.50 2.13 
16.02 2.07 
10.28 2.79 
16.76 2.02 
16.46 2.76 
9.48 2.46 
15.81 2.19 
14.97 1.97 
10.01 2.46 
10.68 3.16 
16.70 2.44 
16.28 1.84 
16.24 2.08 
16.21 2.63 
10.05 2.42 
9.83 2.42 
15.42 2.11 
15.66 2.25 
15.00 2.28 
15.58 3.21 
15.23 2.01 
15.36 2.55 
15.15 2.23 
15.24 2.04 
15.98 2.24 
15.40 2.23 
15.56 2.90 
15.56 2.74 
15.32 2.07 
15.16 2.57 
14.39 6.41 
14.29 5.98 
11.06 2.51 
10.61 2.21 
15.22 2.66 
10.10 2.29 
9.95 2.63 
10.27 1.92 
10.36 2.44 
16.09 2.02 
10.11 2.70 
15.30 2.53 
16.18 2.29 
16.63 2.30 
14.84 5.19 
14.35 5.60 
15.71 2.26 
9.36 2.83 
9.86 2.85 
9.53 2.66 
9.82 2.73 
14.95 3.36 
15.66 2.67 
15.32 2.52 
15.41 2.02 
9.80 3.15 
10.54 2.91 
9.71 2.23 
9.71 3.18 
15.66 2.59 
15.66 2.26 
15.98 2.62 
16.47 2.59 
10.06 2.78 
10.07 2.50 
10.18 2.84 
14.49 5.85 
14.97 5.26 
15.46 2.79 
15.63 2.31 
9.60 2.22 
9.63 3.73 
9.61 2.97 
16.14 2.34 
16.00 2.22 
10.13 2.72 
15.27 1.98 
15.75 2.61 
16.07 5.78 
15.91 5.45 
14.69 1.94 
15.04 1.96 
10.11 3.01 
9.62 2.87 
15.21 5.16 
15.93 2.17 
16.01 2.11 
15.16 5.91 
14.57 6.72 
14.55 6.29 
9.65 3.69 
9.53 2.86 
13.19 2.28 
14.17 2.07 
9.28 3.15 
16.20 2.14 
16.29 1.97 
9.47 2.20 
15.27 5.51 
14.54 6.16 
9.24 2.52 
9.51 2.64 
9.20 3.71 
10.07 4.08 
14.95 7.01 
15.48 6.57 
15.15 2.02 
14.55 2.49 
8.93 3.05 
9.62 2.75 
13.58 2.09 
13.46 1.96 
14.30 7.08 
14.60 5.43 
14.74 2.24 
14.69 2.64 
13.45 5.60 
13.63 5.15 
15.03 5.58 
15.56 2.07 
15.61 2.05 
15.28 5.32 
14.27 7.36 
15.43 7.31 
13.69 2.75 
13.20 2.07 
14.89 6.20 
15.21 2.55 
15.41 2.00 
14.96 5.71 
15.75 5.78 
14.53 2.20 
15.43 2.40 
15.39 5.84 
14.01 6.59 
14.12 5.56 
15.20 6.23 
15.62 7.24 
15.39 5.82 
15.59 5.18 
14.46 5.05 
15.56 6.30 
15.65 4.44 
15.06 4.87 
16.16 6.25 
15.92 6.23 
9.50 3.52 
8.83 3.78 
15.08 6.57 
15.20 6.19 
16.89 6.48 
16.39 5.65 
15.12 2.19 
14.94 2.11 
16.83 6.22 
9.35 3.56 
9.86 2.85 
16.50 6.09 
16.37 6.01 
9.27 3.37 
15.49 3.28 
15.33 3.22 
9.73 4.02 
9.98 2.89 
14.70 2.56 
15.45 4.91 
15.90 5.73 
14.80 2.17 
9.10 2.97 
15.29 5.37 
15.39 2.11 
8.95 3.00 
14.80 5.06 
14.94 1.94 
14.24 2.56 
14.65 3.19 
9.12 2.33 
8.64 3.30 
15.33 2.40 
14.97 2.24 
9.70 3.25 
15.07 4.38 
15.40 5.83 
9.14 2.83 
9.22 3.19 
9.23 2.72 
15.16 2.41 
15.09 2.23 
15.33 2.60 
14.76 2.01 
15.28 2.19 
15.56 1.91 
16.11 2.72 
15.78 7.42 
15.98 8.45 
16.40 6.78 
10.12 2.75 
10.47 4.37 
10.47 2.69 
10.64 2.84 
10.65 2.98 
10.68 3.25 
10.81 3.29 
15.73 2.05 
16.38 2.57 
15.60 2.39 
17.10 7.44 
17.51 7.35 
15.72 2.67 
15.28 2.85 
15.00 2.31 
10.22 3.08 
16.11 7.07 
15.31 2.02 
10.83 2.77 
16.56 6.32 
15.53 2.37 
10.23 2.76 
15.99 7.28 
16.38 5.78 
9.41 2.29 
9.49 2.25 
16.00 5.90 
15.43 2.58 
15.60 2.22 
15.84 7.25 
9.98 3.12 
14.98 2.30 
15.88 6.53 
10.71 2.95 
14.70 2.52 
15.86 6.69 
17.11 6.08 
14.54 2.33 
10.63 3.39 
16.01 7.05 
15.70 8.06 
15.15 7.41 
15.30 7.35 
9.99 3.16 
10.21 2.99 
15.76 6.35 
16.15 6.50 
10.26 2.48 
15.89 1.93 
15.50 2.32 
9.67 2.47 
15.78 7.43 
14.37 2.07 
10.31 3.33 
9.38 3.39 
9.49 2.67 
8.89 3.45 
14.37 1.88 
16.59 5.48 
16.35 5.71 
15.76 5.28 
10.05 2.36 
14.16 2.32 
15.91 6.55 
16.08 6.60 
15.55 4.77 
15.03 6.95 
14.36 1.93 
10.43 2.68 
16.04 6.01 
16.49 6.08 
10.30 2.41 
10.22 2.86 
15.66 5.51 
15.06 2.18 
9.30 3.04 
15.14 6.23 
15.51 2.93 
9.53 2.60 
14.40 6.19 
16.14 1.96 
15.69 2.63 
15.24 6.16 
10.29 2.60 
9.50 2.78 
14.79 2.38 
14.97 2.06 
10.24 2.45 
11.22 2.99 
10.86 3.09 
16.02 2.18 
15.97 1.98 
9.88 3.06 
9.40 2.78 
16.57 1.88 
15.90 2.45 
8.98 2.52 
9.50 2.95 
14.71 5.43 
15.03 4.87 
10.13 3.73 
10.42 2.94 
16.01 1.90 
15.97 2.17 
14.19 5.63 
14.07 6.15 
15.56 2.70 
16.17 2.37 
14.55 6.77 
18.54 7.13 
18.41 7.01 
14.00 6.16 
14.24 6.02 
18.06 6.87 
9.59 3.37 
14.64 7.31 
17.87 7.97 
9.95 3.05 
15.69 2.20 
15.98 1.96 
14.92 5.76 
15.08 6.51 
10.35 3.00 
9.63 2.65 
14.35 2.13 
14.84 2.18 
15.32 2.13 
15.76 1.92 
15.47 1.96 
15.72 2.64 
14.81 2.29 
15.09 2.20 
15.59 2.71 
16.15 2.40 
15.62 2.14 
15.85 2.23 
14.86 1.98 
15.76 2.31 
16.04 3.28 
16.31 2.11 
14.94 2.48 
14.98 2.62 
15.54 2.74 
18.82 6.92 
19.05 7.17 
15.43 1.93 
8.79 2.65 
18.81 6.97 
14.26 2.37 
15.11 1.91 
