# r1:Y77-D34, r2:S79-D214 
12.09 1.92 
11.98 2.91 
12.12 2.13 
11.77 2.33 
9.13 3.45 
9.39 2.97 
9.25 3.06 
9.00 3.06 
9.75 2.35 
9.61 3.53 
12.31 1.88 
12.26 2.16 
12.94 2.57 
12.75 2.12 
12.61 2.49 
13.07 2.32 
12.71 2.10 
12.10 2.01 
12.53 1.93 
12.58 2.98 
8.93 3.54 
9.57 2.43 
13.22 2.08 
12.95 2.20 
14.04 2.31 
13.26 2.10 
13.62 2.10 
14.23 2.33 
13.67 2.74 
13.14 2.23 
13.22 2.51 
13.35 2.87 
13.54 2.12 
13.37 1.75 
13.08 2.00 
13.54 2.40 
14.62 2.74 
13.97 2.24 
12.86 2.04 
10.23 2.50 
10.74 3.16 
12.48 1.99 
12.67 2.28 
10.24 3.30 
9.82 3.04 
9.83 3.35 
10.28 2.71 
12.64 2.27 
12.41 1.95 
10.03 3.21 
10.60 2.36 
11.73 2.58 
11.76 2.37 
10.26 2.89 
10.00 3.17 
10.83 2.42 
11.27 2.50 
11.08 2.90 
11.59 2.58 
10.05 3.03 
9.79 3.37 
10.78 3.33 
10.25 3.51 
10.93 2.15 
11.20 2.36 
10.06 2.98 
10.59 2.66 
11.06 2.64 
10.12 3.39 
11.17 3.22 
11.02 3.10 
10.72 2.74 
10.99 2.69 
10.53 3.07 
10.74 3.12 
10.22 2.50 
9.89 2.60 
10.42 3.35 
10.40 2.68 
9.30 2.65 
9.81 2.23 
10.12 3.25 
10.39 2.98 
9.43 2.73 
8.74 2.99 
9.30 2.67 
10.33 4.88 
10.16 2.59 
10.42 2.66 
9.38 4.06 
9.21 3.80 
9.46 2.94 
9.98 5.03 
10.04 5.07 
10.02 5.31 
10.42 4.91 
10.58 5.56 
10.33 4.45 
10.09 5.73 
9.60 5.35 
9.66 3.48 
9.61 4.07 
9.25 4.80 
9.14 4.86 
10.29 3.55 
11.02 2.58 
9.36 5.23 
9.52 5.09 
9.58 4.99 
9.59 4.29 
10.67 2.64 
10.52 2.39 
10.34 2.35 
10.20 3.44 
10.62 2.41 
10.85 3.36 
9.96 2.54 
9.51 2.79 
10.38 2.88 
10.54 3.00 
9.73 2.55 
9.79 2.34 
10.74 4.36 
10.28 3.79 
9.88 2.91 
9.73 2.83 
11.21 3.84 
11.01 4.18 
9.65 3.32 
9.42 3.10 
10.28 3.52 
10.28 3.06 
10.37 4.51 
10.01 5.96 
9.86 4.92 
10.52 4.78 
10.14 4.72 
9.74 4.83 
9.15 5.01 
9.55 3.89 
9.69 4.49 
9.76 4.40 
10.52 3.69 
10.09 3.59 
10.35 3.61 
10.90 3.25 
10.37 3.57 
11.13 4.62 
10.47 5.01 
10.61 4.14 
9.26 4.77 
9.74 4.32 
10.87 3.88 
11.22 2.70 
10.96 2.97 
11.50 2.31 
11.25 2.59 
9.97 4.57 
10.17 3.80 
10.19 3.53 
10.48 4.01 
10.19 2.99 
10.31 3.01 
10.02 3.87 
10.54 4.15 
10.14 5.20 
10.12 3.07 
9.93 3.84 
10.82 2.32 
10.54 2.26 
10.23 2.78 
10.42 2.96 
10.06 4.37 
10.17 4.22 
11.08 2.13 
10.90 2.19 
10.42 5.17 
9.86 2.61 
9.84 3.20 
10.10 4.92 
11.17 4.12 
10.46 5.56 
10.02 4.70 
10.25 2.83 
10.00 2.83 
10.04 2.39 
10.39 2.92 
10.00 2.64 
10.13 2.63 
9.48 4.81 
9.45 4.22 
10.21 2.85 
10.56 3.12 
10.37 3.08 
10.44 3.17 
9.91 3.70 
10.09 3.16 
10.52 3.79 
9.89 2.90 
10.16 2.70 
10.73 2.14 
10.23 3.20 
9.38 2.84 
9.72 2.57 
9.87 3.08 
9.50 2.69 
11.65 2.98 
11.63 2.63 
9.49 2.42 
9.54 2.52 
11.46 3.07 
11.36 3.06 
9.77 2.96 
10.85 3.62 
10.86 3.55 
8.77 2.88 
9.75 3.68 
10.55 2.78 
11.41 4.59 
11.17 4.66 
11.40 2.42 
10.10 2.63 
10.09 3.09 
11.33 2.97 
10.82 2.28 
10.87 2.79 
10.92 2.88 
10.54 2.39 
10.78 4.49 
9.85 3.06 
10.71 2.72 
9.87 4.91 
9.37 2.49 
10.64 2.33 
11.17 1.94 
10.00 2.15 
10.87 3.17 
11.39 2.41 
9.53 2.55 
9.93 2.39 
9.63 2.84 
10.47 2.39 
10.35 2.57 
9.92 2.51 
9.88 2.49 
10.14 2.54 
10.01 2.90 
9.94 3.07 
10.26 2.31 
9.76 3.54 
11.05 3.54 
11.20 2.86 
9.84 2.84 
10.67 3.02 
10.71 2.95 
10.27 3.19 
9.59 3.26 
10.03 2.75 
10.52 2.60 
10.34 2.43 
10.10 2.66 
10.74 2.18 
10.45 2.25 
10.95 2.10 
10.90 2.59 
9.66 3.03 
9.57 2.77 
10.53 2.07 
10.49 2.61 
10.61 2.14 
9.91 3.26 
10.13 2.51 
10.19 3.68 
10.24 2.78 
9.77 2.80 
10.69 4.12 
11.22 4.09 
10.19 3.31 
10.07 2.64 
17.00 5.56 
17.28 5.48 
10.22 2.95 
11.08 3.49 
9.87 2.59 
9.63 2.84 
17.55 6.33 
18.26 6.24 
10.93 3.83 
11.16 4.88 
10.49 2.58 
10.67 2.98 
10.28 4.11 
10.32 3.67 
11.04 2.60 
9.85 5.19 
9.68 4.46 
10.88 3.52 
10.53 3.84 
10.20 4.26 
10.26 4.34 
9.61 1.89 
9.73 2.72 
9.69 4.07 
9.47 2.59 
9.83 2.72 
9.95 4.58 
10.14 3.90 
10.00 4.20 
9.07 3.21 
8.82 4.04 
9.91 4.41 
9.52 2.79 
9.91 2.61 
10.41 5.98 
10.32 7.39 
10.16 2.44 
9.58 2.25 
10.89 6.86 
9.40 3.72 
10.05 2.45 
10.85 6.56 
9.73 3.07 
10.42 2.17 
10.21 3.37 
10.62 2.50 
10.04 2.61 
10.51 3.84 
10.38 2.61 
10.20 2.29 
10.57 2.63 
10.37 3.14 
9.82 2.29 
11.16 2.90 
10.43 2.67 
9.52 3.07 
17.08 5.03 
17.78 6.96 
9.48 2.45 
9.82 2.55 
9.77 2.79 
9.33 2.82 
9.69 2.43 
10.09 2.32 
17.39 5.41 
10.77 2.81 
9.33 2.64 
16.93 5.66 
9.52 5.55 
9.96 5.97 
9.67 3.12 
9.44 2.68 
17.96 5.60 
17.98 6.98 
9.85 5.51 
10.45 5.43 
10.00 6.13 
9.16 4.98 
9.75 4.13 
10.24 6.97 
10.75 7.70 
10.90 6.18 
10.34 6.39 
10.69 6.23 
10.33 2.48 
10.33 2.38 
9.98 6.51 
10.39 6.38 
9.45 2.78 
9.90 3.04 
10.37 3.05 
10.38 3.00 
10.68 7.11 
10.69 7.32 
10.07 2.55 
10.14 2.86 
10.24 6.57 
10.13 6.96 
10.53 2.47 
10.35 2.69 
10.08 5.22 
9.50 5.42 
9.93 5.90 
10.19 5.91 
10.32 6.40 
10.45 6.04 
10.38 6.65 
10.10 6.38 
9.61 2.32 
9.00 3.69 
10.55 7.21 
9.95 2.80 
9.47 5.14 
9.95 8.23 
10.44 6.90 
9.56 2.90 
9.13 5.33 
9.23 4.05 
9.39 5.36 
9.60 4.37 
9.86 4.44 
9.70 4.48 
9.62 3.27 
8.70 3.20 
8.82 2.91 
10.14 6.94 
9.84 3.54 
8.67 3.43 
10.69 7.01 
10.51 7.33 
10.12 7.07 
10.44 6.84 
10.54 3.02 
9.63 3.31 
10.17 7.60 
10.35 7.80 
10.07 8.23 
9.83 8.26 
10.29 7.01 
11.26 6.63 
10.89 6.63 
11.21 7.11 
11.26 6.33 
11.34 6.01 
9.94 2.64 
10.31 1.94 
9.76 3.07 
9.35 3.77 
11.31 6.02 
11.64 5.69 
11.44 5.12 
11.09 5.41 
9.29 3.55 
9.00 3.49 
9.27 4.01 
9.25 3.93 
9.35 3.32 
9.19 3.65 
9.43 3.65 
10.65 3.62 
10.60 3.65 
8.83 3.83 
11.24 5.54 
12.02 5.69 
8.91 2.96 
8.96 3.94 
9.40 3.44 
9.21 3.46 
11.95 5.25 
11.43 5.62 
9.09 3.22 
8.60 3.75 
11.26 6.24 
10.99 6.48 
8.68 3.28 
9.47 2.63 
9.45 3.06 
11.10 5.70 
10.81 4.75 
9.11 2.96 
9.42 2.68 
12.50 2.17 
8.31 3.86 
8.04 3.90 
10.78 5.70 
10.66 4.92 
11.99 2.38 
12.35 2.18 
11.98 2.12 
11.41 2.08 
10.06 2.42 
10.01 2.55 
12.26 1.97 
10.85 1.76 
11.86 5.65 
11.64 2.22 
12.60 2.29 
11.77 7.18 
10.01 2.62 
10.05 2.33 
11.21 2.87 
12.31 2.02 
11.77 5.06 
11.29 5.07 
12.26 5.13 
9.51 6.23 
12.31 1.98 
10.68 2.46 
10.94 2.06 
11.15 6.44 
10.90 6.41 
11.69 2.32 
9.82 3.21 
10.26 2.12 
12.99 2.13 
9.72 3.06 
10.19 4.18 
10.37 4.30 
10.94 2.89 
10.86 3.02 
9.75 3.17 
