# r1:Y77-D34, r2:S79-D214 
9.17 2.54 
8.79 3.13 
8.70 2.77 
8.76 3.48 
8.58 3.03 
8.62 3.23 
8.26 3.10 
9.96 2.33 
9.67 2.77 
8.79 3.47 
8.27 2.79 
10.24 2.27 
10.17 3.43 
8.45 3.41 
8.49 3.45 
10.95 2.20 
10.52 2.60 
8.78 2.77 
8.81 2.38 
10.53 2.62 
10.55 2.75 
8.61 3.17 
9.14 2.58 
10.19 2.34 
11.01 2.01 
9.50 2.53 
9.74 2.74 
10.27 2.38 
10.48 2.72 
9.41 2.72 
8.87 2.84 
10.99 2.76 
11.20 2.39 
9.41 2.78 
10.15 2.54 
9.79 3.42 
9.49 2.40 
9.49 2.87 
9.50 2.57 
10.43 2.42 
10.70 2.27 
10.26 2.26 
10.55 2.31 
10.25 3.07 
10.20 2.63 
11.42 2.61 
10.94 3.44 
9.37 3.76 
9.54 2.65 
9.39 2.56 
9.75 2.54 
10.06 2.90 
9.38 2.44 
10.57 2.15 
10.62 2.17 
8.94 2.81 
9.73 3.73 
9.69 3.55 
9.72 5.15 
11.10 2.29 
10.64 1.93 
8.88 3.45 
9.38 3.64 
10.48 4.07 
10.04 5.41 
8.73 2.75 
9.46 2.87 
11.11 2.21 
11.22 2.70 
11.08 2.65 
10.54 2.11 
10.53 2.03 
11.26 2.18 
10.09 3.67 
10.33 3.42 
11.65 3.02 
10.99 3.84 
11.11 2.76 
10.97 2.90 
9.77 3.29 
9.00 3.62 
9.66 3.55 
9.35 2.16 
9.61 2.12 
9.61 2.45 
9.84 3.15 
9.66 2.84 
11.01 3.00 
10.64 2.97 
10.78 3.45 
10.53 3.29 
8.70 2.79 
9.28 2.97 
10.92 2.77 
10.66 2.30 
9.17 3.42 
9.28 3.19 
9.13 3.47 
8.65 3.49 
8.57 3.29 
8.90 2.83 
8.40 3.25 
9.14 2.77 
9.32 2.99 
9.76 2.96 
10.21 2.45 
10.77 1.97 
9.37 4.09 
9.08 2.88 
9.45 3.53 
9.49 3.90 
11.05 2.74 
10.88 2.06 
8.95 3.33 
9.53 3.60 
9.91 2.99 
10.03 2.40 
10.98 2.71 
10.80 3.51 
10.11 2.24 
10.57 2.43 
9.14 3.75 
9.27 3.23 
10.08 2.20 
9.81 2.62 
10.36 3.09 
9.90 2.88 
9.89 2.71 
10.20 2.96 
19.23 9.16 
18.94 8.38 
10.24 3.38 
10.47 3.36 
10.08 2.64 
10.41 2.10 
10.02 2.77 
10.10 2.56 
10.14 2.05 
10.91 2.34 
10.47 2.62 
9.80 2.66 
8.67 3.17 
7.91 2.46 
9.77 3.26 
9.82 2.64 
9.23 3.09 
9.39 2.72 
8.64 2.68 
8.78 3.28 
10.63 3.10 
10.79 2.77 
11.26 2.18 
11.53 3.13 
9.09 3.03 
9.02 3.19 
8.55 4.15 
8.67 4.19 
9.89 2.18 
10.50 2.58 
11.05 2.01 
11.39 2.57 
10.08 2.88 
9.91 2.21 
9.90 4.03 
9.33 3.31 
10.50 2.68 
11.15 2.56 
10.62 3.59 
10.52 2.38 
10.81 3.66 
10.66 3.63 
19.33 7.37 
18.88 7.40 
10.43 3.30 
9.60 2.66 
8.99 2.94 
9.83 2.41 
10.86 3.16 
10.52 2.72 
9.23 3.44 
8.99 3.84 
11.24 2.17 
10.65 2.63 
10.80 3.10 
10.77 2.57 
10.45 3.03 
10.67 2.68 
10.54 2.59 
10.99 2.38 
10.22 2.84 
10.52 2.98 
9.69 4.06 
8.90 2.37 
9.49 3.84 
10.03 2.82 
10.30 2.39 
10.21 2.94 
8.86 2.95 
9.15 3.18 
9.52 2.58 
9.97 3.45 
9.81 3.39 
9.68 2.60 
9.21 3.02 
9.21 3.32 
10.11 2.46 
10.18 2.58 
9.58 3.22 
9.39 3.15 
10.85 2.22 
10.55 3.04 
10.09 3.16 
9.78 3.04 
9.59 3.69 
9.76 3.08 
10.65 1.93 
10.84 2.59 
9.45 2.87 
9.80 3.33 
10.95 1.98 
10.75 2.10 
10.19 2.83 
10.33 2.55 
10.67 1.96 
11.18 2.23 
10.53 2.36 
10.69 2.77 
9.90 3.26 
10.39 2.48 
9.92 2.64 
9.29 2.49 
10.51 2.41 
11.03 2.80 
9.75 2.86 
10.21 2.59 
9.44 2.69 
10.35 2.47 
11.22 2.08 
10.18 2.56 
9.77 2.53 
9.92 3.26 
10.26 2.28 
9.75 2.29 
10.00 2.92 
9.95 2.83 
10.01 3.05 
10.12 2.70 
9.83 2.67 
9.91 4.32 
9.72 2.50 
9.58 2.19 
10.38 2.50 
10.06 2.72 
9.59 2.83 
9.64 2.52 
9.22 3.30 
10.56 3.72 
9.60 2.55 
9.62 2.25 
9.57 2.63 
10.21 2.83 
10.37 3.03 
9.49 3.18 
10.11 2.63 
10.09 2.21 
9.96 2.44 
9.46 2.81 
9.71 2.52 
9.91 3.10 
9.23 2.39 
9.41 3.03 
9.88 2.60 
9.98 2.82 
10.05 3.29 
10.34 2.27 
10.29 2.32 
9.75 2.15 
10.08 2.60 
10.44 3.01 
9.48 2.60 
9.75 3.08 
9.98 3.24 
10.64 3.13 
9.47 3.24 
9.05 2.39 
10.32 2.28 
10.74 2.75 
9.60 3.76 
9.88 3.19 
11.25 2.14 
10.70 2.38 
10.32 2.73 
10.28 3.36 
10.59 2.13 
10.92 1.95 
11.36 2.29 
10.26 2.63 
9.83 2.84 
9.76 2.36 
9.99 2.23 
9.76 3.46 
10.00 2.51 
10.28 3.93 
9.45 3.20 
9.26 2.95 
9.35 3.06 
9.02 2.66 
9.70 2.51 
10.33 2.37 
11.37 3.11 
11.35 2.23 
10.17 2.93 
9.67 2.49 
9.17 2.48 
9.44 2.76 
10.24 2.70 
9.56 2.57 
9.82 2.72 
9.90 3.15 
10.57 2.90 
10.36 2.90 
9.16 2.48 
9.69 2.47 
9.38 2.93 
9.34 2.63 
10.70 2.11 
10.43 3.82 
10.08 3.35 
10.08 3.00 
9.60 2.44 
9.35 2.61 
11.15 3.18 
11.35 2.68 
10.45 3.21 
9.62 2.71 
10.63 2.57 
10.31 2.83 
9.37 2.63 
9.24 2.15 
11.17 2.75 
10.38 2.41 
9.44 3.26 
9.40 3.57 
9.37 3.60 
10.21 3.96 
9.68 3.46 
10.86 2.15 
11.03 2.59 
10.49 2.73 
9.49 2.73 
8.67 3.24 
8.68 3.05 
8.93 3.95 
10.50 2.57 
9.82 2.69 
10.24 3.03 
10.00 2.63 
10.15 2.42 
9.84 2.67 
9.57 2.54 
9.58 2.26 
9.21 2.43 
9.26 3.00 
9.50 2.74 
9.42 3.16 
9.48 2.32 
9.36 2.89 
9.25 2.87 
8.88 3.38 
9.30 3.05 
9.70 3.71 
9.39 3.76 
8.75 2.85 
9.47 2.31 
9.70 3.66 
10.55 2.29 
10.73 2.18 
9.75 2.38 
8.79 3.32 
10.13 2.45 
9.95 3.49 
8.83 3.63 
8.29 3.38 
8.23 2.38 
8.53 2.12 
9.17 2.80 
9.04 2.64 
9.95 3.85 
9.99 3.97 
8.82 3.75 
9.50 2.58 
8.81 3.89 
8.69 3.26 
9.45 2.72 
8.84 3.26 
8.77 4.05 
9.09 3.34 
8.25 3.05 
8.00 4.07 
8.27 2.54 
7.93 2.91 
9.38 2.78 
9.53 3.36 
9.71 2.82 
8.80 3.29 
8.30 2.73 
8.09 2.38 
8.87 2.43 
8.62 3.53 
8.19 3.04 
9.36 2.84 
9.28 2.70 
8.95 2.54 
10.02 2.64 
9.82 3.87 
8.67 2.40 
8.68 2.26 
8.72 2.68 
8.82 2.31 
8.53 2.64 
8.68 2.34 
9.30 3.80 
9.07 3.40 
9.09 2.29 
8.95 2.61 
9.62 2.15 
9.37 2.88 
9.68 3.21 
9.85 2.69 
9.54 3.25 
9.71 2.39 
9.59 3.80 
9.73 3.24 
9.74 2.76 
9.57 2.64 
9.19 3.25 
9.14 3.43 
9.09 2.38 
9.58 2.00 
10.11 2.84 
9.98 2.66 
9.31 2.17 
9.37 2.52 
8.32 3.44 
8.73 3.90 
9.31 2.75 
9.87 2.40 
8.99 2.23 
9.10 2.90 
8.85 2.62 
9.13 2.43 
10.44 2.49 
10.58 2.54 
8.33 2.52 
8.91 2.42 
9.79 2.65 
9.31 3.28 
8.33 2.56 
8.78 2.50 
8.96 3.04 
9.38 3.06 
8.92 2.55 
9.23 2.74 
8.01 4.89 
8.84 4.17 
8.32 4.41 
8.59 3.78 
10.84 2.96 
10.91 2.60 
9.61 2.80 
9.44 2.66 
10.01 3.88 
9.82 3.16 
10.53 2.70 
10.04 3.13 
9.90 2.28 
9.57 2.73 
8.58 4.32 
8.63 4.87 
9.95 2.27 
9.40 2.14 
10.15 2.95 
10.04 2.94 
10.32 2.88 
10.66 3.05 
10.03 3.58 
10.27 3.59 
10.80 3.31 
10.40 3.02 
10.42 2.96 
9.51 2.16 
9.36 2.25 
9.70 3.04 
10.10 2.62 
9.55 2.69 
10.00 3.35 
9.94 2.80 
9.60 2.53 
10.24 2.45 
9.86 2.55 
