# r1:Y77-D34, r2:S79-D214 
11.63 2.69 
11.08 2.08 
10.61 2.08 
10.41 3.02 
10.46 2.46 
11.57 2.46 
10.98 2.11 
10.83 2.53 
11.91 2.52 
10.29 3.09 
10.07 1.87 
11.81 2.81 
10.64 2.22 
11.14 2.97 
11.21 2.27 
11.53 3.01 
10.88 2.12 
9.88 3.88 
9.87 3.08 
10.15 2.80 
11.15 3.02 
10.65 2.29 
10.50 3.44 
10.60 2.54 
10.60 2.11 
10.96 3.07 
10.22 4.12 
10.68 3.31 
9.14 2.26 
9.81 2.55 
10.24 2.90 
10.52 3.81 
10.93 2.69 
11.08 2.36 
9.91 2.31 
10.77 2.68 
10.53 2.20 
10.17 2.07 
10.46 3.33 
9.33 2.76 
9.10 4.29 
10.51 2.98 
9.70 3.24 
11.19 3.72 
10.46 2.22 
10.81 2.26 
10.58 2.49 
9.48 2.71 
9.91 2.98 
9.80 4.06 
11.07 3.07 
10.86 2.11 
9.14 4.15 
9.91 3.51 
9.05 4.86 
9.68 3.47 
9.60 4.16 
10.98 3.03 
10.98 2.75 
9.33 3.46 
9.55 4.27 
9.91 3.35 
9.77 3.32 
9.34 3.16 
9.19 3.81 
9.91 3.35 
10.42 3.24 
10.06 2.40 
9.84 3.30 
9.79 3.09 
10.15 3.86 
9.76 3.45 
9.80 2.98 
9.78 3.70 
10.11 2.71 
10.70 3.22 
10.19 3.28 
10.43 2.08 
9.32 2.84 
9.95 3.51 
9.92 3.46 
10.19 2.37 
10.41 2.71 
10.82 2.98 
9.84 2.28 
9.27 3.02 
10.44 3.08 
9.52 3.01 
11.28 3.13 
11.08 2.96 
9.67 2.88 
9.59 2.41 
10.66 2.71 
9.69 2.48 
10.42 3.19 
10.07 4.05 
9.29 2.88 
9.90 3.01 
9.84 3.19 
11.21 2.30 
10.22 2.85 
9.65 3.08 
10.64 3.27 
10.52 3.02 
11.36 2.84 
10.08 3.45 
9.00 3.44 
9.56 3.24 
10.84 2.53 
11.17 2.98 
9.39 3.43 
10.33 2.43 
11.12 2.92 
10.66 2.49 
10.32 2.56 
9.78 2.87 
10.51 2.42 
10.24 2.16 
10.71 2.27 
10.53 3.41 
9.87 2.92 
9.65 2.75 
9.66 3.10 
10.17 3.08 
10.75 3.14 
9.92 3.35 
9.69 3.01 
9.70 2.46 
10.26 3.10 
9.83 3.19 
10.89 2.83 
10.24 3.26 
9.78 2.82 
10.91 2.59 
10.62 2.99 
9.67 2.68 
9.79 3.61 
9.99 4.42 
10.38 2.71 
10.71 2.47 
10.49 2.95 
11.30 2.44 
10.26 2.30 
10.02 3.41 
10.31 3.32 
10.40 3.12 
10.13 3.49 
10.29 3.22 
10.51 3.65 
11.34 3.62 
11.78 2.39 
10.74 2.50 
10.93 3.00 
10.90 2.69 
10.70 2.37 
10.81 2.11 
10.82 2.63 
11.25 2.63 
11.15 3.30 
10.18 2.58 
10.73 3.00 
10.42 1.89 
10.58 2.51 
10.56 3.93 
11.18 2.56 
10.17 3.76 
10.22 4.02 
10.38 3.08 
9.48 3.48 
9.69 4.07 
11.73 2.50 
10.36 3.18 
9.92 2.62 
10.86 2.78 
10.07 4.10 
10.28 2.95 
10.69 2.69 
10.65 2.01 
11.40 2.41 
9.45 2.92 
10.16 3.87 
10.03 2.46 
9.51 2.71 
11.06 2.88 
10.13 3.41 
10.80 3.07 
10.85 2.35 
10.52 2.88 
10.78 3.55 
10.58 2.78 
9.82 2.13 
9.21 1.84 
8.99 2.82 
11.28 3.64 
10.45 3.54 
9.94 3.45 
9.78 2.28 
9.38 3.11 
10.05 3.08 
8.92 2.84 
9.56 4.05 
9.94 3.76 
9.58 2.56 
10.02 2.91 
9.96 2.66 
9.91 2.86 
9.34 2.17 
9.53 3.28 
9.35 2.53 
9.84 2.14 
9.04 2.99 
9.39 2.87 
10.01 2.63 
9.18 3.26 
9.85 2.42 
10.53 3.02 
9.62 3.40 
10.68 2.75 
10.44 3.10 
10.60 2.12 
10.82 2.92 
10.02 2.29 
10.62 2.96 
10.63 2.80 
9.93 2.74 
10.37 2.88 
11.50 2.42 
10.87 2.12 
10.41 2.86 
10.82 2.99 
10.49 2.53 
10.05 2.61 
9.98 2.42 
10.49 2.54 
11.25 2.42 
10.30 2.28 
9.06 2.99 
10.66 2.93 
10.42 2.68 
9.16 2.85 
11.41 2.27 
10.61 2.96 
10.57 2.78 
11.08 3.15 
10.27 2.82 
10.07 2.85 
9.62 2.72 
9.67 3.42 
9.66 2.76 
9.66 3.24 
10.82 2.47 
10.97 3.81 
9.44 3.45 
11.03 2.10 
10.24 2.10 
10.00 2.73 
9.17 2.05 
8.95 2.67 
11.39 2.72 
11.41 2.69 
11.06 2.78 
10.53 3.42 
9.63 2.86 
9.71 3.59 
9.73 2.76 
9.79 2.47 
9.82 2.87 
10.44 2.21 
11.21 2.61 
11.31 2.22 
9.94 2.52 
9.66 2.38 
10.78 3.85 
9.75 2.56 
11.13 2.92 
10.51 3.10 
10.24 3.86 
9.41 2.54 
9.26 2.84 
9.67 3.33 
10.08 3.60 
10.10 3.56 
9.86 2.65 
9.80 2.06 
10.50 4.48 
9.94 2.76 
9.87 3.45 
9.48 3.84 
9.76 3.59 
9.65 3.05 
10.81 2.15 
10.10 2.83 
9.61 3.55 
10.94 2.26 
11.41 2.53 
10.10 2.72 
9.68 3.04 
9.64 3.49 
10.01 2.13 
11.12 2.52 
9.77 4.09 
10.13 3.18 
11.32 3.05 
11.05 2.76 
10.44 2.56 
10.54 2.98 
9.90 3.04 
10.28 3.43 
9.95 3.44 
10.36 2.77 
10.87 3.69 
10.26 3.31 
11.05 3.97 
11.24 2.77 
10.70 2.90 
10.12 2.31 
10.75 2.42 
10.30 3.44 
10.08 2.91 
10.37 2.71 
10.58 3.89 
10.70 3.45 
10.88 2.23 
10.00 3.09 
10.60 2.83 
9.93 3.07 
11.05 3.61 
11.33 3.39 
10.06 3.93 
10.82 2.08 
10.65 3.62 
10.57 2.74 
10.35 2.08 
9.65 2.31 
10.54 3.78 
10.54 2.55 
10.29 2.65 
10.78 3.74 
9.92 3.01 
9.38 3.95 
10.70 3.05 
10.12 3.05 
11.42 3.31 
11.17 2.66 
9.53 4.21 
11.25 3.36 
10.90 3.06 
11.19 1.98 
10.09 2.65 
9.36 3.68 
11.36 2.75 
10.81 2.79 
11.13 2.52 
11.62 2.28 
9.66 2.93 
11.49 2.75 
10.74 3.57 
11.21 2.46 
10.82 2.93 
10.97 3.33 
11.03 3.28 
9.73 3.83 
9.72 2.83 
11.35 3.31 
9.52 4.19 
11.03 2.37 
10.74 2.46 
9.80 2.20 
11.47 3.13 
10.88 3.78 
9.93 3.44 
10.51 2.92 
10.49 2.98 
11.21 3.21 
9.48 3.09 
10.25 2.51 
10.29 2.91 
9.99 2.30 
9.85 2.38 
10.36 3.14 
9.86 2.76 
10.46 3.10 
10.00 2.92 
10.50 2.65 
9.91 2.49 
9.82 2.02 
10.82 3.39 
10.89 3.22 
9.68 2.75 
10.45 2.91 
9.67 3.87 
9.41 2.21 
9.56 2.84 
10.21 3.77 
10.38 2.44 
10.64 2.45 
10.84 3.37 
9.35 3.66 
9.39 3.63 
11.21 2.51 
11.04 2.36 
10.67 3.92 
10.70 2.87 
9.91 3.65 
10.46 3.54 
11.76 2.22 
9.87 2.32 
9.53 2.26 
10.37 3.42 
9.82 4.00 
11.68 2.73 
11.29 2.92 
10.55 3.13 
10.14 3.28 
10.67 3.11 
10.55 2.52 
10.51 3.50 
10.91 2.06 
10.93 2.18 
10.15 4.22 
10.86 2.01 
10.49 3.59 
10.88 3.94 
10.36 2.85 
9.78 3.56 
11.42 3.37 
8.93 3.99 
9.07 4.36 
11.44 2.46 
11.33 2.17 
10.63 2.69 
10.76 1.92 
9.57 3.91 
9.75 3.18 
11.75 2.79 
10.37 2.80 
11.43 2.08 
10.50 2.58 
9.24 3.38 
10.11 3.01 
10.27 3.11 
10.65 2.75 
9.80 3.92 
9.78 3.05 
9.56 3.41 
9.52 4.00 
10.02 2.97 
10.91 3.23 
10.21 3.04 
10.34 3.14 
9.78 4.39 
10.00 4.52 
9.45 3.04 
10.09 2.19 
10.47 2.45 
12.25 3.05 
10.21 4.51 
10.03 3.43 
11.09 3.59 
10.79 3.90 
9.74 2.80 
9.46 2.26 
10.35 2.65 
11.09 3.06 
10.74 2.32 
9.70 2.88 
9.76 2.36 
9.97 3.22 
9.72 3.49 
9.21 2.81 
9.67 2.81 
10.08 3.27 
10.46 3.77 
11.19 2.87 
9.11 3.78 
10.44 2.53 
10.88 2.21 
10.61 3.03 
9.86 4.21 
10.93 3.79 
10.59 2.75 
9.92 2.63 
10.15 3.46 
10.16 2.75 
10.19 2.84 
9.97 3.55 
9.85 2.89 
10.07 3.24 
9.33 3.12 
9.84 2.96 
10.16 3.32 
10.01 3.81 
9.37 4.33 
9.35 4.01 
10.45 2.91 
9.05 4.19 
9.08 3.31 
10.49 3.17 
9.92 3.67 
9.86 3.12 
