# r1:Y77-D34, r2:S79-D214 
8.22 16.00
6.68 10.50
6.74 9.82
7.11 9.46
7.03 13.76
6.50 14.33
6.89 10.83
6.72 8.67
9.70 19.29
10.51 18.73
10.80 17.96
11.51 18.75
7.36 8.20
7.06 8.29
7.38 9.00
8.16 9.28
7.73 8.35
7.58 10.48
7.60 16.71
7.73 16.31
8.34 15.79
6.78 14.12
6.43 9.32
7.37 8.68
7.92 16.37
7.76 8.31
6.75 14.95
6.84 14.69
10.28 19.15
9.44 18.49
8.11 16.47
9.56 19.59
6.79 7.76
6.36 15.99
6.63 11.43
11.88 18.08
9.89 17.20
7.63 8.14
9.22 16.73
7.26 15.40
7.92 15.61
7.90 15.63
6.63 9.51
8.66 18.21
9.15 14.72
8.77 17.63
6.73 8.85
6.92 14.80
9.66 17.29
9.56 15.68
