# r1:Y77-D34, r2:S79-D214 
5.54 10.53
8.62 9.48
12.06 24.34
11.59 22.46
11.16 21.62
10.37 20.58
6.29 9.70
5.49 10.15
6.61 9.21
7.15 11.14
7.31 10.72
7.09 8.22
7.57 11.37
6.65 9.99
8.79 16.18
8.63 16.49
6.55 9.32
9.20 17.20
10.29 17.33
6.58 9.74
7.54 10.53
9.32 18.40
6.70 10.53
9.12 16.94
10.62 19.05
7.56 10.13
9.48 16.63
7.18 9.85
6.60 9.67
6.61 7.92
6.96 9.61
7.26 11.90
8.64 16.91
7.40 9.83
7.34 11.16
7.03 9.72
6.60 8.73
6.44 9.85
7.69 7.80
7.31 9.35
6.99 9.29
9.60 16.28
7.12 7.23
7.20 8.12
7.21 8.73
6.18 9.85
7.73 7.77
5.75 8.48
7.34 7.74
6.76 9.13
