# r1:Y77-D34, r2:S79-D214 
5.96 8.76
6.70 7.80
6.23 9.23
6.76 12.08
7.61 9.42
6.33 11.03
6.38 10.22
7.32 10.84
7.95 9.90
6.62 12.31
6.46 10.44
7.13 9.75
6.07 10.87
7.89 7.65
6.98 7.95
7.49 9.88
8.79 9.92
7.42 7.77
7.47 9.78
6.98 10.40
6.69 10.71
6.98 9.77
8.07 10.93
9.12 10.50
8.16 10.57
6.32 9.27
6.05 9.10
10.09 18.84
5.72 9.23
8.83 9.73
7.11 10.29
10.18 18.56
6.89 10.35
6.51 10.04
6.78 9.92
9.46 9.53
8.97 8.78
6.92 10.50
6.82 9.13
6.06 9.33
6.26 9.69
5.98 9.90
8.35 10.43
6.05 7.70
7.17 9.20
6.92 9.40
6.93 10.90
8.28 11.11
6.99 7.31
8.84 9.74
