# r1:Y77-D34, r2:S79-D214 
10.23 1.87 
9.85 1.98 
9.99 2.03 
10.47 2.27 
10.26 2.44 
10.63 2.49 
10.55 3.07 
10.32 2.04 
10.54 1.77 
10.39 1.99 
9.75 2.22 
9.96 2.18 
10.23 1.91 
10.23 2.43 
9.92 2.27 
10.27 1.99 
10.16 2.42 
10.23 2.15 
10.53 2.30 
10.44 2.39 
10.30 2.42 
10.43 2.11 
10.44 2.09 
10.12 2.09 
10.06 2.18 
10.24 1.86 
10.23 2.08 
10.30 1.98 
10.08 3.17 
10.12 1.78 
10.25 2.25 
10.22 2.33 
10.64 2.29 
9.88 2.38 
10.46 1.85 
10.70 2.64 
10.63 2.63 
10.70 2.51 
10.33 2.43 
10.43 2.33 
10.35 2.67 
10.29 2.21 
10.21 2.13 
10.28 2.12 
10.30 3.00 
10.25 2.35 
9.88 2.47 
10.52 3.19 
10.70 2.59 
9.98 2.69 
10.17 2.22 
10.79 2.91 
10.80 3.15 
10.07 2.09 
10.41 2.26 
10.45 2.11 
10.49 2.63 
10.48 1.76 
10.18 2.21 
9.99 2.47 
10.22 2.49 
10.55 2.18 
10.22 2.28 
10.36 2.57 
10.30 2.32 
10.55 2.56 
10.50 2.27 
10.82 2.53 
10.14 2.41 
10.34 2.86 
10.49 2.29 
10.47 2.08 
10.51 1.91 
10.51 2.21 
10.19 2.25 
10.73 1.89 
10.65 2.10 
10.32 2.40 
10.11 2.06 
10.41 2.36 
10.71 2.10 
10.40 2.30 
10.40 2.13 
10.02 2.64 
10.42 2.56 
10.36 2.53 
10.32 2.03 
10.27 2.37 
10.58 2.29 
10.52 1.93 
10.05 1.97 
10.63 2.43 
10.36 2.77 
10.36 2.37 
10.64 1.77 
10.42 2.18 
10.36 1.79 
10.24 2.12 
10.35 2.39 
10.19 1.97 
10.44 2.24 
10.65 1.94 
9.80 2.20 
10.30 2.38 
10.48 2.12 
10.48 2.39 
10.29 2.38 
10.82 2.35 
10.45 1.86 
10.57 1.98 
10.40 2.34 
10.02 2.24 
10.31 2.26 
10.37 2.12 
10.38 2.17 
10.26 2.31 
10.34 2.26 
10.25 1.75 
10.45 2.36 
10.23 2.92 
10.39 2.39 
10.53 2.41 
10.38 2.22 
10.29 1.90 
10.35 1.95 
10.25 2.55 
10.47 2.09 
10.74 2.36 
10.52 2.76 
10.14 2.41 
10.03 2.00 
10.50 2.13 
10.58 2.37 
10.14 2.84 
10.37 2.46 
10.05 2.53 
10.19 2.74 
10.12 2.59 
10.31 2.04 
10.59 2.01 
10.04 2.11 
10.44 1.92 
10.29 1.98 
10.48 2.72 
10.66 2.43 
10.82 2.20 
10.33 1.90 
10.37 2.13 
10.16 2.57 
10.63 2.74 
10.45 2.55 
10.14 2.16 
10.62 2.03 
10.20 2.46 
10.30 2.38 
10.89 2.93 
10.52 3.05 
10.68 2.66 
10.46 2.30 
10.23 1.81 
10.37 2.70 
10.56 2.25 
10.73 2.70 
10.29 2.35 
10.28 2.01 
10.62 2.22 
10.80 1.96 
10.52 2.22 
10.16 2.07 
10.33 1.92 
10.56 2.40 
9.98 2.71 
10.69 2.27 
10.39 2.12 
10.38 2.21 
10.57 2.27 
9.83 2.17 
10.40 1.94 
10.17 2.66 
10.24 2.23 
10.20 2.20 
10.79 2.09 
10.25 2.57 
10.62 1.88 
10.22 2.48 
10.54 2.49 
10.38 2.15 
10.42 2.14 
10.06 2.21 
10.33 1.96 
9.99 2.05 
10.35 1.96 
10.09 2.39 
10.29 1.86 
10.20 2.17 
10.82 3.04 
10.42 2.38 
10.32 2.39 
10.42 2.18 
10.81 2.73 
10.40 2.21 
9.94 1.87 
10.29 2.48 
10.02 2.09 
10.07 1.89 
10.55 2.45 
10.29 2.08 
10.54 2.13 
10.41 2.28 
10.28 2.60 
10.60 3.08 
10.54 2.15 
10.42 1.99 
10.12 2.17 
10.23 2.13 
10.10 2.52 
10.59 1.90 
10.60 2.15 
10.22 2.41 
10.64 2.10 
10.77 2.22 
9.99 2.07 
10.45 2.59 
10.96 2.47 
10.73 2.18 
10.38 2.18 
10.40 2.26 
10.10 1.94 
10.63 3.66 
10.69 2.69 
10.38 2.13 
10.05 1.97 
10.55 2.20 
10.45 2.45 
10.30 2.77 
10.43 1.92 
10.30 2.10 
10.46 2.04 
10.40 2.29 
10.54 2.40 
10.30 2.48 
10.37 2.72 
10.07 2.55 
10.48 2.01 
10.45 2.82 
10.02 2.93 
10.22 2.09 
10.51 2.88 
10.53 2.67 
10.39 2.18 
10.71 2.27 
10.77 2.10 
10.66 2.12 
10.26 2.07 
10.17 2.10 
10.07 1.91 
10.44 2.10 
10.33 2.23 
10.29 2.53 
10.11 2.02 
10.13 1.95 
10.49 2.79 
10.51 2.27 
10.07 2.18 
10.12 2.21 
10.84 1.97 
10.35 2.02 
10.18 2.24 
10.09 2.09 
10.45 2.19 
10.03 2.66 
9.96 2.12 
10.43 1.96 
10.13 2.16 
10.36 1.98 
9.98 2.69 
10.42 1.88 
10.37 3.56 
9.88 2.25 
10.58 2.20 
9.97 1.94 
10.32 2.22 
10.48 2.14 
10.58 1.96 
10.14 1.94 
10.36 2.11 
10.95 1.95 
10.44 1.88 
10.59 3.03 
10.54 2.44 
10.76 2.36 
10.45 2.02 
10.36 2.47 
10.26 2.73 
10.24 1.90 
9.83 2.49 
10.18 2.84 
10.71 3.86 
10.12 2.29 
10.21 2.57 
10.24 2.33 
10.49 3.84 
10.48 2.97 
9.81 2.02 
10.27 2.84 
10.44 2.40 
10.49 3.05 
10.28 1.81 
9.99 2.15 
10.17 2.79 
10.05 1.96 
10.06 1.96 
10.51 2.71 
10.23 2.09 
10.14 2.05 
10.27 1.95 
10.47 2.61 
10.26 2.31 
10.10 1.87 
10.18 2.65 
9.97 2.39 
10.49 1.96 
10.24 2.45 
9.99 1.95 
9.80 2.02 
10.48 2.32 
10.49 3.26 
10.47 2.03 
10.26 1.87 
10.09 2.20 
10.19 2.04 
10.94 2.41 
10.89 2.07 
10.58 3.44 
10.68 2.65 
10.29 2.26 
10.09 2.21 
10.65 2.47 
10.32 2.67 
10.69 2.30 
10.57 2.37 
10.38 2.63 
10.20 2.05 
10.44 2.24 
10.25 2.82 
9.95 1.79 
10.40 2.05 
10.42 2.00 
10.61 2.04 
10.34 2.00 
10.36 2.64 
10.09 2.13 
10.05 2.02 
10.39 2.53 
10.46 3.46 
10.33 2.39 
10.25 2.21 
10.71 2.47 
10.53 2.43 
10.67 2.24 
10.37 2.31 
10.37 2.12 
10.23 2.63 
10.03 2.39 
10.12 2.37 
10.29 2.07 
10.55 2.16 
10.41 2.47 
11.14 2.11 
10.03 2.33 
10.59 2.00 
10.55 1.98 
10.11 2.02 
10.32 2.11 
10.43 2.76 
10.57 2.60 
10.47 2.17 
10.55 3.16 
10.63 2.76 
10.85 2.95 
10.35 2.63 
10.50 2.85 
10.44 2.26 
10.32 2.16 
10.05 2.05 
10.42 2.45 
10.60 2.98 
10.46 3.30 
10.14 3.58 
9.95 1.88 
10.05 1.93 
10.39 2.53 
10.19 2.72 
10.20 2.24 
10.09 2.03 
10.45 2.11 
10.57 2.48 
10.16 3.42 
10.69 2.16 
10.71 2.50 
10.82 2.04 
10.26 2.30 
10.20 2.28 
9.92 2.41 
9.72 2.33 
10.68 2.15 
9.90 1.96 
10.26 2.47 
10.67 2.48 
10.61 2.56 
10.55 2.52 
10.40 1.88 
10.37 2.12 
10.48 2.51 
10.24 2.60 
10.34 2.34 
10.29 2.24 
10.50 2.06 
10.45 2.18 
10.36 2.33 
9.99 1.91 
10.25 3.26 
10.24 2.00 
10.31 1.84 
10.29 2.02 
10.66 2.11 
10.54 2.38 
10.11 2.48 
10.01 2.22 
10.36 1.77 
10.17 2.49 
10.34 1.93 
10.10 2.31 
10.87 2.46 
10.33 2.56 
10.21 1.91 
10.58 1.81 
10.30 1.85 
10.46 2.06 
10.19 2.59 
10.33 2.88 
10.60 3.02 
11.14 2.60 
10.60 1.86 
10.24 1.93 
10.08 1.95 
10.60 2.37 
9.94 2.22 
10.39 1.82 
10.35 2.17 
10.59 2.01 
10.56 2.07 
10.77 2.20 
10.40 2.06 
10.76 1.88 
10.91 1.92 
10.41 2.00 
10.33 1.97 
10.52 2.07 
10.29 2.30 
10.63 2.39 
10.48 2.57 
10.87 2.10 
10.17 2.13 
10.44 2.40 
10.55 2.02 
10.37 3.16 
10.27 1.78 
10.34 2.37 
10.47 3.30 
10.27 2.37 
10.88 2.52 
10.46 2.65 
10.02 2.16 
10.31 2.66 
10.43 2.08 
10.29 1.96 
10.06 2.00 
10.03 2.51 
10.61 2.08 
11.00 2.15 
10.97 2.38 
10.43 3.85 
10.20 3.00 
10.84 3.12 
10.59 2.97 
10.91 2.61 
10.87 2.26 
10.42 2.26 
10.20 2.61 
10.82 2.26 
10.09 2.05 
10.13 2.28 
10.71 2.52 
10.23 2.66 
10.17 2.06 
10.06 2.09 
10.59 2.34 
10.26 2.05 
10.02 2.52 
10.33 2.80 
10.81 2.48 
10.46 2.48 
10.27 3.52 
10.50 2.77 
10.13 2.83 
10.08 2.43 
10.43 2.21 
10.26 2.75 
10.45 2.06 
10.09 2.22 
10.41 2.12 
10.36 2.46 
10.56 2.36 
11.17 2.20 
10.61 2.56 
10.83 1.92 
10.49 2.09 
10.36 2.10 
10.00 2.68 
10.55 2.58 
10.69 3.43 
10.38 2.06 
10.15 2.56 
10.23 2.68 
10.11 2.52 
10.30 2.54 
10.55 3.07 
10.26 2.17 
10.39 1.92 
10.28 2.32 
10.36 2.12 
10.20 2.70 
10.32 2.67 
10.57 1.93 
10.79 1.99 
10.38 2.05 
10.36 2.08 
10.78 2.84 
11.19 2.48 
10.69 2.14 
10.55 2.05 
10.74 2.84 
10.60 2.69 
10.08 1.98 
9.98 2.01 
10.40 2.79 
10.97 2.14 
10.70 2.26 
10.59 3.38 
10.56 3.49 
10.17 3.11 
10.48 2.80 
10.47 2.45 
10.07 2.60 
10.20 2.45 
10.34 2.53 
10.34 2.44 
10.32 3.66 
10.38 2.85 
10.57 2.20 
10.25 2.14 
10.15 2.40 
10.47 2.81 
9.81 2.03 
10.41 1.99 
10.08 2.31 
9.74 2.18 
10.30 3.33 
10.38 3.72 
10.48 2.38 
10.13 2.02 
10.65 2.51 
10.59 3.09 
10.44 1.96 
9.94 2.10 
10.24 1.98 
10.34 2.33 
10.34 2.45 
10.17 2.14 
10.07 2.17 
10.27 2.03 
10.02 2.08 
10.04 2.66 
10.29 2.06 
10.22 2.07 
10.05 1.97 
10.00 2.26 
10.38 2.03 
10.64 3.05 
10.30 3.42 
10.56 2.66 
10.38 2.94 
10.09 2.12 
10.33 1.96 
10.03 2.52 
10.29 1.98 
10.45 2.03 
10.43 1.91 
10.54 2.44 
10.42 2.49 
10.50 3.01 
10.41 2.02 
10.06 2.79 
10.28 2.81 
10.25 2.46 
10.25 2.05 
10.24 2.75 
10.51 2.28 
10.54 2.20 
10.18 2.31 
10.45 2.33 
10.34 2.70 
10.72 2.08 
10.35 2.12 
10.33 2.46 
10.03 2.26 
10.86 2.50 
10.51 3.05 
10.57 2.14 
10.68 2.66 
10.52 2.79 
10.18 2.36 
10.12 2.34 
10.18 2.74 
10.76 2.10 
10.14 2.65 
10.51 2.01 
10.36 2.54 
10.27 2.22 
10.64 2.51 
10.34 1.92 
9.94 2.21 
10.17 2.31 
10.65 2.08 
10.72 2.26 
10.63 2.54 
10.57 1.93 
10.49 2.30 
10.83 1.74 
10.35 2.49 
10.94 2.57 
10.13 2.17 
9.89 1.94 
10.24 2.36 
10.68 2.55 
10.85 2.07 
10.78 2.31 
10.59 1.74 
10.52 2.46 
10.54 2.55 
10.53 2.60 
10.74 2.97 
10.52 2.22 
10.32 2.82 
10.81 2.72 
10.14 3.29 
10.35 2.28 
10.38 2.42 
10.31 3.21 
10.93 2.09 
10.88 2.17 
10.52 2.89 
10.55 2.92 
10.15 2.13 
10.56 2.83 
10.68 3.31 
10.57 2.46 
10.50 2.49 
10.45 2.08 
10.18 2.47 
9.90 2.62 
9.75 1.91 
10.36 2.83 
10.26 2.94 
10.67 2.21 
10.25 2.78 
10.08 2.28 
9.97 2.65 
10.16 2.34 
10.54 2.47 
10.05 2.34 
10.60 2.50 
10.81 2.46 
10.51 2.15 
10.36 2.22 
10.27 2.73 
10.02 3.09 
10.27 2.59 
10.45 2.60 
10.44 1.95 
10.26 2.16 
10.39 2.12 
10.60 2.08 
10.62 2.51 
10.02 1.96 
10.42 3.57 
10.69 1.95 
10.59 2.17 
10.04 2.44 
10.44 2.23 
10.27 2.71 
10.65 3.10 
10.12 2.34 
9.96 2.46 
10.30 2.57 
10.41 2.84 
10.17 2.59 
10.30 2.96 
10.45 2.29 
10.53 2.44 
10.18 2.06 
10.38 2.18 
10.62 2.38 
10.73 2.12 
10.37 2.68 
10.58 1.99 
10.41 1.99 
10.16 2.34 
10.37 2.01 
10.11 1.87 
10.55 2.32 
10.89 2.21 
10.25 2.89 
10.78 2.19 
10.60 3.42 
10.42 2.43 
10.26 2.27 
10.61 2.20 
10.26 2.43 
9.87 2.62 
10.20 2.81 
10.45 2.31 
10.31 2.23 
10.42 2.73 
10.74 2.10 
10.65 2.37 
10.12 2.09 
10.32 2.58 
10.12 2.35 
10.30 2.54 
10.11 2.68 
10.50 3.68 
10.78 3.04 
10.26 2.58 
10.76 2.71 
10.08 1.99 
10.34 2.23 
10.17 2.26 
10.73 2.10 
10.68 2.17 
10.37 1.97 
10.51 3.10 
10.06 2.12 
10.20 2.35 
10.19 2.70 
10.55 2.41 
10.83 2.14 
10.49 2.68 
9.94 2.29 
10.45 2.22 
10.65 3.44 
10.00 2.29 
10.30 2.37 
9.71 1.98 
10.41 1.99 
10.52 2.44 
10.36 2.39 
10.20 3.14 
10.80 3.22 
10.38 2.68 
10.72 2.51 
10.62 2.28 
10.27 2.26 
10.23 2.31 
10.16 2.67 
10.45 2.24 
10.28 2.36 
10.32 2.58 
10.00 2.75 
10.63 2.06 
10.24 2.50 
10.92 2.25 
10.74 2.27 
10.81 2.47 
10.66 1.86 
10.87 2.30 
10.03 1.93 
10.54 2.16 
10.22 2.46 
10.70 2.36 
10.17 2.13 
10.24 2.44 
10.38 3.35 
10.64 2.19 
10.33 2.28 
10.39 1.92 
10.28 2.25 
10.30 2.42 
10.63 2.40 
10.49 2.40 
10.18 2.04 
9.85 1.97 
10.06 2.23 
9.84 2.19 
10.02 2.78 
10.12 2.03 
10.35 2.56 
10.18 2.00 
10.48 1.95 
10.28 2.60 
9.97 2.29 
10.27 2.05 
10.43 2.16 
10.13 3.48 
10.02 3.25 
10.11 2.66 
10.71 2.16 
10.78 2.91 
10.61 2.82 
10.47 2.33 
10.37 1.82 
10.48 2.77 
10.20 1.98 
10.31 1.77 
10.60 2.02 
10.62 2.95 
10.54 2.93 
9.96 2.76 
10.37 2.11 
10.67 2.35 
10.87 2.29 
10.82 2.29 
10.42 2.16 
10.75 3.07 
10.13 2.04 
9.77 2.36 
10.79 2.69 
10.29 2.77 
10.00 2.52 
10.24 2.90 
10.23 2.20 
10.55 2.60 
10.68 3.70 
10.61 3.47 
10.55 2.33 
10.22 3.16 
10.77 2.04 
10.53 2.09 
10.15 3.63 
10.22 3.09 
10.01 2.06 
10.07 1.92 
10.25 2.97 
10.35 2.55 
10.40 2.31 
10.44 2.40 
10.18 2.47 
10.11 2.36 
10.31 2.23 
10.43 2.49 
9.95 2.27 
10.56 1.95 
10.67 2.04 
10.18 3.20 
10.10 2.51 
9.93 3.60 
10.31 2.92 
10.35 2.25 
9.90 2.91 
10.50 1.92 
10.11 2.16 
10.29 1.81 
10.43 2.41 
10.05 2.27 
10.41 2.38 
10.10 2.31 
10.70 2.20 
10.18 2.45 
10.19 2.26 
10.21 2.08 
10.52 2.40 
10.26 2.43 
10.55 2.44 
10.21 2.73 
10.59 2.01 
10.46 2.86 
10.68 2.20 
10.46 3.21 
10.40 2.11 
10.43 2.16 
10.75 2.20 
10.43 2.14 
10.55 2.18 
10.46 2.12 
10.55 2.20 
10.26 2.89 
10.25 2.35 
10.37 2.62 
10.23 2.16 
10.09 2.54 
10.27 2.00 
10.55 2.31 
10.55 2.58 
10.51 2.68 
10.40 2.27 
10.17 2.28 
10.21 2.20 
10.67 2.40 
10.70 2.29 
10.46 2.20 
10.55 2.97 
10.47 3.03 
10.60 2.25 
10.48 2.41 
10.57 1.99 
10.14 1.98 
10.67 1.82 
10.45 3.07 
10.60 2.45 
10.60 2.43 
10.28 2.52 
10.60 1.95 
10.59 2.09 
10.45 2.15 
10.38 2.21 
10.29 2.32 
10.45 2.49 
9.91 2.39 
10.44 2.64 
10.66 2.59 
10.35 1.96 
10.47 2.53 
10.47 3.30 
10.19 2.26 
10.04 2.09 
10.43 1.97 
10.56 2.43 
9.91 2.15 
10.04 1.96 
10.68 2.62 
10.50 2.43 
10.31 2.20 
10.38 2.49 
10.68 2.55 
10.43 2.84 
10.47 2.94 
10.38 2.30 
10.45 2.28 
10.14 2.08 
10.57 2.27 
10.40 2.86 
10.24 2.05 
10.50 3.00 
10.37 2.95 
10.73 2.38 
10.60 2.18 
10.61 2.13 
10.59 2.37 
10.64 2.69 
10.75 2.76 
10.63 2.04 
10.50 2.15 
10.32 2.22 
10.36 2.03 
10.45 2.37 
10.08 1.96 
10.58 2.31 
10.27 3.00 
10.57 3.40 
10.48 3.42 
10.37 2.16 
10.30 2.22 
10.43 2.32 
10.26 2.43 
10.17 2.21 
10.18 2.61 
10.33 2.84 
10.16 1.98 
10.01 2.34 
10.32 2.92 
10.46 2.91 
10.41 2.08 
10.05 1.89 
10.27 2.51 
10.80 2.63 
10.63 2.17 
10.94 2.29 
10.29 2.03 
10.39 2.78 
10.49 2.48 
11.05 2.30 
10.24 2.07 
10.33 2.30 
10.09 1.94 
10.60 2.21 
10.35 3.96 
11.02 2.83 
10.62 2.17 
10.16 1.82 
10.94 1.89 
10.11 2.74 
10.59 2.31 
10.49 2.00 
10.20 2.48 
10.45 2.02 
9.90 2.01 
10.01 2.11 
10.43 1.90 
9.97 1.95 
10.89 2.19 
10.62 1.89 
10.23 1.93 
10.17 2.24 
10.24 1.99 
9.90 2.02 
9.90 2.14 
10.02 1.94 
10.34 1.87 
10.41 1.81 
10.25 2.22 
10.28 2.38 
10.24 2.04 
10.33 2.59 
10.26 2.03 
10.19 2.30 
10.26 2.11 
10.00 2.31 
10.72 2.28 
10.47 2.65 
10.87 2.87 
10.27 2.08 
10.19 2.07 
10.23 2.27 
10.32 2.01 
10.29 2.09 
10.41 1.96 
10.12 2.18 
10.23 2.17 
10.54 2.25 
10.14 1.92 
10.45 2.09 
9.89 2.36 
9.91 1.92 
10.19 2.30 
10.23 2.23 
10.16 2.48 
10.10 3.01 
10.41 2.34 
10.13 1.90 
10.08 1.86 
10.51 2.12 
10.22 2.05 
10.31 1.87 
9.80 2.05 
10.45 1.93 
10.39 1.96 
10.19 2.29 
10.33 2.69 
10.35 2.20 
10.01 2.38 
11.00 2.16 
10.47 2.11 
10.04 2.20 
10.11 2.50 
10.16 2.29 
10.39 1.93 
9.99 2.96 
10.12 3.03 
10.62 2.34 
10.49 2.96 
10.21 2.18 
10.34 2.11 
10.25 2.45 
10.83 2.37 
10.57 2.61 
10.87 2.40 
10.31 2.36 
10.09 3.15 
10.24 2.34 
9.87 2.43 
10.58 2.12 
10.43 2.18 
10.41 1.98 
10.43 3.13 
10.18 2.45 
10.22 2.07 
9.79 2.59 
10.31 2.20 
10.24 2.41 
10.25 2.28 
10.04 2.12 
10.36 2.04 
10.51 2.72 
10.29 2.95 
10.46 2.15 
10.64 1.94 
10.61 2.76 
10.39 2.66 
10.21 2.26 
10.21 2.46 
10.44 2.94 
10.82 2.09 
10.64 2.34 
10.13 2.35 
10.09 2.02 
9.72 2.33 
9.97 2.44 
10.23 2.90 
10.24 2.17 
10.24 2.42 
10.07 2.02 
10.02 2.93 
9.86 2.61 
10.35 2.24 
10.39 2.33 
10.13 1.95 
10.34 2.51 
9.96 2.60 
10.68 2.03 
10.48 2.32 
10.05 2.63 
10.07 1.99 
10.22 2.16 
10.15 3.57 
10.23 2.86 
10.45 2.34 
10.35 2.03 
10.00 2.14 
9.99 2.12 
10.45 2.79 
10.51 2.84 
10.72 2.24 
10.42 2.21 
10.64 2.42 
10.63 2.15 
10.27 2.58 
10.36 2.92 
10.43 3.19 
10.08 2.71 
10.37 2.22 
10.84 2.82 
10.11 2.57 
10.51 2.28 
10.18 2.72 
10.50 2.55 
10.44 2.54 
10.33 2.41 
10.52 2.11 
10.62 2.06 
10.42 1.92 
10.03 2.07 
10.40 2.05 
10.38 2.46 
10.58 3.61 
10.53 2.35 
10.66 2.23 
10.46 2.04 
10.53 2.13 
10.92 2.59 
10.75 2.97 
10.79 2.28 
10.91 2.17 
10.19 2.06 
10.42 2.08 
10.98 2.25 
10.79 2.47 
10.67 2.73 
10.81 2.39 
10.80 2.73 
10.96 2.11 
10.44 2.15 
10.08 2.46 
10.37 2.04 
10.69 3.28 
10.73 2.45 
10.71 2.43 
10.51 1.89 
10.42 1.94 
10.70 2.29 
10.56 2.85 
10.51 2.54 
10.22 1.81 
10.52 2.61 
10.13 2.07 
10.90 2.83 
10.64 2.27 
10.43 2.35 
10.45 2.29 
10.02 1.89 
10.49 2.04 
10.91 2.44 
10.37 2.21 
10.77 4.49 
10.80 2.59 
10.08 3.42 
10.71 2.33 
10.74 2.57 
10.53 2.30 
10.38 2.00 
10.26 2.66 
10.35 2.25 
10.43 2.41 
10.66 2.15 
10.44 2.49 
10.22 2.22 
10.06 2.37 
10.25 2.49 
10.53 2.32 
10.59 2.07 
11.11 1.97 
10.03 2.31 
10.09 2.44 
10.35 3.27 
10.49 2.14 
10.52 2.40 
10.53 2.03 
10.41 2.41 
10.72 2.38 
10.50 2.06 
10.33 2.25 
10.29 2.32 
10.31 1.87 
10.33 2.39 
10.57 2.35 
10.17 2.00 
10.52 2.20 
10.44 2.03 
10.29 2.18 
10.60 2.24 
10.77 3.17 
10.71 2.09 
10.96 2.71 
10.91 2.97 
10.89 1.96 
10.20 2.76 
10.25 2.41 
10.35 2.30 
10.73 2.05 
10.19 2.42 
10.61 2.16 
10.84 2.03 
10.88 2.34 
10.55 2.01 
10.37 3.46 
10.68 2.30 
10.27 2.44 
10.68 2.29 
10.45 2.61 
10.14 2.44 
10.23 2.09 
10.70 2.41 
10.37 1.93 
10.26 1.88 
10.44 2.27 
10.45 2.39 
10.66 2.08 
10.26 2.75 
10.62 2.16 
10.27 1.96 
10.02 2.45 
10.43 2.47 
10.21 1.99 
10.47 1.98 
10.29 2.39 
10.66 2.33 
10.23 1.98 
10.20 2.19 
10.07 2.41 
10.29 2.20 
10.35 2.51 
10.29 2.77 
10.52 2.17 
9.83 2.60 
10.10 2.45 
10.43 2.15 
9.94 2.10 
10.16 2.15 
10.76 2.29 
10.39 2.09 
10.14 2.06 
10.04 2.11 
10.19 1.93 
10.41 1.93 
10.53 2.63 
10.29 2.19 
10.28 2.02 
10.32 1.79 
10.32 1.97 
10.39 1.93 
10.59 2.13 
10.44 2.05 
10.35 2.16 
10.43 2.79 
10.38 2.20 
10.44 2.23 
10.48 2.58 
10.09 3.23 
10.47 2.40 
10.60 2.41 
10.49 2.10 
10.49 1.94 
10.34 1.90 
10.50 1.94 
10.24 2.31 
10.18 2.47 
10.27 2.03 
10.50 1.91 
10.16 2.76 
9.97 2.36 
10.30 2.56 
10.49 2.35 
10.48 2.52 
10.38 2.43 
10.59 1.84 
10.70 2.37 
10.47 2.06 
10.24 2.34 
10.25 2.14 
10.30 1.95 
10.42 1.92 
10.21 2.05 
10.58 2.67 
10.39 3.19 
10.24 3.38 
10.59 2.26 
10.06 1.83 
10.44 2.41 
10.30 2.09 
10.11 2.42 
10.50 2.09 
10.61 2.29 
10.21 2.81 
10.14 2.50 
10.61 2.78 
10.36 2.65 
10.72 2.27 
10.82 2.72 
10.64 1.97 
10.10 2.43 
10.63 1.95 
10.49 1.88 
10.19 2.55 
10.25 2.06 
10.63 1.94 
10.15 2.22 
10.41 2.14 
10.44 2.21 
10.37 2.39 
10.62 2.63 
10.37 3.39 
10.70 2.60 
10.72 2.48 
10.72 2.35 
10.43 1.96 
10.63 2.45 
10.60 2.48 
10.93 1.94 
10.73 2.87 
10.97 2.00 
10.53 2.07 
10.59 3.42 
10.26 2.38 
10.34 2.01 
10.77 2.51 
10.85 2.96 
10.53 2.71 
10.10 2.36 
10.83 2.40 
10.60 3.43 
10.58 2.68 
10.65 2.25 
10.86 2.25 
10.50 2.42 
10.36 2.21 
10.51 2.69 
10.22 2.25 
10.52 2.16 
10.79 2.28 
10.13 2.46 
10.37 2.84 
10.58 2.58 
10.25 2.86 
10.48 2.17 
10.36 2.23 
10.44 2.82 
10.64 2.30 
10.41 1.93 
10.41 2.05 
10.61 2.19 
10.38 2.41 
10.55 2.09 
10.21 2.21 
10.43 1.97 
10.74 2.05 
10.76 2.75 
10.54 2.01 
10.59 2.25 
10.50 2.72 
10.35 2.39 
10.72 2.56 
10.34 2.12 
10.58 2.07 
10.42 2.48 
10.31 2.27 
11.08 2.07 
10.61 2.36 
9.95 2.40 
10.38 2.04 
10.11 2.05 
10.12 2.38 
10.82 3.02 
10.96 2.61 
10.30 3.33 
10.50 2.10 
10.24 2.35 
10.62 2.41 
10.34 2.32 
10.16 2.15 
10.68 2.42 
10.48 2.08 
10.60 2.25 
10.27 2.28 
10.21 2.13 
10.73 3.06 
10.54 2.41 
10.12 2.30 
10.08 2.42 
10.66 2.38 
11.14 2.42 
10.89 2.07 
10.73 3.41 
10.80 2.24 
10.98 2.18 
10.75 2.50 
10.92 2.61 
10.65 2.04 
10.65 2.06 
10.40 2.79 
10.70 1.88 
11.00 2.13 
10.30 2.16 
10.44 2.72 
10.84 2.14 
10.90 2.83 
10.19 2.37 
10.39 2.33 
10.54 2.21 
10.51 1.84 
10.30 2.29 
10.25 3.29 
10.55 2.79 
11.02 2.49 
10.36 2.32 
10.79 2.56 
10.56 2.32 
10.29 3.03 
10.48 2.21 
10.32 2.12 
10.37 2.15 
10.28 2.45 
10.74 2.97 
11.19 3.05 
11.03 2.01 
10.58 2.30 
10.45 2.01 
10.51 2.72 
10.32 2.06 
10.49 3.07 
10.63 2.22 
10.79 2.08 
10.30 2.78 
10.22 2.22 
10.58 3.53 
10.59 2.62 
10.58 2.53 
10.68 2.54 
10.64 3.14 
10.79 2.35 
10.26 2.45 
10.38 2.67 
10.64 2.93 
10.79 2.05 
10.46 2.47 
11.00 1.94 
10.53 2.15 
10.82 2.17 
10.79 2.41 
10.48 2.86 
11.16 2.04 
10.76 2.63 
10.65 2.81 
10.28 2.81 
10.62 2.42 
10.85 2.72 
10.27 2.44 
10.99 2.06 
10.60 2.31 
10.78 2.43 
11.16 2.94 
10.68 2.73 
10.79 2.57 
10.87 2.70 
10.43 2.53 
10.90 2.25 
10.36 2.24 
10.64 3.09 
10.48 2.32 
10.50 2.00 
10.68 2.51 
10.13 2.45 
10.59 1.88 
10.66 2.89 
10.95 2.34 
10.20 2.13 
10.48 2.39 
10.66 2.40 
10.87 3.08 
10.57 2.61 
10.14 2.63 
10.54 2.06 
9.90 2.27 
10.59 1.89 
10.34 1.85 
10.36 3.41 
10.54 3.27 
10.49 3.45 
10.75 2.24 
10.56 2.68 
10.71 2.34 
10.28 2.39 
10.24 2.78 
10.44 2.34 
10.69 1.75 
10.52 2.90 
10.03 2.29 
10.54 2.53 
10.81 2.66 
10.76 2.10 
10.63 2.48 
10.58 2.26 
10.62 2.43 
10.04 2.60 
10.60 2.30 
10.51 2.34 
10.29 2.19 
10.57 1.98 
10.22 1.97 
10.45 2.31 
10.60 2.52 
10.71 2.43 
10.19 2.32 
10.21 2.36 
10.42 3.39 
10.44 2.14 
10.46 2.09 
10.57 2.63 
10.54 2.28 
10.51 1.85 
10.26 1.92 
10.66 2.08 
10.80 2.45 
10.44 2.35 
10.50 3.22 
10.56 2.31 
10.50 2.68 
10.61 2.26 
10.31 2.57 
10.54 2.71 
10.23 2.61 
10.26 2.55 
10.59 2.16 
10.39 2.28 
10.44 2.33 
10.26 3.11 
10.24 3.24 
10.15 2.30 
10.04 3.34 
10.12 2.18 
10.11 1.98 
10.75 2.51 
10.11 2.56 
10.33 2.71 
10.42 2.01 
10.35 2.00 
10.05 2.80 
10.36 3.05 
10.64 2.29 
10.49 2.48 
10.53 2.53 
10.18 2.86 
10.56 2.35 
10.89 2.27 
10.38 2.57 
10.67 2.49 
10.30 3.76 
10.51 2.87 
10.51 1.98 
10.61 2.05 
10.34 2.15 
10.31 2.65 
10.32 2.12 
10.06 1.97 
10.67 2.43 
10.22 2.14 
10.39 2.46 
10.21 2.49 
10.26 3.07 
10.49 2.30 
10.24 2.32 
10.17 2.11 
10.29 2.24 
10.07 2.52 
10.78 2.44 
10.81 2.22 
10.74 2.43 
10.57 2.17 
10.88 2.99 
10.56 2.61 
10.35 2.58 
10.61 1.86 
10.67 2.04 
10.52 2.61 
10.30 2.54 
10.82 2.64 
10.11 2.23 
10.27 2.26 
10.31 2.08 
10.10 2.49 
10.35 2.39 
10.39 2.41 
9.78 2.38 
10.66 2.67 
10.19 1.80 
10.37 2.35 
10.66 2.47 
10.50 2.54 
10.09 2.31 
10.10 2.66 
10.53 3.37 
10.40 2.23 
10.28 1.86 
10.39 3.18 
10.30 2.10 
10.62 2.65 
10.22 2.77 
10.56 2.13 
10.24 2.70 
10.50 2.56 
10.67 3.23 
10.57 2.13 
10.14 1.96 
10.45 2.01 
10.00 2.51 
10.20 1.99 
9.98 3.60 
10.47 2.61 
10.62 2.26 
10.36 2.34 
10.14 2.71 
10.51 3.04 
10.19 2.95 
10.93 2.13 
10.30 1.96 
10.40 2.44 
10.57 2.27 
10.65 1.92 
10.76 2.10 
10.46 2.11 
10.30 2.33 
10.13 2.22 
10.40 2.40 
10.37 2.11 
10.66 2.15 
9.99 2.03 
10.91 1.85 
11.18 2.18 
10.97 2.58 
10.55 1.85 
10.70 2.34 
10.70 2.16 
10.74 2.13 
10.81 2.28 
10.54 3.57 
11.03 2.65 
10.16 2.23 
10.22 2.46 
10.41 3.00 
10.41 2.64 
10.22 2.14 
10.64 2.05 
10.52 2.21 
10.21 1.96 
10.47 2.16 
10.49 2.20 
10.48 2.63 
10.20 2.02 
10.25 2.64 
10.61 2.51 
10.46 2.05 
10.43 2.33 
10.23 2.28 
10.75 2.68 
10.45 2.33 
10.44 3.15 
10.54 2.02 
10.79 2.23 
10.46 3.35 
10.40 2.50 
10.62 3.15 
10.49 2.69 
10.41 2.40 
10.45 2.79 
10.48 2.35 
10.85 2.75 
10.26 2.25 
11.04 2.88 
10.85 2.23 
10.35 2.49 
10.23 2.67 
10.68 2.40 
10.63 2.44 
10.63 2.19 
10.24 3.09 
10.37 3.24 
10.50 2.28 
10.20 2.36 
10.16 2.33 
10.36 2.32 
10.21 2.37 
10.35 2.25 
10.42 2.25 
10.63 2.49 
10.22 2.20 
9.96 2.27 
10.91 2.68 
10.53 2.57 
10.37 2.67 
10.13 2.28 
10.68 2.21 
10.99 3.15 
11.22 2.90 
10.45 3.00 
10.44 3.64 
10.95 2.27 
10.84 3.45 
10.26 2.45 
10.70 2.40 
10.37 2.45 
10.76 3.16 
10.35 2.44 
10.56 2.86 
10.63 2.41 
10.44 2.21 
11.02 3.20 
10.58 2.06 
10.45 2.84 
10.35 3.06 
10.43 2.09 
10.34 1.98 
10.34 2.45 
10.37 3.16 
10.62 2.28 
10.38 2.86 
10.27 2.53 
10.16 3.19 
10.26 2.67 
10.39 2.14 
10.67 2.07 
10.37 2.61 
10.59 2.20 
10.53 3.24 
10.91 2.28 
11.18 2.10 
10.72 2.34 
10.40 2.82 
10.79 2.49 
10.35 2.07 
10.35 2.76 
10.58 2.31 
10.49 2.81 
10.27 2.30 
10.22 2.71 
10.75 2.07 
10.32 2.47 
10.58 2.64 
10.35 2.88 
10.62 2.06 
10.60 2.65 
10.47 2.50 
10.23 2.57 
10.23 2.59 
10.31 2.67 
10.07 2.39 
10.74 2.17 
10.61 3.28 
10.16 3.35 
10.28 2.41 
10.70 2.29 
10.36 1.91 
10.72 3.06 
10.25 2.57 
10.14 2.28 
10.38 2.95 
10.75 2.37 
10.56 2.53 
10.27 2.58 
10.75 2.33 
10.54 2.62 
10.02 2.83 
10.10 2.08 
10.08 3.32 
10.29 2.27 
10.02 2.85 
10.36 2.44 
10.43 2.35 
11.38 2.04 
10.86 2.10 
10.33 2.41 
10.31 3.03 
10.63 2.55 
10.45 2.23 
10.75 2.60 
10.66 2.67 
10.59 2.34 
10.74 2.85 
10.51 2.44 
10.51 2.42 
10.18 2.31 
10.12 2.35 
10.32 2.37 
10.24 2.90 
10.10 3.29 
10.62 1.93 
10.25 3.26 
10.27 3.19 
10.32 3.81 
10.87 2.49 
10.67 2.56 
10.75 2.91 
10.68 2.18 
11.14 1.98 
11.00 2.29 
10.44 2.72 
10.31 3.22 
10.44 2.26 
10.31 2.61 
10.83 3.16 
10.33 1.88 
10.59 3.07 
10.34 2.44 
10.79 2.52 
11.06 2.23 
10.53 2.66 
10.22 3.61 
10.48 3.25 
10.22 2.90 
10.51 2.01 
10.53 2.10 
10.42 2.57 
10.06 2.50 
10.62 2.68 
10.41 3.19 
10.65 2.41 
10.04 3.26 
10.42 3.52 
10.12 2.48 
10.25 2.31 
10.13 2.65 
10.47 3.15 
10.76 2.29 
10.47 3.39 
10.59 2.07 
10.20 2.82 
10.77 1.94 
10.30 2.10 
10.40 2.20 
10.61 3.72 
10.83 2.49 
10.15 2.89 
10.48 3.26 
10.84 1.98 
10.58 2.37 
11.01 4.21 
10.21 2.37 
10.07 2.67 
10.64 3.59 
10.44 2.14 
10.60 2.61 
10.29 1.90 
10.44 2.27 
10.21 2.20 
10.29 2.20 
10.29 2.80 
10.72 3.09 
10.57 2.45 
10.63 2.74 
10.23 2.12 
10.95 2.08 
10.71 2.81 
10.13 2.30 
10.33 2.36 
10.41 2.99 
10.35 2.47 
10.70 4.25 
10.10 2.06 
10.47 2.39 
10.36 2.21 
10.00 2.68 
10.29 1.86 
10.47 2.08 
10.35 2.08 
10.18 2.57 
10.33 2.07 
10.54 2.08 
10.46 2.60 
10.38 2.35 
10.45 2.78 
10.22 2.13 
10.00 2.47 
10.36 2.00 
10.78 2.20 
10.51 3.30 
10.48 2.98 
10.60 1.98 
10.57 2.28 
10.74 2.21 
10.46 2.31 
10.60 2.28 
10.26 2.67 
10.68 2.20 
10.27 1.99 
10.58 2.71 
10.59 2.20 
10.79 2.41 
10.57 2.35 
10.64 2.25 
10.54 2.80 
10.99 2.19 
10.54 2.03 
10.68 2.41 
10.49 2.45 
10.23 2.14 
10.18 1.81 
10.19 1.95 
10.36 2.33 
10.30 2.99 
10.05 2.07 
10.10 2.19 
10.07 1.92 
10.03 2.66 
10.46 2.70 
10.23 2.74 
10.89 2.29 
10.79 2.67 
10.77 2.65 
10.54 2.55 
10.19 1.88 
10.21 2.18 
10.64 2.19 
10.40 3.17 
10.23 2.43 
10.08 2.86 
9.95 3.12 
10.65 2.12 
10.70 2.37 
10.26 2.17 
10.20 2.23 
10.58 2.32 
10.35 2.19 
10.35 2.17 
10.61 2.38 
10.58 2.13 
10.32 2.13 
10.10 2.32 
10.86 2.24 
10.47 2.49 
10.57 2.06 
10.74 2.22 
10.24 2.67 
10.68 2.35 
10.18 2.44 
10.79 2.23 
10.05 2.80 
10.60 2.12 
10.65 2.56 
10.72 2.18 
10.24 1.99 
10.67 2.46 
10.48 1.88 
10.86 2.05 
10.73 1.95 
10.87 2.31 
10.52 2.00 
10.84 2.53 
10.20 2.18 
10.21 2.45 
10.30 2.64 
10.25 2.66 
9.99 2.69 
