# r1:Y77-D34, r2:S79-D214 
10.49 2.41 
10.23 2.54 
10.51 2.66 
10.74 1.92 
10.59 2.08 
10.62 1.95 
10.78 2.32 
10.61 2.43 
10.72 1.94 
10.39 2.58 
10.71 2.12 
10.14 2.35 
10.31 2.11 
10.70 2.12 
10.60 2.14 
10.41 2.04 
10.71 2.39 
10.73 2.12 
10.72 2.26 
10.69 2.10 
10.55 2.83 
10.30 2.25 
10.33 2.02 
10.54 2.70 
10.72 2.95 
10.59 2.66 
11.06 2.40 
10.44 2.80 
10.39 3.08 
10.68 1.98 
10.27 2.40 
10.52 2.12 
10.47 2.33 
10.39 2.15 
10.77 3.31 
10.54 2.03 
10.70 2.23 
10.30 2.21 
10.00 2.34 
10.31 2.33 
10.81 2.17 
10.41 2.53 
10.07 2.24 
10.31 2.02 
10.43 2.04 
10.32 2.38 
10.67 1.92 
10.58 2.41 
10.38 2.00 
10.87 2.00 
10.28 2.54 
10.36 2.41 
10.76 2.14 
10.85 2.32 
10.48 2.09 
11.08 2.50 
10.76 2.44 
10.55 2.21 
10.46 2.60 
10.54 2.74 
10.60 2.26 
10.50 2.61 
10.80 2.84 
11.02 1.94 
10.66 2.31 
10.49 2.24 
10.64 2.06 
10.83 2.43 
10.66 2.42 
10.13 2.41 
10.45 3.13 
10.65 3.18 
10.89 2.00 
10.41 2.25 
10.35 2.32 
10.14 2.14 
10.46 2.25 
10.06 2.26 
10.46 2.06 
10.59 2.25 
10.39 2.18 
10.63 2.41 
10.19 2.38 
10.46 2.88 
10.73 2.18 
10.46 2.25 
10.94 2.24 
10.67 2.08 
10.81 2.43 
10.76 2.22 
10.43 2.40 
10.52 2.02 
10.60 2.08 
10.86 2.38 
10.50 2.76 
10.29 2.73 
10.60 2.93 
10.66 2.11 
10.54 2.04 
10.43 2.23 
10.53 2.03 
10.58 2.17 
10.46 2.30 
10.49 2.13 
10.53 2.42 
10.14 2.50 
10.34 2.04 
10.55 2.12 
10.51 2.45 
10.69 2.71 
10.59 2.57 
10.57 3.17 
10.81 2.18 
9.99 2.19 
10.05 1.93 
10.36 2.35 
10.66 2.17 
10.27 2.01 
10.21 2.33 
10.84 2.23 
10.56 2.38 
10.98 1.92 
10.78 2.05 
10.50 2.10 
10.39 2.24 
10.10 1.89 
10.59 2.29 
10.63 2.08 
10.25 2.15 
10.38 2.03 
10.40 2.15 
10.61 1.98 
10.24 2.24 
10.70 1.88 
9.97 2.06 
10.11 2.18 
10.18 2.67 
10.81 2.28 
10.55 2.17 
10.11 1.94 
10.43 2.29 
10.52 2.14 
10.44 2.41 
10.75 1.91 
10.19 2.43 
10.62 2.00 
10.59 2.78 
10.69 2.33 
10.45 2.15 
10.42 2.42 
10.44 2.67 
10.15 1.89 
10.37 2.27 
10.36 2.50 
10.49 2.26 
10.43 2.32 
10.73 2.22 
10.42 2.14 
10.30 2.83 
10.80 2.89 
10.61 2.16 
10.49 2.28 
10.23 2.83 
10.70 1.95 
10.20 2.08 
10.37 2.56 
10.70 2.12 
10.38 2.83 
10.71 2.27 
10.72 3.25 
10.60 2.67 
10.46 2.70 
10.85 2.14 
10.57 2.14 
10.49 2.63 
10.48 2.19 
10.34 2.07 
10.56 2.08 
10.25 1.99 
10.30 2.19 
10.64 1.98 
10.43 2.83 
10.88 2.45 
10.46 2.22 
10.53 2.43 
10.77 2.06 
10.77 2.79 
10.44 2.34 
10.25 2.38 
10.71 1.91 
10.66 2.13 
10.48 2.05 
10.18 2.28 
10.87 2.35 
11.04 2.17 
10.04 2.04 
10.39 1.98 
10.19 2.03 
10.83 2.65 
10.72 1.96 
10.81 1.89 
10.44 2.23 
10.51 2.69 
10.56 2.75 
10.77 2.52 
10.46 1.95 
10.37 2.37 
10.33 1.96 
10.67 2.38 
10.47 2.34 
10.78 2.14 
10.34 2.68 
10.62 2.78 
10.46 2.07 
10.37 2.04 
10.37 2.14 
10.52 2.11 
10.37 1.85 
10.29 2.26 
10.18 2.11 
10.40 2.41 
10.37 2.60 
10.92 2.51 
10.80 2.50 
10.56 3.01 
10.17 2.22 
10.77 2.10 
10.42 2.15 
9.89 2.06 
10.33 2.32 
10.73 2.27 
10.35 2.76 
10.29 2.34 
10.91 2.47 
10.69 2.61 
10.73 1.99 
10.33 2.30 
10.31 2.52 
10.81 2.18 
10.56 2.63 
10.35 2.00 
10.32 2.11 
10.17 2.69 
10.16 2.76 
10.70 2.40 
10.00 1.95 
10.58 2.74 
10.69 2.29 
10.97 2.31 
10.37 2.01 
10.14 2.38 
10.15 2.27 
10.16 2.05 
10.20 2.32 
10.28 2.21 
10.82 2.16 
10.60 1.97 
10.44 1.98 
10.57 2.36 
10.23 2.52 
10.13 2.56 
10.82 2.28 
10.68 2.17 
10.55 2.15 
10.67 3.37 
9.70 2.29 
9.98 2.45 
10.28 2.33 
10.61 2.28 
10.23 2.85 
10.77 2.23 
10.38 2.39 
10.59 2.17 
10.59 2.00 
10.76 1.93 
10.49 2.47 
10.49 2.06 
10.92 2.18 
10.47 2.44 
10.73 2.46 
10.48 1.92 
10.60 2.30 
10.67 2.07 
10.45 3.49 
10.39 2.26 
10.37 2.60 
10.28 2.52 
10.58 2.40 
10.27 2.25 
10.46 1.92 
10.71 2.13 
10.98 2.38 
10.36 1.91 
10.64 1.95 
10.39 2.39 
10.34 3.01 
10.60 2.04 
10.58 2.67 
10.55 2.60 
10.56 2.25 
10.98 2.01 
10.29 2.18 
10.29 2.78 
10.28 2.72 
10.70 3.20 
10.21 2.43 
10.31 2.12 
10.73 2.13 
10.73 2.54 
10.76 2.40 
11.01 2.08 
10.54 2.46 
10.50 2.11 
10.40 2.30 
10.50 2.04 
10.57 1.85 
10.66 1.86 
10.50 2.01 
10.57 2.36 
10.23 1.94 
10.38 2.16 
10.51 1.92 
10.54 2.43 
10.30 2.35 
10.77 2.24 
10.40 2.59 
10.45 2.05 
10.64 2.14 
10.95 2.18 
10.57 2.57 
10.66 2.03 
11.01 2.03 
10.45 2.02 
10.53 1.99 
10.08 2.36 
10.62 2.45 
10.36 2.50 
10.40 2.25 
10.60 3.78 
10.71 2.24 
10.72 2.96 
10.30 1.90 
10.47 2.20 
10.44 1.98 
10.63 2.21 
10.56 2.07 
10.67 2.24 
10.72 2.30 
10.59 2.29 
10.14 2.10 
10.22 2.22 
10.40 2.22 
10.71 3.40 
9.87 3.20 
10.23 2.50 
10.42 2.07 
10.46 2.34 
10.56 1.95 
10.03 2.05 
10.37 2.16 
10.20 2.38 
10.28 2.19 
10.68 2.33 
10.03 2.01 
10.23 2.24 
10.69 2.79 
10.71 2.26 
10.76 2.18 
10.78 2.42 
10.19 2.17 
10.46 2.07 
10.65 2.38 
10.12 3.04 
10.71 2.33 
10.40 2.63 
10.42 2.39 
10.30 2.93 
10.53 2.32 
10.61 2.62 
10.36 3.08 
10.59 2.34 
10.33 2.75 
10.68 2.47 
10.27 1.81 
10.32 2.51 
10.52 1.94 
10.42 2.73 
10.41 2.50 
10.77 2.44 
10.55 2.81 
10.55 2.01 
10.75 2.24 
10.35 2.41 
10.59 2.68 
10.46 2.77 
10.48 1.84 
10.63 2.45 
10.59 2.83 
10.69 2.19 
10.62 2.05 
10.43 1.97 
10.45 2.26 
10.68 2.12 
10.61 2.25 
10.67 1.90 
10.25 2.09 
10.51 2.17 
10.53 2.48 
10.41 2.62 
10.23 2.99 
10.48 2.60 
10.50 3.24 
10.06 2.04 
10.36 2.64 
10.29 2.63 
10.53 2.03 
10.45 2.57 
10.05 2.96 
10.59 2.51 
10.59 2.27 
10.88 2.37 
10.89 2.16 
10.69 2.20 
10.74 3.17 
10.61 2.15 
11.33 2.24 
10.93 2.17 
10.61 2.57 
10.41 2.07 
10.71 2.45 
10.28 2.34 
10.60 2.23 
10.47 2.67 
10.47 3.35 
10.47 3.45 
10.38 3.16 
10.73 3.68 
10.58 2.39 
10.49 2.81 
10.60 1.89 
10.29 2.40 
10.56 2.85 
10.72 2.93 
10.58 3.93 
10.68 2.32 
10.54 2.42 
10.29 2.22 
10.21 3.68 
10.62 3.72 
10.27 3.22 
10.84 3.45 
10.61 3.80 
10.27 3.06 
10.76 3.08 
10.29 3.19 
10.77 2.34 
10.65 3.21 
10.39 2.36 
10.74 2.63 
10.75 2.80 
10.70 2.56 
10.78 2.31 
10.89 2.28 
10.65 2.45 
10.15 2.66 
10.16 2.47 
10.39 2.17 
10.28 2.27 
10.07 2.02 
10.08 2.92 
11.08 2.43 
10.42 2.30 
10.50 2.26 
10.43 2.80 
10.67 2.51 
10.63 2.04 
10.93 2.63 
10.48 2.30 
10.35 2.24 
10.98 2.72 
10.63 2.27 
10.43 3.02 
10.75 2.65 
10.61 2.56 
10.04 3.04 
10.57 2.29 
10.16 3.41 
10.52 4.62 
10.50 3.02 
10.54 2.01 
10.58 2.56 
10.04 2.10 
10.49 1.97 
10.71 2.55 
10.76 2.96 
10.75 2.39 
10.80 2.45 
10.49 2.41 
10.61 2.08 
10.62 2.41 
10.54 2.10 
10.51 2.54 
10.64 2.30 
11.04 2.59 
10.79 2.46 
10.43 2.62 
10.74 2.23 
10.73 2.15 
10.35 2.55 
10.65 2.68 
10.77 2.78 
10.52 2.63 
10.92 2.66 
10.97 2.07 
11.14 2.86 
11.05 2.16 
10.30 2.47 
10.91 2.58 
10.70 2.44 
10.75 2.24 
11.04 2.52 
10.95 2.21 
11.13 2.14 
11.20 2.38 
11.38 2.50 
11.08 2.01 
11.19 2.09 
10.86 2.07 
11.11 2.46 
10.94 2.38 
10.95 3.10 
11.32 2.51 
11.01 2.97 
11.43 2.38 
11.52 2.37 
10.83 2.57 
11.19 2.90 
11.29 2.69 
11.41 2.38 
11.38 2.17 
11.42 2.39 
11.47 2.09 
11.22 3.01 
11.52 2.61 
11.36 2.31 
11.32 2.34 
11.15 2.70 
11.58 3.09 
11.33 3.57 
11.29 2.40 
11.53 2.83 
10.63 2.68 
10.34 2.95 
11.23 2.37 
11.07 3.32 
11.86 3.74 
11.45 2.51 
11.19 3.46 
11.39 2.99 
11.29 2.35 
11.11 3.22 
10.85 2.41 
11.79 2.98 
11.14 2.24 
11.58 2.65 
11.25 3.42 
11.71 2.30 
11.07 2.82 
11.45 2.70 
11.22 2.57 
11.59 2.32 
11.73 3.22 
11.67 2.42 
11.35 2.17 
11.49 3.14 
10.77 2.61 
10.57 1.82 
11.81 2.56 
11.38 2.74 
10.85 2.48 
10.79 2.06 
10.86 1.94 
11.31 2.93 
10.88 2.08 
10.33 1.99 
10.41 1.86 
10.59 2.39 
10.98 2.75 
11.23 2.96 
11.48 2.33 
11.40 3.51 
11.18 2.65 
11.80 2.89 
11.29 2.28 
12.15 2.70 
11.57 2.61 
11.58 2.35 
11.84 2.83 
11.17 2.34 
11.62 2.28 
11.35 2.37 
11.36 2.11 
11.59 2.34 
10.71 2.06 
10.46 2.36 
10.88 2.85 
10.84 2.53 
9.88 1.98 
10.56 1.89 
10.73 2.68 
10.98 2.84 
11.18 2.36 
11.03 2.53 
10.62 2.48 
11.56 2.32 
11.40 2.56 
11.33 3.36 
11.15 2.90 
11.24 3.19 
11.41 2.69 
11.70 2.43 
10.93 3.00 
10.99 3.34 
11.37 3.30 
11.25 2.89 
11.32 3.24 
10.88 3.05 
10.58 2.33 
10.64 2.27 
10.87 2.56 
11.03 3.80 
10.57 2.72 
10.67 2.16 
10.63 3.05 
10.82 2.63 
10.98 2.43 
11.19 3.03 
11.55 2.41 
10.97 1.91 
11.40 2.29 
10.89 2.38 
10.99 2.25 
10.58 2.30 
10.68 2.41 
10.56 2.55 
10.70 2.22 
10.33 2.09 
10.51 2.58 
10.34 2.27 
10.62 2.22 
10.45 2.75 
10.92 2.45 
10.63 2.70 
10.67 2.27 
10.80 2.36 
10.44 3.12 
10.52 2.19 
10.36 2.58 
10.64 2.07 
10.40 2.16 
11.24 2.25 
10.59 2.38 
11.29 2.44 
10.63 2.11 
11.15 1.95 
11.10 2.39 
11.12 2.12 
10.87 2.58 
10.93 1.95 
10.70 2.28 
10.81 2.31 
10.63 3.18 
10.30 2.07 
10.47 2.73 
10.68 2.53 
11.04 2.85 
10.79 2.07 
10.31 2.00 
10.73 2.05 
11.09 2.18 
10.90 2.04 
10.47 2.02 
10.79 1.76 
10.89 2.75 
10.66 2.53 
10.57 2.37 
10.61 2.63 
10.32 2.33 
10.64 2.14 
10.53 2.22 
11.06 1.86 
10.61 2.05 
11.03 1.93 
10.88 2.15 
10.93 2.13 
10.72 1.85 
10.76 2.75 
10.92 2.40 
11.09 2.22 
11.06 2.28 
10.84 2.30 
11.27 2.31 
10.99 2.69 
10.58 2.90 
11.25 2.09 
10.83 2.93 
10.72 2.31 
10.84 2.66 
10.57 2.01 
10.88 2.17 
10.61 2.22 
11.15 2.45 
10.75 3.58 
10.60 2.84 
10.58 2.39 
10.95 2.46 
10.58 2.03 
10.49 2.15 
10.67 2.93 
10.51 2.22 
10.15 2.08 
10.52 1.83 
10.74 2.30 
10.69 1.93 
10.62 3.23 
10.65 3.08 
10.44 3.04 
10.90 2.37 
10.53 2.38 
10.51 2.60 
10.65 2.44 
10.40 2.45 
10.59 2.50 
10.30 2.44 
10.71 2.52 
10.41 2.95 
10.58 2.63 
10.44 2.32 
10.28 2.12 
10.75 2.27 
10.52 2.40 
10.35 2.09 
10.87 1.93 
10.98 2.64 
10.72 2.37 
10.74 2.08 
10.36 2.07 
10.52 2.00 
10.34 2.42 
10.42 2.37 
10.57 2.15 
10.56 2.38 
10.69 2.23 
11.01 2.39 
10.67 2.11 
11.11 2.13 
11.34 2.69 
10.77 2.04 
11.00 2.24 
10.72 2.11 
10.48 2.46 
10.87 2.00 
10.71 2.23 
10.24 2.80 
10.34 2.93 
10.57 2.12 
10.71 2.52 
10.80 2.65 
11.00 2.28 
10.73 1.93 
11.30 2.19 
11.08 2.51 
10.80 2.10 
10.95 1.90 
10.77 2.92 
11.15 2.16 
10.58 1.85 
11.24 2.31 
10.81 2.45 
11.37 3.51 
10.66 2.46 
10.81 2.33 
11.28 2.32 
11.08 2.04 
10.72 2.12 
11.35 2.28 
10.59 2.22 
10.34 1.83 
10.71 2.26 
10.88 2.27 
11.03 2.42 
10.96 2.10 
10.85 3.02 
10.91 2.41 
10.94 2.30 
10.45 2.45 
11.00 2.79 
10.73 2.56 
10.49 3.01 
11.18 2.12 
11.20 2.74 
11.32 2.03 
10.83 1.92 
10.72 2.24 
10.95 2.04 
10.68 2.18 
10.66 1.85 
10.73 2.24 
10.45 2.14 
10.89 1.85 
11.17 2.14 
10.45 3.03 
11.08 1.82 
10.79 2.28 
10.75 2.05 
10.38 2.30 
10.22 2.25 
10.61 2.22 
10.91 2.41 
10.80 2.23 
10.41 2.72 
10.81 2.19 
10.85 2.98 
10.61 2.50 
10.65 2.06 
11.49 2.34 
10.79 2.04 
10.63 2.11 
10.73 2.07 
10.29 2.84 
10.50 2.04 
10.75 2.50 
10.57 2.02 
10.57 2.81 
10.72 2.14 
10.25 2.30 
10.31 2.44 
10.95 2.13 
10.73 2.27 
10.14 2.36 
10.33 2.17 
10.60 2.01 
10.68 2.49 
10.18 2.09 
10.92 2.40 
10.13 2.59 
10.42 2.64 
10.60 1.81 
10.90 2.27 
10.78 1.99 
10.40 2.22 
10.51 2.37 
10.35 2.90 
10.32 2.37 
10.71 2.52 
10.55 2.18 
10.97 2.23 
10.54 2.45 
10.92 2.09 
10.91 2.29 
10.97 1.98 
10.65 2.34 
10.91 1.91 
10.76 1.96 
10.71 2.06 
10.93 2.56 
10.30 2.29 
11.09 2.16 
11.16 1.99 
10.05 2.31 
10.34 1.87 
10.80 2.20 
10.64 2.30 
10.19 1.88 
10.60 2.71 
10.90 2.78 
10.17 2.46 
10.49 2.22 
11.05 2.33 
10.63 2.09 
10.99 2.56 
10.61 2.35 
10.53 2.08 
11.04 2.12 
10.50 1.91 
10.42 2.74 
10.42 2.48 
10.52 2.36 
10.76 2.45 
10.78 2.10 
10.48 2.09 
10.54 2.19 
10.50 2.86 
10.57 2.43 
10.42 2.15 
10.63 2.95 
11.32 2.19 
10.13 2.08 
10.35 2.22 
10.46 2.79 
10.79 2.25 
10.18 2.22 
10.14 2.21 
10.73 2.57 
10.37 2.34 
10.46 2.05 
9.85 2.12 
11.17 1.84 
10.55 2.20 
10.65 2.48 
10.68 2.54 
10.42 2.53 
10.86 2.42 
10.24 2.31 
10.76 1.99 
10.11 3.12 
11.14 2.88 
10.19 2.11 
10.13 2.05 
10.74 2.76 
10.49 1.86 
10.29 2.58 
10.39 2.51 
10.93 2.17 
10.49 2.15 
10.35 2.64 
10.30 1.98 
10.37 2.11 
10.60 2.55 
10.43 2.25 
10.60 2.27 
10.46 2.42 
10.54 2.34 
10.38 2.21 
10.58 1.99 
10.84 2.91 
10.58 2.03 
10.38 2.18 
10.65 2.27 
10.62 2.20 
10.52 2.40 
10.35 2.00 
10.59 1.79 
10.63 2.35 
10.34 2.06 
10.40 2.09 
10.58 2.61 
10.35 2.33 
10.32 2.56 
10.29 2.19 
10.39 2.16 
10.47 2.35 
10.85 2.33 
10.51 2.00 
10.46 2.30 
10.29 1.95 
10.45 2.04 
10.56 1.99 
10.50 2.76 
10.40 2.39 
10.83 2.07 
10.89 1.96 
10.61 2.75 
10.67 2.27 
11.04 2.02 
11.36 2.20 
10.76 2.91 
10.24 2.29 
10.81 3.80 
10.08 1.99 
10.78 2.61 
11.28 2.18 
10.77 1.94 
10.64 2.11 
10.50 2.19 
10.36 2.11 
10.32 2.01 
10.95 2.53 
10.95 2.53 
10.48 2.17 
10.46 2.62 
10.97 2.33 
11.24 2.15 
10.67 2.32 
10.80 1.92 
10.43 2.21 
10.39 2.37 
10.69 2.59 
10.93 2.25 
10.63 2.22 
10.87 2.24 
11.00 2.16 
10.85 2.49 
10.47 2.40 
11.08 2.76 
10.86 2.30 
10.38 2.26 
10.27 2.40 
10.63 2.12 
10.70 2.47 
10.28 2.01 
11.24 2.20 
11.28 2.01 
10.22 2.74 
11.44 1.98 
11.21 2.39 
11.13 2.21 
10.92 2.50 
10.74 2.70 
10.68 2.51 
10.42 2.10 
10.38 1.98 
11.01 2.29 
10.37 2.39 
10.55 2.33 
10.34 2.48 
10.22 2.06 
10.60 2.25 
10.57 2.26 
10.16 1.94 
10.53 1.97 
10.51 2.92 
10.73 2.64 
10.49 2.10 
10.74 2.86 
10.75 2.16 
10.55 2.24 
10.68 2.78 
10.68 1.98 
10.67 2.84 
11.23 2.23 
10.69 2.10 
10.53 2.11 
11.08 2.04 
11.03 2.08 
10.48 2.04 
10.76 2.66 
10.64 2.46 
10.54 2.19 
10.54 2.62 
10.67 2.17 
10.66 2.04 
10.79 2.10 
10.45 2.07 
10.49 2.24 
10.57 2.19 
11.00 2.23 
10.36 2.11 
10.58 2.37 
10.77 1.80 
10.88 2.90 
10.40 2.32 
10.48 2.64 
10.92 2.39 
10.65 2.32 
10.50 2.20 
10.77 2.44 
10.35 1.94 
10.71 2.72 
10.66 2.18 
10.48 2.16 
10.24 2.48 
10.43 1.83 
10.66 1.97 
10.64 2.44 
10.78 2.73 
10.66 2.27 
10.57 1.98 
10.26 2.33 
10.86 2.16 
10.42 2.73 
10.64 2.20 
10.54 1.97 
10.23 2.35 
10.43 2.20 
10.82 2.62 
10.36 1.99 
10.05 2.17 
10.90 2.07 
10.14 1.95 
10.55 2.19 
10.65 2.41 
10.62 2.21 
10.94 3.11 
10.82 2.09 
11.02 2.14 
10.38 2.06 
10.23 2.38 
10.34 2.34 
10.49 2.64 
11.05 1.97 
11.08 2.58 
11.05 1.91 
10.81 2.02 
10.34 3.07 
11.21 2.47 
10.56 2.07 
11.01 2.03 
10.83 2.22 
10.83 2.45 
10.99 2.09 
10.32 3.25 
10.48 2.83 
10.59 2.50 
10.60 2.19 
10.54 2.69 
10.86 2.85 
10.42 2.45 
10.64 1.93 
10.67 2.50 
10.81 2.48 
10.44 2.43 
10.45 2.11 
10.39 2.27 
10.25 2.48 
10.71 2.00 
10.94 2.71 
10.67 2.00 
10.92 2.49 
10.78 2.54 
11.02 2.15 
10.66 2.07 
11.01 2.22 
11.06 2.29 
10.66 2.64 
10.56 1.94 
10.41 2.39 
11.27 2.50 
10.74 2.28 
10.37 2.48 
10.12 2.23 
10.53 2.69 
10.89 2.42 
10.57 2.55 
11.37 2.56 
11.14 2.75 
11.23 2.40 
11.23 2.32 
10.86 2.69 
10.91 2.14 
10.68 2.44 
10.46 3.72 
11.38 2.25 
10.60 2.57 
10.88 2.31 
10.48 2.23 
10.68 2.26 
11.15 3.02 
10.52 2.52 
10.51 2.25 
10.49 3.07 
10.65 2.35 
10.83 2.12 
10.27 2.38 
10.65 1.92 
10.87 2.21 
10.50 2.16 
10.37 2.40 
10.61 2.61 
10.94 2.25 
10.65 2.39 
10.83 2.72 
10.55 2.04 
10.89 2.22 
10.16 2.22 
11.02 2.35 
10.78 2.89 
10.71 2.51 
11.11 2.26 
11.03 2.61 
10.67 2.57 
10.36 2.98 
10.78 2.83 
10.89 2.73 
10.78 2.79 
10.69 2.11 
10.82 2.64 
10.82 2.25 
10.34 2.08 
11.04 1.93 
10.86 2.30 
11.02 2.52 
10.57 2.43 
10.76 2.37 
10.74 2.48 
10.50 2.07 
10.46 2.44 
10.47 2.55 
10.43 2.54 
10.60 2.42 
10.77 2.55 
10.91 2.29 
10.60 2.44 
10.82 2.04 
10.87 2.07 
11.15 2.15 
11.25 2.32 
11.17 2.48 
10.76 2.01 
10.64 2.22 
10.83 2.04 
10.79 2.34 
10.77 1.97 
10.31 2.40 
10.15 1.99 
10.47 2.87 
10.57 2.39 
10.59 1.97 
10.57 2.06 
10.70 2.51 
10.58 2.12 
10.53 2.02 
10.67 2.46 
10.27 2.67 
10.31 2.32 
10.43 2.02 
10.78 2.14 
10.68 1.91 
10.47 2.75 
10.38 2.11 
10.65 2.44 
10.58 2.32 
10.51 3.04 
10.85 2.07 
10.49 1.99 
11.07 2.43 
10.66 2.86 
10.53 2.13 
10.78 2.61 
10.50 2.73 
10.58 2.22 
10.51 2.54 
10.31 2.83 
10.56 2.58 
10.67 1.91 
10.67 2.68 
10.93 2.65 
10.78 2.16 
10.37 2.30 
10.62 2.01 
10.50 2.91 
10.47 1.73 
10.37 2.09 
10.53 3.37 
10.65 2.41 
10.53 2.22 
10.76 2.29 
10.57 2.09 
10.34 2.55 
10.48 2.75 
11.00 2.20 
10.89 2.05 
10.09 2.68 
10.69 2.07 
10.67 2.37 
10.35 2.16 
10.65 2.38 
10.54 2.12 
10.80 2.52 
10.85 1.79 
10.82 2.50 
10.53 2.97 
10.24 2.26 
10.38 1.95 
10.54 2.30 
10.24 2.17 
10.29 2.30 
10.51 2.18 
10.42 2.40 
10.54 1.96 
10.54 2.07 
10.47 1.98 
10.85 2.07 
10.43 2.59 
10.83 3.14 
10.35 2.60 
10.52 2.72 
10.64 2.19 
10.71 2.03 
10.38 1.99 
10.52 2.08 
10.52 2.41 
10.54 2.33 
10.38 2.52 
10.50 2.52 
10.22 1.96 
10.47 2.03 
10.17 2.02 
10.36 2.02 
10.38 2.77 
10.34 2.26 
10.05 2.60 
10.24 2.18 
10.78 1.80 
10.76 2.16 
10.70 3.09 
10.46 3.60 
10.46 2.14 
10.49 2.27 
10.34 2.34 
10.27 2.41 
10.95 2.07 
10.66 2.74 
10.38 2.51 
10.04 2.35 
10.20 3.12 
10.44 2.10 
10.29 2.41 
10.32 2.29 
10.97 2.31 
10.55 1.97 
10.31 1.96 
10.57 1.90 
10.43 2.19 
10.49 1.89 
10.30 2.07 
10.41 2.59 
10.05 1.85 
10.21 2.19 
10.17 2.70 
10.39 2.64 
10.64 2.30 
10.37 2.10 
10.32 2.48 
10.31 1.85 
10.68 2.34 
10.50 2.37 
10.77 2.63 
10.28 2.69 
10.56 2.43 
10.34 2.22 
10.40 2.98 
10.34 2.51 
10.00 2.28 
10.11 2.14 
10.50 2.33 
10.66 2.49 
10.96 1.84 
11.12 2.39 
10.35 1.90 
10.72 2.18 
10.43 2.43 
10.56 2.16 
10.40 1.93 
10.63 2.66 
10.82 2.70 
10.60 2.08 
10.82 1.95 
10.49 2.25 
10.29 2.13 
10.64 2.19 
10.02 2.91 
10.61 2.44 
10.19 2.35 
10.42 3.06 
10.39 2.74 
10.27 2.43 
10.81 1.89 
10.91 2.41 
10.28 1.99 
10.95 2.89 
10.49 2.68 
10.09 2.17 
10.63 2.45 
10.43 2.49 
10.43 2.59 
10.57 2.85 
11.00 2.42 
10.59 1.98 
10.22 2.23 
10.13 2.96 
10.19 2.69 
10.68 3.31 
11.14 1.99 
10.42 2.47 
10.25 2.24 
10.63 2.86 
10.51 2.28 
10.27 2.46 
10.34 2.22 
10.39 2.34 
10.70 2.29 
11.13 2.15 
10.48 3.36 
10.37 2.41 
10.49 3.93 
10.63 2.02 
9.86 2.37 
10.25 2.58 
11.00 2.16 
10.21 2.61 
10.42 2.77 
10.40 2.26 
10.56 2.09 
10.54 2.00 
10.41 1.80 
10.33 2.08 
10.51 2.83 
10.65 2.83 
10.29 2.19 
10.55 2.32 
10.62 2.97 
10.31 2.10 
10.69 2.22 
10.74 2.52 
10.43 2.78 
10.81 2.10 
10.38 2.13 
10.15 2.03 
10.98 2.14 
10.57 2.05 
10.39 2.53 
10.42 2.79 
11.01 3.21 
10.48 2.35 
10.59 2.42 
10.66 2.89 
10.68 2.74 
10.65 2.45 
10.32 2.61 
10.66 2.18 
10.85 2.73 
10.56 2.72 
10.24 2.78 
10.29 2.39 
10.68 2.59 
10.96 2.38 
10.69 2.33 
10.43 3.38 
10.90 2.51 
10.33 2.43 
10.11 2.43 
10.32 2.90 
10.05 2.19 
10.69 2.37 
10.52 2.07 
10.76 1.93 
10.21 1.87 
10.29 2.13 
10.25 2.27 
10.53 2.53 
10.44 2.61 
10.84 2.18 
10.54 2.11 
10.12 2.34 
10.65 2.16 
10.51 2.82 
10.00 3.00 
10.36 3.17 
10.35 2.91 
10.16 2.45 
10.30 2.08 
10.47 2.00 
10.33 2.11 
10.55 2.47 
10.43 2.57 
10.24 2.36 
10.01 2.83 
10.08 2.43 
10.76 2.54 
10.44 2.21 
10.22 2.82 
10.60 2.64 
10.60 2.59 
10.49 3.82 
11.02 2.65 
10.80 2.40 
10.21 2.53 
10.40 2.91 
10.24 2.08 
10.62 2.02 
10.64 2.36 
10.33 2.32 
9.97 2.51 
10.13 2.94 
10.81 1.98 
10.28 2.42 
9.78 2.50 
10.46 2.11 
10.76 2.74 
10.80 2.25 
10.73 2.66 
10.10 2.22 
10.54 2.39 
10.63 2.84 
10.61 2.52 
10.50 2.42 
10.11 2.79 
10.57 2.38 
10.55 2.22 
10.95 2.24 
10.69 2.38 
10.64 2.15 
10.72 2.14 
10.53 2.24 
10.82 2.36 
10.41 2.46 
10.42 2.35 
10.77 2.23 
10.58 2.50 
10.41 2.34 
11.11 1.97 
10.67 2.56 
10.50 2.40 
10.65 2.32 
10.46 2.34 
10.12 2.07 
10.21 3.00 
10.26 2.17 
10.24 2.21 
10.42 2.56 
10.95 2.52 
10.65 1.96 
9.90 2.49 
10.69 2.27 
10.77 2.16 
10.56 1.81 
10.39 2.47 
10.66 1.97 
10.00 1.96 
10.19 2.48 
10.70 2.78 
10.74 2.99 
10.59 2.42 
10.32 2.34 
10.59 2.06 
10.47 2.61 
10.07 2.50 
10.18 2.40 
10.41 2.79 
10.73 2.89 
10.78 2.31 
10.69 2.43 
10.28 1.98 
10.50 2.43 
10.28 2.14 
10.97 2.25 
10.68 2.67 
10.78 2.40 
10.57 2.18 
10.09 2.43 
10.89 2.93 
10.80 2.45 
10.90 2.79 
10.68 2.48 
10.59 1.99 
10.21 2.81 
10.79 2.66 
10.69 2.19 
10.61 3.65 
10.26 2.70 
10.55 3.14 
10.23 2.10 
10.66 2.50 
10.53 2.05 
10.15 2.44 
10.75 2.37 
10.63 2.30 
10.56 2.28 
10.73 2.41 
10.34 3.10 
10.21 2.91 
10.53 2.38 
10.30 2.38 
10.52 2.02 
10.40 2.56 
10.86 2.38 
10.69 1.92 
10.53 2.74 
10.16 2.23 
10.79 2.36 
10.74 2.29 
10.78 2.09 
10.42 2.20 
10.60 2.02 
10.49 2.72 
10.39 2.40 
11.36 1.82 
11.07 1.92 
10.74 1.97 
10.75 2.29 
10.47 2.63 
10.39 2.31 
10.36 1.94 
10.73 2.43 
10.67 2.81 
10.25 2.24 
10.43 2.94 
10.86 2.34 
10.08 3.12 
9.90 2.27 
10.38 2.30 
10.28 2.30 
10.17 2.97 
10.52 2.80 
11.19 2.79 
10.66 2.72 
10.48 2.40 
10.93 3.03 
10.62 2.27 
10.30 2.36 
10.39 2.29 
10.10 1.87 
10.14 2.59 
9.94 3.33 
10.65 2.74 
10.29 2.66 
10.16 2.68 
10.21 3.55 
10.24 2.63 
10.19 2.03 
10.28 2.22 
10.09 2.24 
10.18 2.22 
10.04 2.32 
9.84 2.22 
10.10 1.90 
10.07 2.07 
10.34 2.60 
10.78 2.45 
10.07 1.82 
9.97 2.43 
10.05 2.29 
10.23 1.86 
9.98 2.20 
10.26 2.04 
11.05 1.89 
10.59 2.21 
10.45 2.15 
10.14 1.99 
10.19 1.97 
10.25 2.92 
10.70 1.85 
10.32 2.15 
10.17 2.21 
10.34 2.24 
10.51 2.74 
9.88 2.26 
10.07 1.82 
10.37 2.36 
10.20 2.27 
10.23 2.27 
10.24 2.08 
10.40 2.21 
10.34 2.76 
10.42 1.89 
10.74 2.70 
10.49 2.42 
10.18 2.74 
10.59 2.29 
10.08 2.27 
10.91 2.18 
10.70 2.20 
10.01 1.93 
10.88 2.19 
10.40 2.88 
10.35 2.30 
10.16 2.76 
10.62 2.73 
9.98 2.60 
10.25 2.68 
10.22 2.25 
10.51 2.44 
10.23 2.45 
10.03 2.62 
10.68 3.30 
10.47 3.17 
10.11 1.96 
10.44 2.41 
9.99 2.56 
10.38 1.98 
10.49 2.34 
9.93 2.05 
10.25 2.66 
10.09 2.16 
10.31 2.23 
10.21 2.11 
10.67 3.11 
11.18 2.17 
10.48 2.17 
10.05 2.11 
10.55 2.79 
10.50 2.08 
11.27 3.39 
11.56 2.04 
10.71 2.51 
10.71 2.66 
10.23 2.38 
10.50 2.15 
10.79 2.01 
10.67 2.20 
10.42 2.67 
10.15 2.24 
9.94 3.39 
10.14 2.03 
10.69 3.36 
10.88 1.83 
10.75 2.42 
10.30 2.78 
10.56 2.21 
10.50 2.20 
10.37 2.51 
10.71 2.02 
10.33 2.78 
10.55 2.67 
10.09 2.68 
10.17 2.29 
10.44 3.31 
10.77 2.83 
10.68 2.70 
10.37 2.29 
11.51 2.27 
10.94 2.04 
10.25 2.35 
10.32 2.35 
10.63 2.06 
10.72 2.27 
10.46 2.00 
10.82 2.55 
10.57 2.42 
10.22 2.59 
10.25 2.03 
10.80 2.68 
10.96 2.42 
11.07 2.18 
10.14 2.99 
10.80 1.89 
10.03 2.37 
10.47 2.45 
10.72 2.48 
10.10 1.77 
10.73 2.36 
10.27 1.61 
10.63 2.00 
10.74 2.51 
10.28 2.21 
10.46 2.07 
10.48 2.32 
10.16 1.92 
10.28 2.30 
10.30 2.15 
10.93 2.57 
10.56 2.38 
11.02 2.60 
11.09 2.21 
9.99 2.05 
10.23 2.58 
10.15 2.76 
10.10 2.16 
10.54 2.05 
10.88 2.09 
10.00 2.36 
9.77 2.55 
11.26 2.22 
11.15 1.97 
10.03 2.62 
10.02 2.88 
11.44 2.46 
11.27 2.34 
10.30 2.06 
9.80 2.47 
10.71 1.92 
10.95 2.18 
10.52 2.35 
10.13 2.21 
11.20 2.08 
11.12 2.62 
11.41 2.30 
11.39 3.01 
11.34 2.24 
11.03 2.95 
10.07 2.10 
10.15 2.41 
11.09 3.35 
11.12 1.97 
10.96 1.92 
11.48 3.00 
11.69 2.57 
11.22 2.28 
11.58 1.91 
11.51 2.11 
11.78 2.02 
11.57 2.53 
11.39 2.17 
11.59 2.41 
9.81 2.40 
10.50 2.26 
11.78 2.03 
10.85 2.84 
11.17 2.29 
11.25 1.99 
11.31 2.57 
11.54 2.16 
11.34 3.41 
11.60 2.19 
10.43 2.86 
10.22 2.67 
10.14 2.87 
10.24 2.43 
11.06 2.41 
11.59 2.47 
11.98 2.24 
11.96 2.72 
10.54 2.53 
10.46 2.61 
11.50 1.99 
11.41 2.93 
10.28 3.73 
10.16 2.40 
11.77 2.23 
11.94 2.80 
10.30 3.54 
10.28 2.64 
11.41 2.66 
11.34 2.55 
11.45 3.58 
11.29 3.00 
10.44 2.55 
10.27 2.84 
10.89 3.25 
11.37 3.25 
11.12 2.69 
11.63 2.31 
10.94 2.32 
11.47 2.81 
11.07 3.25 
11.71 3.82 
11.44 3.38 
11.61 2.56 
10.83 2.00 
10.37 2.52 
12.11 2.04 
11.87 2.11 
11.95 2.95 
11.42 2.84 
11.85 2.06 
11.98 2.22 
11.61 2.50 
11.64 1.97 
10.18 1.96 
10.27 2.99 
11.41 1.75 
12.01 1.89 
10.68 2.01 
10.20 3.02 
10.28 2.73 
10.10 2.11 
10.46 2.01 
10.61 2.37 
10.34 2.29 
10.47 3.10 
10.27 2.36 
10.35 2.61 
10.33 1.90 
10.17 3.03 
10.03 2.65 
10.22 2.77 
10.50 2.35 
10.63 2.09 
10.56 2.55 
10.30 1.93 
11.01 2.53 
10.75 2.40 
10.86 2.33 
10.10 2.52 
10.73 3.43 
10.88 2.07 
10.79 2.54 
10.39 2.31 
10.39 2.41 
10.62 2.16 
10.36 2.62 
10.56 1.95 
9.94 2.62 
10.17 2.66 
10.07 2.16 
10.22 4.05 
10.21 2.43 
10.05 2.63 
11.66 2.25 
11.79 2.18 
10.21 2.66 
10.27 2.94 
10.05 2.31 
10.10 2.32 
11.34 2.48 
11.31 2.95 
10.42 3.25 
10.81 2.03 
10.28 2.15 
10.37 4.20 
10.22 2.15 
10.32 2.24 
10.06 2.08 
10.68 2.43 
10.74 2.61 
10.42 2.76 
9.98 3.74 
10.15 2.47 
10.75 2.18 
10.42 2.30 
10.24 2.10 
10.24 3.07 
10.92 2.07 
10.11 2.23 
10.04 3.18 
10.50 1.88 
10.60 2.13 
10.58 2.38 
10.06 2.20 
10.28 2.20 
10.41 2.29 
10.56 2.92 
10.39 1.92 
10.72 2.12 
10.52 1.92 
10.54 2.01 
10.59 2.89 
10.36 2.06 
10.30 3.72 
10.58 2.53 
10.43 2.31 
10.77 2.42 
9.96 2.33 
10.50 3.49 
10.68 2.76 
10.65 2.07 
10.52 2.25 
10.79 2.85 
10.38 3.12 
10.36 2.04 
9.93 2.56 
10.45 1.98 
10.30 1.90 
10.32 2.09 
10.88 2.24 
10.87 2.03 
10.46 2.04 
10.61 2.20 
10.51 2.20 
10.82 2.10 
10.24 2.14 
10.64 3.09 
10.79 3.54 
11.22 3.50 
10.19 2.92 
10.46 2.30 
10.46 3.02 
10.64 2.55 
10.67 2.16 
10.62 2.62 
10.75 2.24 
10.78 2.69 
10.47 3.14 
10.78 2.88 
10.45 2.56 
10.67 2.60 
10.74 2.24 
10.47 2.07 
10.71 2.14 
10.29 2.33 
10.08 3.14 
10.48 2.70 
10.59 2.11 
10.25 1.76 
10.40 2.47 
10.68 3.10 
10.64 2.73 
10.45 2.43 
10.52 2.83 
10.64 2.01 
11.12 2.22 
10.63 3.43 
10.37 2.33 
10.43 2.31 
11.12 1.90 
10.76 2.59 
10.74 2.18 
10.48 2.65 
10.46 2.28 
10.46 2.41 
10.95 2.55 
10.19 2.53 
10.64 2.07 
10.47 2.26 
10.50 1.91 
10.86 2.09 
10.39 2.58 
10.68 2.94 
10.94 2.26 
10.82 2.48 
10.16 2.23 
10.66 2.93 
10.80 2.79 
10.69 2.01 
10.64 1.85 
10.67 2.03 
10.70 2.42 
11.10 2.47 
10.51 2.27 
