# r1:Y77-D34, r2:S79-D214 
12.04 2.61 
11.07 1.98 
11.18 2.11 
11.21 2.39 
10.81 2.45 
11.86 2.37 
12.46 2.28 
11.46 2.11 
10.84 2.44 
12.40 2.11 
10.44 2.71 
11.16 2.70 
11.56 1.81 
10.98 2.07 
10.85 2.24 
11.20 2.57 
10.91 2.03 
10.57 2.49 
10.40 1.91 
10.57 2.01 
10.39 2.24 
11.79 1.99 
11.56 1.83 
11.91 2.22 
12.16 1.94 
10.87 2.07 
10.62 1.97 
11.76 2.13 
11.38 2.12 
10.34 2.17 
10.68 2.00 
11.41 2.19 
11.36 1.83 
10.93 2.13 
10.74 2.21 
11.47 1.90 
11.28 2.54 
11.37 2.50 
12.03 2.21 
12.39 2.12 
12.24 1.99 
10.72 2.20 
10.21 2.47 
10.59 2.20 
10.65 2.51 
10.69 3.03 
12.19 2.65 
11.54 2.08 
10.65 2.74 
10.56 2.48 
10.50 2.21 
10.77 2.80 
10.89 2.58 
10.55 2.55 
10.38 2.27 
10.88 2.26 
10.98 3.65 
10.46 3.00 
10.78 2.19 
10.49 1.95 
10.95 2.27 
11.14 2.39 
10.96 2.15 
10.72 2.66 
10.63 2.42 
10.52 2.84 
10.71 2.66 
10.40 2.50 
10.38 2.43 
10.74 2.31 
10.34 2.57 
11.14 2.44 
11.97 2.38 
11.81 2.31 
10.82 3.22 
10.75 1.88 
10.60 2.77 
10.51 3.25 
10.33 2.96 
10.53 2.31 
10.85 2.54 
11.10 1.95 
10.91 2.26 
10.99 2.21 
10.84 2.40 
10.86 2.03 
10.45 2.97 
10.55 2.26 
10.67 2.26 
10.50 2.71 
10.59 2.18 
10.83 2.23 
10.88 3.15 
10.60 2.59 
10.68 2.60 
10.68 2.29 
10.39 2.54 
10.62 2.67 
10.21 2.86 
10.60 4.15 
10.47 2.44 
10.52 2.73 
10.74 2.73 
10.48 2.35 
11.30 2.14 
11.00 2.23 
10.58 2.52 
10.63 3.40 
11.11 2.61 
11.07 2.04 
10.50 2.53 
10.72 2.03 
10.63 2.25 
10.64 2.10 
10.93 2.48 
10.49 2.13 
10.62 2.51 
10.39 2.03 
11.34 2.01 
10.79 2.04 
11.04 2.60 
10.22 3.47 
10.32 1.96 
10.42 2.55 
10.57 3.21 
10.35 2.59 
10.48 2.05 
10.54 3.03 
10.68 2.63 
10.28 3.83 
11.00 3.19 
10.58 3.33 
10.67 2.25 
10.35 3.39 
10.49 2.45 
10.16 3.09 
10.14 2.40 
10.58 2.53 
10.26 2.96 
10.20 2.33 
10.46 2.10 
10.29 2.56 
10.33 2.95 
11.03 3.40 
10.40 3.28 
10.90 2.39 
10.77 2.02 
10.67 2.88 
10.39 2.78 
10.28 3.41 
11.04 2.72 
10.90 2.33 
11.19 1.86 
10.40 2.91 
10.61 2.37 
10.85 2.65 
10.49 2.04 
10.41 2.37 
10.28 2.18 
10.51 2.22 
10.35 2.04 
10.27 2.28 
10.63 2.62 
10.77 2.01 
10.64 2.31 
10.96 2.17 
11.23 1.91 
10.42 2.47 
10.63 2.01 
10.81 2.46 
10.50 2.61 
10.62 2.15 
10.33 3.19 
10.21 3.34 
10.57 2.04 
10.28 2.52 
10.15 1.96 
10.75 2.33 
10.19 2.84 
10.53 1.92 
10.67 2.68 
11.28 2.23 
10.76 2.61 
10.55 3.25 
11.07 2.76 
10.37 2.55 
10.87 2.62 
10.68 3.06 
10.87 2.21 
10.58 2.37 
10.77 2.44 
10.53 2.22 
11.21 2.25 
11.21 2.37 
11.16 2.30 
10.87 1.95 
10.81 2.48 
10.44 2.55 
11.30 2.28 
10.96 2.23 
10.83 2.44 
10.96 2.53 
11.17 2.20 
10.60 2.76 
11.05 2.81 
10.75 2.12 
10.88 2.93 
11.07 2.06 
11.19 2.11 
10.72 2.22 
10.80 2.44 
11.41 1.90 
11.40 2.01 
10.71 2.34 
11.32 2.64 
12.30 1.95 
10.37 2.05 
10.40 2.27 
12.46 2.49 
12.39 2.09 
11.98 2.37 
12.41 2.09 
12.15 2.18 
10.68 2.66 
11.14 2.57 
12.50 2.11 
12.28 2.32 
11.05 1.88 
10.75 2.31 
12.31 1.97 
12.21 2.43 
10.58 2.63 
10.52 2.19 
12.10 2.72 
10.29 1.92 
10.45 2.35 
12.09 2.92 
12.70 1.91 
10.52 2.07 
10.44 2.69 
11.59 2.07 
12.09 1.95 
11.95 2.41 
11.11 2.08 
10.52 2.51 
9.98 2.56 
11.19 2.47 
11.85 2.82 
11.53 1.78 
11.69 3.09 
11.84 2.14 
10.51 2.34 
11.01 2.15 
11.12 2.19 
10.67 1.77 
11.91 2.95 
12.07 2.09 
11.89 2.01 
11.64 2.07 
11.89 2.48 
11.89 2.17 
11.13 2.41 
10.79 2.19 
10.65 2.08 
10.95 1.98 
11.49 2.02 
11.85 1.89 
11.88 1.97 
11.72 2.30 
12.51 2.12 
10.46 2.39 
10.72 2.45 
11.94 2.77 
11.73 2.27 
10.65 2.44 
9.97 2.79 
10.40 2.42 
10.11 2.97 
10.04 2.65 
10.06 2.84 
11.55 2.19 
11.86 2.13 
11.92 1.93 
13.02 2.05 
9.78 1.98 
10.63 2.18 
10.43 2.18 
10.76 2.72 
10.26 2.13 
10.38 2.32 
10.27 2.86 
10.46 2.51 
10.69 2.90 
10.51 2.24 
10.36 2.85 
11.01 2.18 
10.77 2.34 
10.39 2.45 
10.40 2.24 
10.29 2.54 
10.11 2.62 
10.75 1.97 
10.79 2.34 
10.15 2.53 
10.41 2.25 
10.54 2.14 
12.15 2.18 
12.06 3.60 
10.92 2.16 
10.30 2.47 
10.35 2.63 
10.33 2.82 
10.07 2.39 
10.45 2.13 
10.47 1.95 
9.93 3.29 
11.89 2.41 
12.37 2.09 
10.42 2.57 
9.91 3.22 
10.04 2.26 
10.07 2.61 
10.33 2.39 
10.14 2.42 
12.11 2.79 
12.20 2.19 
10.25 2.41 
10.30 2.29 
10.00 2.31 
10.53 2.51 
9.85 2.45 
10.20 2.12 
10.05 3.15 
10.70 2.46 
9.82 2.23 
9.81 2.82 
12.03 2.22 
11.97 2.18 
10.17 2.34 
10.29 2.66 
11.52 2.61 
11.74 2.26 
10.14 2.45 
10.18 3.20 
10.70 2.26 
10.45 2.10 
10.06 2.12 
10.55 2.65 
10.71 2.25 
10.36 3.26 
10.39 2.61 
10.27 2.06 
10.65 2.09 
10.39 2.47 
10.45 2.39 
10.58 2.54 
10.30 2.77 
10.41 3.53 
10.87 2.08 
10.57 2.84 
10.70 2.20 
10.63 2.65 
10.69 2.44 
10.28 2.05 
10.69 2.39 
11.10 2.11 
10.36 1.92 
10.65 2.11 
10.41 2.03 
10.47 3.13 
12.16 1.98 
10.61 1.84 
10.83 2.73 
11.60 2.83 
10.32 2.43 
10.57 2.24 
12.21 2.63 
10.48 1.90 
10.80 1.93 
11.84 1.80 
12.26 2.33 
11.58 1.92 
11.66 2.24 
11.82 2.34 
11.80 2.30 
12.24 1.94 
11.76 2.10 
11.74 1.92 
10.25 2.03 
10.44 2.21 
11.96 1.81 
11.56 2.02 
12.18 2.49 
12.08 2.35 
10.33 2.13 
10.98 2.36 
12.46 2.02 
10.48 1.89 
10.58 2.26 
10.49 2.21 
11.24 2.05 
10.92 1.93 
11.29 2.30 
12.19 1.98 
10.69 2.52 
10.65 2.47 
12.60 2.27 
12.13 2.57 
11.66 1.93 
12.41 2.09 
11.99 2.76 
12.34 2.26 
12.36 1.96 
12.04 2.35 
12.14 2.02 
12.11 2.24 
10.29 2.27 
10.35 3.62 
11.71 2.84 
12.51 2.48 
11.72 2.43 
11.77 2.06 
11.76 2.26 
12.28 2.15 
11.31 3.68 
10.83 2.01 
10.60 2.13 
11.75 2.43 
11.65 2.46 
12.60 2.12 
12.42 2.44 
12.01 2.08 
12.03 2.09 
10.62 2.20 
11.15 2.05 
12.03 2.20 
11.89 2.53 
11.61 2.02 
11.98 2.06 
11.79 2.01 
11.49 2.62 
11.06 2.17 
10.37 2.39 
11.93 2.15 
11.62 2.54 
11.99 2.50 
12.12 2.11 
10.33 2.61 
10.77 2.38 
10.51 2.99 
10.65 2.35 
12.24 2.00 
12.14 2.14 
10.72 3.16 
10.81 2.91 
12.19 2.73 
12.16 2.11 
12.20 2.38 
12.63 2.27 
12.06 2.42 
12.74 1.93 
12.64 2.15 
10.42 1.99 
10.52 2.08 
12.59 2.06 
12.31 1.98 
12.54 2.24 
12.57 2.01 
12.64 2.34 
11.39 2.70 
10.98 2.29 
12.71 1.83 
12.47 2.37 
13.06 1.85 
12.51 1.92 
11.19 2.06 
11.03 1.88 
12.70 2.69 
12.41 2.64 
12.62 3.07 
12.11 1.96 
12.29 2.00 
12.12 2.08 
12.14 1.78 
10.36 1.91 
11.48 2.64 
11.18 2.98 
10.43 2.23 
12.53 2.75 
12.11 2.38 
10.60 2.07 
10.50 1.92 
10.24 1.86 
10.22 1.98 
12.84 2.24 
13.01 1.97 
10.65 2.22 
11.43 2.54 
11.70 2.48 
10.48 2.30 
12.74 2.52 
11.35 2.01 
10.43 1.75 
12.52 2.10 
10.00 3.49 
9.89 2.73 
11.45 3.13 
10.45 2.24 
10.34 1.99 
11.55 1.95 
10.92 2.81 
10.52 2.50 
12.41 1.92 
10.61 1.89 
10.93 3.29 
12.56 2.02 
12.58 1.87 
10.34 2.36 
10.67 2.31 
12.16 1.94 
12.09 2.25 
10.48 2.29 
10.41 1.86 
10.42 2.14 
10.29 2.90 
12.49 2.20 
10.83 2.68 
10.22 2.42 
10.45 2.73 
10.42 2.42 
10.53 2.76 
10.36 3.97 
10.27 2.65 
10.53 2.09 
10.66 2.55 
10.45 1.73 
10.69 2.61 
10.11 2.87 
10.24 3.00 
9.90 2.48 
12.08 2.23 
12.47 2.86 
10.52 2.50 
10.65 2.80 
10.31 3.23 
10.11 3.01 
10.75 1.95 
10.38 2.72 
10.53 3.20 
10.23 2.37 
10.23 2.64 
10.70 2.22 
10.28 1.98 
10.37 2.25 
10.33 2.98 
10.24 2.22 
10.26 3.13 
10.46 2.42 
12.48 2.05 
10.16 2.00 
10.73 2.22 
12.42 2.05 
13.03 2.17 
10.22 1.79 
10.29 2.26 
13.33 2.26 
12.59 2.02 
10.37 2.15 
10.66 2.31 
12.69 2.19 
12.50 2.23 
10.81 1.85 
10.77 2.82 
10.46 1.99 
10.78 2.08 
12.39 2.39 
12.55 2.47 
11.71 2.04 
10.45 2.50 
10.50 1.98 
11.46 2.98 
11.40 2.28 
11.38 2.10 
11.56 3.19 
11.50 2.24 
10.21 2.75 
10.42 1.99 
11.31 3.87 
11.19 1.94 
10.50 1.99 
10.38 2.61 
10.84 2.00 
10.05 2.40 
10.56 2.85 
10.48 2.47 
11.86 2.69 
11.54 3.66 
10.62 1.93 
10.65 2.30 
11.27 2.79 
11.91 2.21 
10.52 2.45 
10.70 2.30 
11.89 2.17 
12.10 2.11 
12.14 1.80 
11.65 2.00 
11.43 3.27 
11.39 2.35 
10.42 2.38 
10.34 2.32 
12.05 2.27 
11.69 2.06 
10.40 2.37 
10.73 1.99 
10.61 1.97 
10.68 2.01 
10.37 1.89 
9.95 3.14 
10.50 3.36 
10.62 2.30 
10.60 2.67 
10.68 2.10 
10.44 2.25 
10.88 2.18 
10.87 1.95 
10.73 2.02 
10.48 2.20 
10.74 2.33 
10.41 2.98 
10.58 2.24 
10.60 2.33 
10.73 1.88 
10.39 2.34 
10.75 2.00 
10.48 2.78 
10.72 2.10 
10.49 2.35 
10.11 2.73 
10.70 2.22 
10.70 2.49 
12.10 2.36 
12.04 2.11 
11.03 2.51 
10.73 2.06 
10.43 2.21 
10.67 1.90 
10.42 2.11 
10.57 2.17 
11.12 2.05 
11.18 2.64 
10.32 1.95 
10.32 2.05 
10.97 2.06 
11.18 2.39 
10.87 2.42 
11.19 2.09 
11.34 2.57 
10.50 2.04 
10.82 2.42 
10.88 2.33 
10.37 2.04 
10.92 2.05 
10.25 2.26 
10.53 2.02 
10.70 2.21 
10.24 2.30 
11.05 2.14 
11.27 2.00 
10.37 1.90 
9.89 2.28 
11.05 3.26 
10.95 2.09 
10.79 2.65 
11.65 1.81 
11.03 2.77 
10.87 2.26 
10.80 2.64 
10.93 2.00 
11.37 2.39 
10.54 2.01 
10.82 1.85 
10.93 2.42 
10.33 1.90 
10.93 3.09 
11.74 2.71 
10.59 2.04 
10.51 2.08 
10.51 1.87 
10.58 1.87 
10.26 1.98 
10.94 2.02 
10.52 1.91 
10.37 2.15 
10.62 2.20 
10.80 2.05 
10.57 2.81 
10.65 2.10 
11.89 3.14 
10.62 2.38 
10.41 2.19 
11.78 2.70 
10.53 2.06 
10.49 1.99 
12.23 2.10 
10.11 2.21 
10.61 2.29 
12.62 2.31 
12.35 2.34 
10.23 2.10 
10.27 2.77 
12.22 2.08 
12.07 2.34 
10.29 2.15 
10.69 2.19 
12.66 1.92 
12.98 2.41 
9.99 2.30 
10.51 2.65 
13.25 2.28 
11.17 2.10 
10.57 1.97 
12.39 2.05 
12.34 2.29 
11.79 2.03 
11.93 2.58 
11.82 2.62 
10.20 2.09 
10.01 2.08 
10.15 2.03 
10.36 1.87 
11.81 2.01 
11.41 2.29 
11.69 2.39 
11.47 2.49 
10.57 1.90 
10.06 1.78 
10.45 1.96 
10.39 2.05 
10.29 2.18 
10.20 1.76 
11.62 2.63 
11.37 2.32 
10.77 2.05 
10.74 2.08 
11.49 2.12 
10.70 3.35 
10.77 1.97 
11.48 2.10 
11.69 1.98 
10.92 1.87 
10.53 2.22 
10.56 2.05 
10.45 2.15 
11.64 3.09 
11.55 2.48 
11.57 1.95 
11.73 1.91 
11.81 2.09 
10.32 1.91 
10.57 2.01 
11.68 2.21 
10.46 2.11 
10.66 2.04 
11.94 1.77 
11.51 2.18 
10.45 1.94 
10.32 1.89 
11.51 2.12 
10.32 2.15 
10.23 2.02 
11.74 2.23 
10.38 2.40 
10.61 1.95 
11.93 2.11 
11.18 2.25 
10.60 1.82 
10.36 2.25 
11.57 1.93 
10.50 1.98 
10.68 2.09 
11.01 2.11 
10.87 2.59 
10.63 1.91 
11.31 2.32 
11.13 2.01 
10.89 2.45 
10.23 1.98 
10.65 1.84 
11.15 2.56 
10.37 2.31 
10.79 2.13 
10.36 2.09 
10.41 2.35 
10.33 1.98 
10.48 2.31 
11.02 2.24 
10.98 2.74 
11.80 2.28 
11.30 2.17 
11.19 2.07 
10.80 2.39 
11.06 1.81 
11.69 1.90 
10.84 2.24 
10.52 1.86 
10.45 2.21 
11.39 2.15 
11.30 2.32 
10.36 2.09 
11.15 1.90 
11.37 2.10 
10.71 2.05 
10.40 3.01 
10.32 2.41 
10.16 2.54 
10.96 1.84 
10.51 2.14 
10.49 2.13 
10.53 2.52 
11.55 2.23 
11.68 2.11 
10.44 2.83 
10.51 2.15 
10.22 2.27 
10.53 2.01 
11.55 1.86 
11.12 2.37 
10.53 2.42 
10.68 2.13 
10.09 2.11 
10.58 2.21 
11.98 2.19 
11.98 2.56 
10.79 1.98 
10.36 2.10 
10.37 1.98 
10.26 2.34 
10.27 2.32 
10.30 1.91 
12.30 2.33 
12.06 2.23 
10.05 2.31 
10.40 2.04 
10.65 2.76 
10.23 2.62 
12.09 2.41 
11.69 2.50 
10.40 2.24 
10.84 2.10 
10.86 2.48 
10.27 2.16 
10.79 2.00 
10.52 2.58 
10.10 2.22 
10.28 2.18 
10.60 2.48 
10.41 1.95 
10.15 2.07 
10.49 2.18 
11.76 2.28 
11.58 2.39 
10.11 2.35 
10.36 2.67 
11.51 2.03 
11.55 2.37 
11.76 2.87 
11.26 2.11 
11.53 1.99 
11.38 1.89 
11.70 2.51 
11.62 2.34 
11.66 2.30 
11.38 2.25 
11.57 2.13 
10.85 2.26 
10.59 2.13 
11.62 2.15 
10.70 2.14 
10.93 2.37 
12.04 3.04 
11.91 2.17 
11.41 2.15 
11.86 2.91 
11.64 2.06 
11.65 3.27 
11.62 2.53 
11.45 2.85 
10.47 2.59 
10.31 2.79 
11.85 2.24 
11.67 2.42 
11.75 3.03 
11.88 2.79 
10.03 2.20 
10.36 2.56 
11.77 2.21 
11.67 2.10 
9.88 2.25 
10.46 2.77 
11.71 2.07 
12.15 2.45 
11.21 2.28 
11.66 2.13 
10.57 3.09 
10.14 2.23 
11.31 1.90 
10.41 2.31 
10.59 2.03 
11.80 2.62 
10.86 2.23 
10.35 3.14 
11.44 2.10 
12.14 2.27 
10.45 2.14 
10.78 2.80 
11.86 3.01 
11.04 1.97 
11.32 2.61 
11.76 2.11 
11.97 2.46 
11.37 2.56 
10.21 2.36 
10.50 2.10 
12.14 2.18 
11.78 2.14 
11.68 1.98 
11.54 3.09 
10.27 2.06 
10.22 2.48 
12.15 2.05 
12.19 2.18 
10.09 2.11 
10.45 1.93 
11.87 2.41 
11.79 2.15 
10.38 3.21 
9.85 2.17 
11.83 2.78 
11.85 3.25 
10.10 2.11 
10.61 2.27 
11.99 2.30 
10.34 2.24 
10.84 2.82 
12.07 2.52 
11.66 3.40 
11.76 2.23 
11.78 2.23 
10.49 2.18 
10.54 1.99 
12.25 2.45 
12.90 2.24 
10.57 2.58 
10.73 1.71 
12.18 2.59 
10.41 2.07 
10.38 2.68 
12.28 2.11 
10.47 2.04 
10.63 2.15 
12.46 2.55 
10.49 2.09 
10.37 2.54 
10.32 2.56 
10.35 2.53 
10.46 2.36 
10.53 2.02 
10.73 3.31 
10.19 2.57 
10.34 2.82 
10.02 1.87 
10.06 2.46 
10.42 2.80 
12.50 2.15 
12.20 2.67 
10.76 2.05 
10.81 2.22 
11.88 2.01 
11.97 3.22 
10.41 2.16 
10.61 2.31 
11.88 2.08 
11.53 2.25 
12.10 2.05 
12.00 2.26 
12.00 2.50 
11.85 2.13 
12.44 2.40 
11.90 2.42 
11.86 2.05 
11.42 2.51 
11.45 2.01 
10.95 2.31 
10.70 1.90 
11.48 2.61 
11.26 2.31 
10.61 1.97 
10.34 1.97 
11.41 2.19 
10.89 3.22 
11.44 2.85 
10.70 1.71 
10.14 2.31 
10.39 2.11 
10.67 2.30 
11.68 3.01 
11.28 2.56 
10.22 1.80 
10.47 2.25 
12.06 2.43 
12.12 4.07 
10.29 1.97 
10.81 2.45 
11.39 2.45 
10.54 2.48 
10.52 2.25 
12.13 2.68 
11.90 1.72 
10.40 2.08 
10.52 1.94 
12.59 2.20 
12.71 2.21 
11.93 2.22 
12.30 2.00 
10.64 2.16 
10.35 1.92 
12.48 1.81 
12.20 2.06 
10.83 2.40 
10.08 2.07 
10.22 2.09 
10.53 2.33 
12.18 2.37 
12.27 1.97 
10.65 2.47 
10.40 2.02 
10.41 2.17 
10.66 2.26 
10.71 1.95 
10.54 2.25 
10.73 1.82 
10.49 2.03 
10.90 2.37 
10.39 2.31 
10.52 2.03 
10.27 2.14 
12.68 2.54 
12.16 2.28 
10.17 1.92 
10.25 2.93 
11.02 2.25 
10.93 2.55 
10.55 2.35 
10.73 2.40 
10.52 1.84 
10.47 2.10 
10.63 2.38 
10.61 2.27 
10.61 2.13 
10.41 2.69 
10.57 3.12 
10.76 2.06 
10.91 2.20 
10.52 1.92 
11.92 2.15 
12.05 2.11 
10.55 2.46 
10.10 2.16 
11.02 1.92 
10.77 2.03 
10.60 2.25 
10.50 2.01 
10.75 2.58 
10.91 1.87 
10.56 1.98 
10.56 2.65 
10.65 2.27 
10.81 2.07 
10.68 2.69 
10.45 2.78 
10.50 2.33 
10.48 2.23 
12.17 2.53 
12.91 2.04 
10.65 2.14 
10.63 2.15 
10.27 2.90 
10.42 1.98 
12.89 2.31 
13.08 1.96 
10.10 2.09 
10.23 2.15 
10.36 2.12 
10.27 2.09 
10.40 2.05 
10.24 2.32 
10.19 2.10 
10.76 3.03 
10.51 2.93 
10.42 2.83 
10.22 1.83 
10.53 2.23 
12.45 2.31 
12.24 1.98 
10.68 2.01 
10.67 2.00 
12.07 2.68 
10.36 2.45 
10.62 1.87 
10.30 2.81 
10.61 2.65 
12.21 2.15 
10.57 2.12 
10.97 2.36 
11.96 2.81 
10.10 2.41 
10.74 1.94 
10.35 1.78 
10.57 1.97 
10.23 2.42 
10.55 1.96 
10.74 1.81 
10.48 2.36 
10.36 1.94 
10.41 2.06 
10.22 1.97 
10.43 1.95 
10.08 2.33 
10.91 2.08 
10.46 2.32 
9.98 2.16 
10.37 2.03 
10.55 2.20 
10.20 2.07 
10.31 2.32 
10.23 2.07 
10.41 2.10 
10.42 1.85 
10.34 1.79 
10.40 1.99 
10.31 2.28 
10.86 2.01 
11.10 2.14 
10.72 2.57 
10.09 1.91 
11.04 2.11 
11.03 3.57 
10.79 2.74 
10.56 3.42 
10.75 2.89 
10.96 1.93 
10.71 2.76 
10.13 2.38 
10.67 1.98 
9.89 2.06 
10.58 2.09 
10.32 1.98 
10.42 2.21 
10.10 2.24 
10.74 2.57 
10.88 2.03 
10.26 2.53 
10.57 1.99 
10.33 1.93 
10.38 1.86 
10.57 2.33 
10.79 2.04 
10.52 2.03 
10.76 2.09 
10.92 2.06 
10.29 2.12 
9.94 2.23 
10.50 1.88 
10.38 2.05 
10.31 1.88 
10.36 2.04 
10.34 1.98 
10.08 2.01 
9.96 1.91 
10.08 2.40 
10.82 1.94 
10.61 2.05 
10.68 1.89 
10.05 1.94 
10.59 2.14 
10.78 2.12 
10.50 1.84 
10.22 1.78 
10.30 1.82 
10.50 3.07 
10.22 1.76 
10.46 1.86 
11.06 2.87 
10.78 2.59 
10.15 2.43 
10.48 2.40 
11.02 2.46 
10.98 2.40 
9.91 2.15 
10.23 2.05 
11.31 3.37 
11.07 2.93 
10.69 2.23 
10.41 2.11 
10.14 2.52 
10.15 2.60 
11.35 2.55 
10.24 2.54 
9.99 2.03 
10.61 2.08 
10.12 2.27 
11.05 3.29 
10.88 2.74 
10.98 2.18 
10.82 2.53 
11.09 3.56 
11.13 3.24 
10.32 2.41 
10.31 2.43 
11.00 1.91 
10.96 2.89 
10.39 1.86 
10.06 2.14 
11.54 2.98 
11.37 2.49 
9.92 2.14 
10.43 1.99 
10.15 2.30 
10.10 2.34 
11.49 2.36 
10.80 2.55 
10.25 1.92 
10.30 1.81 
11.40 2.97 
11.24 2.13 
11.26 2.12 
11.37 2.40 
10.54 2.03 
10.29 2.05 
11.11 2.52 
10.75 2.45 
10.83 3.43 
11.00 3.23 
11.20 2.40 
10.87 2.28 
11.13 2.12 
11.21 2.64 
10.64 2.70 
11.00 2.16 
11.07 2.10 
11.17 3.20 
11.75 2.41 
11.74 2.31 
11.19 1.95 
10.70 2.49 
11.15 3.01 
11.14 3.24 
12.19 1.88 
11.44 2.81 
10.43 3.16 
11.07 2.06 
10.85 1.99 
11.31 2.09 
11.08 2.04 
11.12 2.46 
12.26 2.08 
12.37 2.44 
10.54 2.27 
10.54 2.41 
11.15 1.97 
10.71 2.31 
10.89 3.27 
10.61 3.52 
10.70 2.40 
10.55 2.64 
11.18 2.13 
10.71 1.97 
10.92 2.21 
10.78 2.20 
10.67 2.25 
10.48 2.36 
10.52 2.27 
10.56 2.59 
10.26 2.10 
10.94 2.26 
10.85 2.57 
10.58 1.94 
10.56 2.16 
10.37 2.01 
12.30 2.14 
10.41 1.96 
10.66 1.98 
10.61 2.14 
10.37 2.38 
12.56 2.12 
12.01 2.35 
10.99 1.90 
10.50 2.46 
12.36 2.62 
10.65 1.87 
10.29 2.23 
10.62 2.19 
10.59 1.94 
10.35 2.31 
10.12 3.22 
11.12 1.89 
10.75 2.09 
12.01 1.84 
12.23 1.90 
10.29 1.99 
10.68 2.13 
11.02 2.22 
10.65 2.12 
10.84 2.08 
10.57 2.11 
10.76 2.46 
10.91 2.00 
10.17 2.16 
10.54 2.02 
10.53 1.93 
10.66 2.09 
12.32 2.06 
11.67 2.07 
12.30 2.16 
10.63 1.94 
10.17 1.93 
12.75 2.07 
12.38 1.90 
10.42 1.96 
10.24 2.01 
10.39 2.19 
10.52 2.05 
12.42 2.12 
12.36 2.27 
12.76 2.15 
10.49 2.36 
10.86 2.26 
12.80 2.36 
12.36 2.30 
12.70 2.05 
12.32 2.23 
11.15 1.88 
10.43 2.12 
12.77 2.76 
12.34 2.65 
12.51 2.36 
10.59 2.30 
10.40 2.21 
10.18 1.99 
10.66 2.19 
10.35 2.63 
10.62 2.00 
12.30 2.09 
12.25 2.45 
10.22 1.87 
10.78 2.08 
12.21 2.50 
12.29 2.35 
12.06 2.52 
12.17 2.72 
10.26 2.63 
10.61 1.92 
12.38 2.43 
12.07 2.57 
12.30 3.04 
10.69 2.13 
10.45 2.07 
12.71 1.89 
11.86 3.21 
12.40 2.32 
11.46 2.00 
10.36 2.05 
10.26 2.54 
10.89 2.27 
12.42 2.15 
11.84 2.18 
11.55 2.57 
12.16 2.45 
11.89 2.58 
11.60 2.51 
11.38 2.02 
10.37 2.25 
10.35 2.24 
10.20 1.93 
11.30 1.93 
10.74 2.01 
10.88 2.15 
11.97 2.08 
12.26 2.25 
10.03 2.14 
10.18 2.00 
12.12 2.07 
11.71 2.41 
10.43 2.13 
10.05 2.07 
11.99 2.73 
11.90 2.92 
10.21 2.03 
10.37 2.07 
11.97 2.52 
11.62 2.00 
10.39 2.19 
10.90 2.59 
11.76 2.27 
10.73 1.82 
10.80 2.65 
10.70 1.89 
10.29 2.13 
11.04 2.15 
10.59 2.07 
12.86 2.36 
12.55 2.05 
10.44 2.01 
10.50 2.21 
10.44 1.87 
10.28 2.22 
10.70 2.23 
10.59 2.38 
10.10 2.05 
10.63 2.18 
10.82 2.03 
10.68 1.96 
11.96 2.19 
12.33 2.46 
10.75 2.04 
10.34 2.15 
10.54 2.18 
10.39 1.98 
10.55 1.79 
10.53 1.87 
12.33 1.92 
12.21 2.36 
12.16 2.32 
11.11 2.59 
10.42 2.34 
10.53 2.03 
10.12 1.89 
10.17 2.49 
10.85 2.42 
12.51 2.52 
12.13 2.45 
10.64 2.21 
10.50 2.38 
11.72 2.13 
12.31 2.42 
11.76 2.00 
11.78 2.20 
11.83 2.03 
10.66 1.92 
10.85 2.23 
12.45 2.66 
12.20 1.91 
10.51 2.09 
10.54 2.44 
11.84 1.84 
11.84 1.92 
10.61 2.62 
10.46 1.87 
10.53 2.15 
10.36 2.01 
12.30 2.29 
10.35 2.66 
10.74 2.37 
12.19 2.05 
10.57 2.49 
10.76 2.75 
12.06 1.89 
10.69 2.10 
10.39 2.24 
11.00 2.15 
10.54 2.29 
12.32 2.19 
12.27 2.15 
10.12 2.08 
10.49 2.15 
11.71 1.98 
11.95 1.89 
10.37 2.41 
10.80 2.23 
12.48 1.92 
12.09 2.19 
11.05 1.94 
11.19 1.77 
12.02 2.21 
11.55 1.99 
10.62 2.82 
10.61 2.48 
10.58 2.60 
10.74 2.63 
10.67 1.79 
10.49 2.25 
10.91 2.00 
10.51 2.55 
10.66 2.38 
10.63 2.17 
12.41 2.63 
12.11 3.25 
10.56 2.14 
10.61 2.72 
10.66 2.57 
10.72 2.60 
10.78 2.44 
10.20 2.08 
10.36 2.08 
10.64 1.79 
10.87 2.18 
10.27 1.96 
10.53 2.78 
10.91 2.16 
12.60 2.24 
10.47 2.42 
10.53 2.60 
11.77 2.12 
11.11 2.15 
10.51 2.00 
12.35 2.60 
10.99 2.39 
10.47 2.16 
10.64 2.26 
10.90 2.17 
12.22 1.95 
12.06 1.95 
10.47 2.20 
10.31 2.11 
10.53 2.52 
10.64 2.85 
10.30 2.43 
10.32 2.20 
10.73 2.00 
10.66 2.06 
10.56 2.52 
10.75 2.83 
10.61 2.10 
10.47 2.49 
12.00 1.99 
12.06 2.05 
10.21 2.56 
10.54 1.89 
10.75 2.87 
10.75 2.34 
10.35 2.39 
10.58 2.32 
10.41 2.44 
10.60 3.00 
10.98 2.11 
11.48 2.05 
11.00 2.32 
10.55 2.79 
10.45 2.71 
10.65 2.22 
10.92 2.25 
10.75 2.50 
10.92 2.24 
10.71 2.42 
10.54 2.14 
10.78 2.27 
10.44 2.16 
10.18 1.99 
10.48 1.88 
10.54 2.01 
10.77 2.15 
10.17 2.43 
10.27 2.05 
10.83 2.14 
10.99 2.02 
10.60 2.37 
10.52 2.12 
10.61 2.08 
10.15 2.00 
10.66 2.38 
10.40 2.06 
10.29 2.27 
12.55 1.94 
10.14 2.15 
10.34 1.99 
12.92 2.27 
13.24 2.33 
10.38 2.13 
10.52 1.98 
13.28 2.13 
13.02 2.55 
10.45 2.39 
10.50 2.49 
10.83 2.05 
9.99 2.17 
10.53 1.84 
10.81 2.53 
10.45 1.90 
10.79 2.23 
10.50 2.05 
10.49 2.30 
10.64 1.93 
10.40 2.28 
10.66 1.91 
10.56 1.86 
13.12 2.01 
13.64 1.82 
10.62 2.00 
10.50 1.96 
10.31 2.48 
10.33 2.05 
10.24 2.85 
10.35 2.16 
10.25 2.69 
10.11 2.03 
10.53 2.16 
10.12 1.88 
10.30 2.00 
10.54 2.00 
10.35 2.20 
10.47 2.24 
10.54 1.90 
10.88 2.01 
10.74 2.66 
10.77 2.42 
10.86 1.85 
10.59 2.40 
10.38 2.16 
10.48 2.01 
10.74 2.44 
10.58 1.87 
10.20 2.54 
10.63 1.88 
10.75 2.15 
10.47 1.98 
10.05 2.13 
10.63 2.25 
9.85 2.75 
9.97 2.46 
10.52 2.22 
10.67 2.09 
10.25 2.23 
10.82 2.15 
10.88 2.69 
10.39 2.24 
10.06 1.89 
10.96 1.94 
10.17 2.17 
10.78 2.75 
10.35 2.05 
10.15 2.51 
12.82 2.11 
12.77 2.56 
10.79 2.62 
10.85 1.88 
10.65 1.94 
10.27 2.00 
9.98 1.84 
10.19 2.51 
10.02 2.28 
9.80 2.60 
12.97 2.05 
10.43 2.54 
10.38 2.17 
12.01 2.50 
12.49 1.98 
12.94 2.56 
10.72 1.96 
10.04 2.04 
9.99 2.27 
9.98 2.59 
12.63 1.93 
12.30 2.30 
10.84 2.22 
11.00 2.43 
10.22 2.42 
9.99 2.86 
12.20 1.88 
12.49 2.22 
12.35 2.84 
12.36 2.78 
10.72 2.41 
10.56 2.93 
9.60 2.51 
10.50 2.30 
10.44 2.11 
10.14 2.52 
10.66 2.15 
10.75 3.27 
10.64 2.14 
10.48 2.37 
10.85 3.75 
10.45 1.91 
10.68 1.99 
10.77 2.44 
11.07 2.76 
10.79 2.69 
10.34 3.48 
10.78 2.44 
11.92 1.86 
10.37 1.98 
10.28 2.23 
12.55 2.29 
10.60 2.24 
10.72 1.99 
10.67 2.16 
10.45 2.87 
12.22 2.41 
12.34 2.18 
10.77 2.38 
10.82 2.62 
10.72 2.84 
11.22 2.01 
12.21 2.45 
12.13 1.98 
10.62 1.98 
10.77 2.81 
11.18 2.25 
10.36 2.20 
10.42 2.00 
10.99 2.31 
10.99 2.61 
10.69 2.04 
10.19 1.93 
10.53 2.10 
11.04 2.68 
11.03 2.02 
10.85 2.05 
10.58 2.43 
10.50 2.44 
10.66 1.98 
11.09 2.53 
10.91 2.35 
10.68 2.22 
10.66 1.98 
10.76 2.54 
10.04 1.95 
10.41 2.07 
10.84 2.78 
10.98 2.29 
10.49 2.05 
10.44 1.97 
10.64 2.32 
11.66 2.37 
10.45 2.16 
10.30 2.11 
11.71 2.09 
11.50 2.56 
11.86 2.47 
11.74 2.62 
10.39 2.32 
10.12 2.00 
11.59 2.02 
10.84 2.41 
10.84 2.31 
10.51 2.37 
10.32 2.41 
10.18 2.64 
10.96 2.13 
10.86 2.54 
10.75 3.07 
10.77 2.39 
11.10 2.38 
10.27 2.05 
10.69 1.99 
10.55 2.08 
10.59 1.94 
10.56 2.05 
10.23 2.82 
10.37 2.30 
10.75 1.75 
10.86 1.98 
10.41 2.29 
10.47 2.52 
10.65 2.27 
10.54 2.20 
10.41 2.82 
10.56 2.06 
10.58 2.12 
11.96 3.21 
12.62 2.04 
10.99 2.21 
10.39 2.08 
10.39 1.99 
10.85 2.33 
12.17 2.05 
11.93 2.16 
10.08 2.04 
10.30 2.57 
11.67 2.18 
11.91 2.23 
10.16 2.08 
10.21 2.40 
10.35 2.20 
10.55 1.94 
10.25 2.24 
9.89 2.17 
11.60 2.37 
11.66 2.09 
12.43 2.96 
11.94 2.09 
12.15 1.94 
11.88 2.23 
12.35 1.94 
11.83 2.06 
11.48 2.68 
11.60 2.11 
11.83 1.91 
11.99 2.18 
12.13 2.09 
12.22 1.86 
12.48 2.25 
12.44 2.08 
12.47 2.27 
12.65 2.52 
12.83 1.83 
12.68 2.08 
12.45 2.65 
12.43 1.78 
12.59 2.26 
13.10 2.31 
12.69 2.71 
12.18 2.33 
12.23 2.33 
12.05 2.77 
12.44 2.19 
12.05 2.04 
12.07 3.11 
10.24 2.79 
10.49 2.60 
12.13 2.52 
12.47 2.51 
11.89 2.57 
12.40 2.23 
12.03 2.03 
12.52 2.81 
10.34 2.15 
10.40 1.99 
10.22 2.57 
10.43 2.22 
10.56 1.80 
10.35 2.48 
10.25 2.05 
10.45 2.04 
10.57 2.20 
10.77 1.95 
10.52 1.93 
10.26 2.37 
11.39 1.81 
11.09 2.22 
10.40 2.29 
10.42 3.28 
10.32 2.20 
10.11 2.05 
11.22 2.08 
11.34 2.22 
10.17 2.06 
10.37 1.92 
10.76 1.85 
10.49 2.13 
10.41 2.10 
9.96 1.93 
10.36 2.28 
10.59 2.07 
10.88 2.17 
11.04 2.16 
11.30 2.17 
11.26 1.81 
10.22 2.23 
10.21 2.22 
10.41 2.23 
10.47 2.35 
11.82 2.12 
11.19 1.99 
10.05 2.04 
10.29 2.32 
10.47 1.86 
10.10 2.05 
10.51 3.16 
10.41 2.00 
11.27 2.30 
11.13 2.15 
12.28 2.44 
12.21 2.52 
10.25 1.98 
10.45 2.13 
10.22 1.91 
10.23 2.29 
10.20 2.09 
10.43 2.18 
11.53 1.98 
11.85 2.17 
10.53 2.14 
10.13 1.93 
11.69 2.11 
11.45 2.09 
10.43 2.57 
10.13 2.08 
10.03 2.38 
10.39 2.18 
11.48 2.30 
11.47 2.05 
11.65 2.23 
11.51 2.14 
11.65 2.08 
11.40 2.04 
11.90 1.99 
11.26 1.92 
11.48 2.21 
10.83 2.18 
11.36 2.28 
10.86 2.14 
10.88 2.36 
11.79 2.65 
10.31 2.38 
9.98 2.14 
10.46 1.97 
10.49 2.16 
11.77 2.51 
11.95 2.02 
11.43 2.14 
11.75 2.35 
10.44 2.40 
10.46 2.09 
10.79 2.36 
10.11 2.06 
10.03 1.85 
10.11 2.14 
11.69 2.31 
11.62 2.16 
12.01 2.42 
10.41 2.35 
10.16 2.20 
12.06 2.26 
11.59 2.26 
11.70 2.21 
10.33 2.40 
9.94 2.42 
11.77 1.97 
11.80 2.85 
11.64 3.22 
11.22 3.05 
10.44 1.98 
10.45 2.07 
10.39 1.96 
10.16 2.47 
11.91 2.51 
11.58 2.24 
10.10 2.15 
10.30 1.94 
10.44 2.41 
10.31 1.97 
12.03 2.52 
10.34 2.49 
10.76 2.30 
11.46 2.00 
10.21 2.20 
10.31 2.19 
10.67 2.41 
10.29 2.14 
10.56 1.95 
10.33 2.28 
10.18 2.34 
10.44 2.86 
10.55 2.22 
9.94 2.18 
10.28 2.40 
10.07 2.87 
9.98 2.31 
10.85 2.16 
10.17 2.28 
10.19 2.22 
10.38 2.28 
10.41 2.61 
11.33 2.26 
11.70 2.15 
10.53 2.36 
10.61 2.21 
10.18 1.88 
10.47 2.34 
10.08 2.13 
10.67 2.06 
10.50 2.94 
10.49 2.75 
10.10 1.86 
10.10 2.61 
10.03 2.27 
10.37 2.16 
9.98 2.50 
10.57 2.46 
10.34 1.95 
10.33 2.14 
10.09 2.11 
10.30 1.75 
11.31 2.34 
10.37 2.67 
10.18 2.09 
11.01 2.15 
11.53 2.14 
10.15 2.16 
10.40 2.80 
11.25 2.47 
10.32 2.31 
10.87 2.18 
11.43 2.21 
10.43 2.31 
10.15 2.31 
10.06 2.08 
10.19 1.95 
