# r1:Y77-D34, r2:S79-D214 
10.27 2.38 
10.64 1.83 
10.56 1.89 
10.41 2.14 
11.75 2.53 
10.21 2.23 
10.48 2.20 
10.04 2.25 
9.93 2.41 
10.55 2.51 
9.89 1.96 
10.11 2.70 
9.76 2.08 
10.26 2.18 
9.98 2.02 
10.49 2.46 
10.23 2.16 
10.18 2.22 
10.41 2.15 
10.14 2.32 
9.90 2.35 
10.50 2.27 
10.12 2.56 
10.03 2.62 
10.36 2.62 
10.65 2.13 
10.14 2.25 
10.67 2.35 
11.50 2.10 
10.96 2.40 
10.26 2.03 
10.66 2.23 
10.52 2.25 
10.79 2.34 
11.34 2.92 
11.16 2.74 
11.22 1.93 
11.02 2.32 
11.33 2.53 
11.44 2.19 
10.09 2.02 
10.59 2.02 
10.30 2.85 
10.37 2.68 
10.35 2.75 
10.39 1.83 
10.09 1.95 
9.78 2.20 
10.14 2.19 
10.05 2.29 
10.83 2.08 
10.20 2.50 
10.01 2.65 
10.35 2.22 
10.25 2.09 
10.47 2.14 
10.05 2.06 
9.59 2.10 
10.16 1.89 
10.23 2.14 
10.30 1.95 
10.12 2.47 
10.79 2.42 
10.88 2.03 
10.85 2.26 
10.93 2.27 
10.79 2.09 
11.02 2.80 
10.77 1.95 
10.85 1.92 
10.23 2.14 
9.99 2.16 
10.11 2.56 
10.21 1.99 
10.44 2.24 
10.26 2.46 
10.21 2.17 
10.29 1.87 
10.98 2.22 
10.90 2.18 
10.32 2.70 
10.48 2.14 
10.49 2.21 
10.95 2.45 
10.12 2.37 
10.25 2.47 
10.66 1.96 
10.35 2.05 
10.09 2.25 
10.03 2.67 
10.47 2.04 
10.61 1.85 
10.41 2.16 
10.37 2.13 
10.23 2.48 
10.11 2.05 
9.95 2.14 
10.46 2.18 
9.90 2.81 
10.43 2.43 
10.17 2.19 
10.29 2.14 
10.79 2.70 
11.03 2.85 
10.61 3.12 
10.39 2.34 
10.64 2.88 
10.51 2.06 
10.68 2.44 
10.59 2.30 
10.45 2.33 
10.31 2.10 
10.30 2.27 
10.60 1.95 
10.13 1.99 
10.17 1.89 
10.16 2.21 
10.57 2.67 
10.60 2.26 
10.50 2.40 
10.28 2.25 
10.87 2.34 
10.28 2.31 
10.11 2.02 
10.23 2.52 
10.60 2.25 
10.13 3.22 
9.90 2.72 
10.38 2.29 
10.52 2.20 
10.39 2.03 
10.36 1.99 
10.24 2.29 
11.34 2.54 
11.46 3.16 
10.54 2.19 
10.08 2.68 
10.38 1.92 
10.24 2.11 
10.14 2.00 
9.99 2.34 
10.99 2.38 
11.25 2.76 
11.33 1.95 
11.03 2.36 
10.90 2.22 
11.27 2.16 
10.69 2.02 
10.72 2.38 
10.37 1.79 
10.62 2.20 
10.33 2.18 
10.66 1.94 
10.33 2.06 
10.29 2.52 
10.14 1.95 
10.49 2.01 
10.33 1.97 
10.32 2.49 
10.81 1.98 
10.41 2.44 
10.61 2.67 
10.66 2.52 
10.48 2.07 
10.74 1.99 
9.93 1.99 
10.65 1.97 
10.34 2.32 
10.42 2.13 
10.76 2.07 
10.19 2.03 
10.09 3.29 
10.10 2.65 
10.27 3.14 
10.35 1.85 
11.17 2.62 
10.58 2.41 
10.48 2.13 
10.66 2.14 
10.57 2.82 
10.64 2.48 
10.69 2.61 
11.02 2.77 
10.85 2.27 
11.10 2.69 
10.37 2.34 
11.07 2.51 
10.70 2.36 
10.68 3.22 
9.91 2.14 
10.14 2.07 
10.16 1.68 
10.06 2.21 
9.99 3.32 
11.31 2.35 
10.76 2.39 
10.38 2.15 
11.07 2.56 
11.01 2.18 
10.65 2.34 
10.77 2.56 
10.56 2.40 
10.38 2.46 
11.04 2.94 
11.09 2.21 
10.15 2.44 
10.27 2.38 
10.23 2.60 
10.36 2.62 
10.30 2.04 
9.79 2.11 
10.21 2.27 
10.59 2.29 
10.23 2.12 
10.18 2.44 
10.45 2.25 
10.07 2.55 
9.99 1.89 
10.08 1.90 
9.79 2.33 
11.42 2.16 
11.26 1.98 
10.72 2.54 
10.10 2.43 
9.80 2.61 
10.09 2.15 
9.86 1.98 
9.67 2.58 
10.42 2.82 
9.97 2.60 
10.21 2.02 
10.02 2.09 
10.25 2.19 
10.41 2.37 
10.09 2.44 
10.20 2.19 
10.33 2.18 
10.69 2.60 
10.47 1.99 
10.21 2.31 
10.37 2.39 
10.81 2.03 
10.82 2.23 
10.68 1.95 
10.42 2.04 
10.30 2.16 
10.24 2.27 
11.34 2.72 
11.41 2.25 
9.93 2.22 
11.80 2.35 
11.60 2.08 
10.12 2.53 
10.34 1.98 
10.49 2.17 
10.37 2.45 
10.50 1.98 
11.03 2.91 
11.30 2.06 
11.41 2.21 
11.21 2.51 
11.55 2.26 
11.78 2.38 
11.75 2.34 
11.97 1.99 
11.41 2.63 
11.61 2.33 
10.45 1.89 
11.71 1.96 
11.29 2.67 
10.18 2.16 
11.09 2.24 
12.51 2.38 
11.88 2.17 
11.81 2.08 
11.48 2.43 
11.90 2.14 
11.36 2.26 
10.26 2.18 
11.23 1.96 
11.90 2.11 
11.35 2.20 
11.27 2.32 
11.37 2.34 
11.29 2.89 
11.48 2.16 
11.44 2.20 
11.40 2.05 
11.72 2.23 
10.23 2.15 
10.23 2.44 
10.66 2.22 
9.86 2.25 
10.14 1.94 
11.29 2.15 
11.61 2.10 
11.11 2.19 
11.40 2.23 
11.27 1.92 
12.21 2.10 
11.83 2.16 
11.77 2.17 
11.77 2.59 
11.74 2.11 
10.18 2.10 
10.31 1.88 
11.88 2.51 
12.05 1.99 
10.09 2.19 
10.05 2.25 
11.54 2.68 
11.27 1.88 
10.08 2.10 
10.51 2.61 
11.48 1.89 
11.63 2.40 
11.61 2.17 
11.51 1.91 
11.53 1.99 
12.02 2.04 
11.74 2.25 
11.21 1.87 
11.43 2.11 
11.50 2.17 
11.40 1.84 
11.07 1.87 
10.96 2.47 
10.89 2.38 
10.34 1.93 
10.21 2.58 
10.84 1.82 
11.00 2.04 
11.00 2.04 
11.21 2.08 
10.10 2.61 
10.59 2.77 
11.18 1.93 
11.28 1.89 
10.51 2.23 
10.22 2.25 
11.21 2.04 
11.73 2.14 
10.83 1.94 
10.17 2.33 
10.95 2.23 
10.28 2.68 
10.40 2.05 
10.65 2.16 
11.53 2.08 
10.71 1.81 
10.03 1.95 
10.42 2.10 
10.40 2.18 
10.17 2.11 
10.66 1.99 
10.08 1.93 
10.54 1.94 
11.71 2.45 
10.97 2.52 
10.14 1.69 
10.69 2.08 
10.40 1.96 
10.30 2.44 
10.86 2.16 
10.85 2.35 
10.58 2.12 
10.08 2.01 
10.20 2.19 
10.50 2.03 
10.38 2.21 
10.29 2.22 
10.63 2.11 
11.39 2.18 
11.00 1.93 
10.41 2.23 
10.39 2.90 
10.70 2.42 
10.97 2.08 
11.27 2.13 
10.45 1.81 
10.26 1.82 
10.37 2.30 
10.12 2.32 
10.22 2.59 
10.15 1.99 
10.30 2.41 
10.24 2.22 
10.32 2.68 
10.25 2.62 
10.44 2.34 
10.81 1.93 
11.32 1.99 
10.13 1.94 
10.17 2.56 
10.30 1.94 
10.56 1.92 
10.91 2.31 
11.28 1.96 
10.10 2.17 
10.34 2.16 
9.95 2.06 
10.28 1.96 
11.05 2.13 
10.91 2.29 
10.21 2.61 
10.22 2.00 
10.40 2.18 
10.10 2.12 
10.59 2.07 
10.41 2.50 
10.41 2.23 
10.46 1.70 
10.92 2.13 
10.94 2.06 
10.17 2.06 
10.04 2.20 
9.95 1.87 
10.16 2.11 
10.31 2.15 
10.84 1.86 
10.36 2.06 
10.33 2.14 
11.53 1.74 
11.85 2.10 
11.34 1.89 
10.82 3.10 
10.44 2.23 
10.15 1.87 
10.98 2.73 
11.49 2.34 
11.31 2.13 
11.18 2.44 
11.33 2.21 
11.46 2.17 
10.58 1.97 
10.26 1.86 
10.02 2.06 
10.37 2.56 
10.45 2.21 
10.32 2.48 
10.67 2.03 
10.57 2.13 
10.97 2.17 
10.37 2.21 
10.83 1.98 
10.78 2.53 
10.67 1.93 
10.39 2.10 
10.62 2.29 
10.32 2.26 
10.06 2.10 
10.47 1.97 
10.82 2.53 
10.33 2.88 
10.10 2.28 
10.78 2.28 
10.51 2.60 
10.68 2.32 
10.20 2.00 
10.08 2.60 
10.67 2.27 
9.98 2.49 
10.32 2.22 
10.18 1.99 
10.54 2.42 
10.54 2.59 
11.57 2.02 
11.52 2.31 
10.17 1.95 
10.11 2.05 
10.50 2.35 
10.10 2.40 
10.68 2.80 
10.27 2.79 
10.73 2.64 
10.70 1.99 
10.62 2.04 
10.85 1.85 
10.47 2.19 
10.40 2.47 
10.89 2.04 
10.39 2.10 
10.17 1.97 
11.46 2.28 
11.13 1.92 
10.48 2.47 
10.20 2.39 
10.41 2.39 
10.20 2.58 
10.39 2.09 
10.83 1.86 
10.26 1.91 
11.99 1.97 
11.73 1.92 
10.90 2.38 
10.39 2.39 
10.20 2.02 
11.60 2.62 
11.38 2.74 
11.51 2.38 
11.49 2.44 
11.15 2.29 
11.19 2.24 
11.24 2.44 
10.44 2.08 
10.04 2.22 
11.39 1.75 
11.27 2.17 
10.49 2.71 
10.16 2.09 
11.42 2.12 
11.66 1.83 
11.72 1.99 
11.13 2.24 
10.62 1.94 
10.58 2.35 
10.25 2.57 
10.46 2.35 
11.06 1.98 
10.50 2.26 
11.57 2.07 
11.23 1.71 
10.36 1.97 
10.70 1.91 
10.76 1.98 
10.75 2.21 
10.80 2.26 
10.80 2.03 
10.05 2.12 
10.21 2.36 
11.05 2.14 
12.09 2.81 
12.18 2.74 
10.73 1.70 
9.87 2.49 
10.26 1.91 
9.94 2.19 
10.52 1.89 
10.74 2.04 
10.76 2.80 
10.38 2.38 
10.43 2.45 
10.37 2.07 
10.18 2.19 
10.64 1.97 
10.55 1.88 
11.17 2.31 
10.80 2.18 
10.75 2.35 
11.31 1.85 
11.19 1.73 
10.64 2.27 
11.08 2.27 
10.78 2.07 
10.91 1.96 
10.92 2.18 
10.62 2.03 
10.94 2.08 
10.57 2.05 
10.07 2.01 
10.61 2.38 
10.23 1.82 
11.05 1.78 
10.25 2.25 
10.21 2.09 
10.49 2.96 
10.04 2.14 
10.15 2.03 
10.06 1.93 
10.32 1.84 
10.56 1.99 
10.31 2.10 
10.15 1.87 
10.48 1.90 
10.44 2.16 
10.25 2.11 
10.35 2.19 
10.34 2.06 
10.34 1.91 
10.35 1.87 
10.60 1.84 
10.29 2.07 
10.37 2.23 
10.38 2.54 
10.07 2.07 
10.50 2.37 
10.36 1.93 
9.95 1.89 
10.52 1.82 
10.34 2.30 
10.48 2.00 
10.27 2.05 
10.06 2.34 
10.85 1.95 
10.33 2.32 
10.34 2.40 
10.13 2.07 
10.34 2.06 
9.83 2.13 
10.31 2.22 
10.50 1.98 
10.59 2.55 
10.46 2.40 
10.53 2.32 
10.73 2.25 
10.23 1.98 
10.50 2.06 
10.38 2.19 
10.42 3.12 
10.88 2.13 
10.42 1.83 
10.91 2.06 
11.25 2.05 
11.37 1.84 
10.41 2.69 
10.31 2.32 
11.45 1.89 
11.74 1.85 
10.81 2.02 
10.68 2.04 
10.40 2.40 
10.18 2.47 
11.49 1.91 
11.49 2.18 
10.03 2.67 
10.14 1.95 
11.37 2.37 
11.78 2.21 
11.58 1.93 
11.74 1.85 
11.33 1.79 
11.89 1.93 
10.52 2.47 
10.30 2.12 
11.51 2.32 
11.57 2.10 
11.96 2.06 
11.89 2.14 
9.68 2.30 
10.29 2.45 
11.67 1.86 
11.90 2.06 
11.52 2.45 
11.57 1.86 
11.70 1.79 
11.74 1.88 
11.88 2.50 
11.94 2.23 
12.00 1.88 
11.82 2.06 
11.57 1.98 
11.61 2.12 
11.43 2.08 
11.47 1.77 
11.30 2.18 
11.65 1.88 
11.70 2.06 
11.51 2.03 
11.76 2.06 
11.85 2.07 
10.28 2.37 
10.34 3.00 
11.31 2.24 
11.80 2.11 
10.33 2.18 
10.20 2.75 
11.37 2.17 
11.58 2.04 
10.27 2.28 
10.62 2.43 
10.51 2.13 
10.42 2.70 
10.41 2.50 
10.77 1.94 
10.57 2.05 
10.56 2.14 
10.64 2.67 
10.41 1.98 
10.21 2.51 
10.50 2.58 
10.44 1.91 
10.23 2.77 
10.32 2.17 
10.07 2.21 
10.47 2.52 
10.34 2.55 
11.68 2.53 
11.55 2.01 
10.36 2.40 
9.95 2.39 
11.44 1.93 
11.66 2.08 
10.13 2.61 
10.64 3.16 
12.17 2.03 
11.73 2.47 
10.36 2.84 
10.32 2.13 
11.69 2.05 
11.88 2.06 
10.53 2.01 
10.64 2.25 
10.41 1.93 
11.07 2.01 
10.51 2.16 
10.24 2.13 
12.00 1.79 
11.57 2.67 
11.26 2.15 
11.57 2.12 
11.40 1.74 
11.02 2.62 
10.94 2.62 
11.56 2.01 
10.51 2.14 
10.72 2.35 
10.24 2.21 
10.25 2.43 
10.16 2.65 
10.12 2.29 
11.60 2.99 
11.66 2.05 
10.52 2.10 
10.39 2.04 
10.54 2.14 
10.23 2.62 
10.48 2.45 
10.37 2.51 
10.22 2.21 
10.12 2.19 
10.38 2.61 
10.21 2.44 
10.17 2.20 
10.29 2.62 
11.74 2.19 
11.70 2.01 
10.10 2.50 
10.12 2.00 
9.90 2.32 
10.25 2.47 
9.98 2.20 
10.20 2.13 
10.28 2.66 
10.82 2.04 
10.23 2.69 
10.66 2.07 
10.70 2.07 
10.52 2.11 
10.58 2.60 
10.25 2.15 
10.57 1.98 
10.42 2.66 
10.49 2.10 
10.51 2.24 
11.65 1.95 
12.19 2.09 
10.64 2.35 
10.40 2.33 
10.61 2.43 
10.46 2.52 
10.50 2.06 
10.39 2.41 
10.40 2.31 
10.60 2.15 
10.30 2.40 
10.20 2.21 
10.42 2.12 
10.32 2.16 
10.19 2.49 
10.58 2.08 
10.53 2.67 
10.17 2.61 
10.31 2.54 
10.85 1.89 
11.25 3.07 
11.24 1.90 
10.55 2.44 
10.39 2.36 
10.67 1.95 
11.02 2.00 
10.48 2.32 
10.57 2.37 
10.35 1.94 
10.41 1.95 
10.28 2.16 
10.33 2.40 
10.40 2.25 
10.34 2.05 
10.53 2.02 
10.39 2.22 
10.39 2.17 
11.03 2.24 
10.75 2.18 
10.39 2.04 
10.42 1.97 
10.66 2.01 
10.04 2.47 
10.06 2.19 
10.24 2.39 
10.37 1.84 
10.30 2.48 
11.15 2.06 
11.37 1.80 
10.52 2.02 
10.71 2.10 
10.58 2.40 
10.62 2.09 
10.83 2.40 
11.16 2.87 
10.08 1.96 
10.19 2.35 
10.59 1.91 
10.99 2.43 
10.16 1.96 
10.30 2.07 
10.42 2.13 
11.45 2.80 
11.55 2.26 
10.39 2.02 
10.47 1.88 
10.38 2.01 
10.40 1.86 
10.21 2.09 
10.68 2.02 
11.47 2.15 
11.37 1.96 
11.83 2.01 
11.38 1.98 
11.56 2.09 
11.39 1.95 
10.83 1.98 
10.68 1.98 
10.46 2.06 
10.30 2.19 
11.19 1.79 
10.95 2.21 
10.44 1.92 
10.05 2.09 
11.39 1.94 
11.10 2.39 
11.24 2.22 
11.60 2.47 
11.70 2.04 
11.33 2.28 
9.95 1.77 
10.80 2.04 
11.28 1.89 
11.47 2.24 
11.25 1.97 
11.57 1.96 
10.44 1.76 
10.67 2.43 
10.70 2.49 
10.21 2.08 
10.76 2.04 
11.61 2.02 
10.13 2.01 
10.06 1.94 
11.01 2.25 
11.30 1.92 
10.35 2.08 
10.36 2.26 
10.15 1.89 
10.31 2.51 
11.16 2.01 
11.33 2.16 
10.66 1.85 
10.40 2.35 
10.69 2.19 
10.98 2.18 
10.40 2.55 
10.22 2.00 
10.98 2.10 
10.83 2.11 
9.98 2.08 
10.35 2.44 
10.04 2.00 
10.34 2.52 
10.05 2.13 
10.22 2.09 
10.39 1.94 
9.80 2.39 
10.52 2.56 
10.12 2.11 
10.42 1.85 
10.21 2.78 
10.56 2.45 
10.25 2.07 
10.78 2.22 
10.20 2.15 
10.97 2.27 
11.08 2.05 
10.29 2.16 
10.20 2.74 
10.14 2.38 
10.63 2.00 
10.43 2.21 
10.27 2.08 
10.50 2.34 
10.23 2.02 
10.27 1.92 
10.63 1.98 
10.16 3.39 
10.11 2.30 
10.49 1.96 
10.76 1.85 
10.40 1.92 
10.50 2.26 
10.17 2.30 
10.33 2.06 
10.38 2.45 
9.95 2.35 
10.37 3.06 
10.18 2.20 
10.33 2.02 
10.45 2.16 
10.76 2.24 
11.10 2.12 
10.15 2.03 
10.22 2.57 
10.68 2.31 
10.72 1.89 
10.70 2.18 
9.99 2.29 
10.26 2.22 
10.45 2.04 
10.10 3.13 
9.93 2.44 
10.51 1.86 
10.21 2.18 
10.18 2.02 
10.67 2.29 
10.46 1.95 
10.81 2.13 
10.67 2.27 
10.36 1.99 
10.31 2.10 
10.13 1.73 
10.19 2.62 
10.71 2.14 
10.88 1.97 
10.42 1.79 
11.44 2.11 
11.54 2.03 
10.31 1.92 
10.38 1.75 
9.84 2.02 
10.32 2.02 
11.59 2.30 
12.14 1.82 
10.80 2.14 
10.36 2.23 
10.87 2.05 
10.89 2.02 
11.07 1.85 
11.18 1.94 
11.30 2.26 
12.00 1.99 
10.42 2.36 
10.00 2.17 
10.40 2.15 
10.53 2.09 
10.25 1.92 
10.80 2.30 
10.84 2.08 
11.09 2.32 
10.29 2.38 
10.63 2.06 
10.61 1.90 
11.29 2.34 
11.51 2.69 
10.47 1.89 
10.18 2.02 
10.33 1.89 
10.14 2.31 
10.06 2.09 
10.38 1.93 
10.24 2.00 
10.31 1.98 
10.74 1.92 
10.42 2.45 
11.44 2.62 
11.72 2.87 
10.49 2.08 
10.71 2.41 
10.47 2.29 
10.65 2.10 
11.60 2.15 
11.64 2.13 
10.48 1.99 
10.01 1.86 
11.55 2.29 
11.25 2.69 
10.93 1.96 
11.19 2.73 
11.32 1.90 
11.41 2.20 
11.53 2.58 
12.13 2.25 
11.40 2.38 
11.48 2.34 
11.41 2.15 
11.61 2.47 
11.59 2.08 
11.34 1.96 
11.68 2.24 
11.26 2.13 
10.53 1.99 
10.57 2.66 
11.68 2.72 
11.42 2.03 
10.80 2.20 
10.45 2.04 
11.27 3.27 
11.32 2.62 
10.25 2.07 
10.35 2.06 
10.65 2.44 
10.41 2.06 
11.44 3.48 
11.35 2.74 
10.65 2.29 
10.03 2.39 
10.21 2.33 
10.56 2.27 
10.73 2.13 
10.74 2.08 
10.66 2.68 
10.65 2.41 
10.38 2.51 
10.27 2.18 
10.23 2.01 
10.44 2.39 
10.65 2.54 
10.79 2.51 
10.83 3.07 
10.49 2.25 
10.44 2.26 
10.64 2.06 
10.63 1.88 
10.37 2.11 
10.35 2.74 
10.36 2.07 
10.40 1.94 
10.31 2.02 
10.36 2.56 
10.48 1.95 
10.57 1.83 
10.55 2.29 
10.53 1.96 
10.37 2.08 
10.73 2.27 
11.75 2.13 
11.61 2.10 
10.63 1.82 
10.38 2.02 
11.41 2.25 
11.71 2.45 
10.49 2.36 
10.51 2.03 
10.15 2.30 
10.55 2.32 
10.66 2.06 
10.53 2.32 
10.58 2.07 
10.67 2.34 
10.90 2.07 
10.37 2.03 
10.70 2.13 
10.56 2.43 
10.29 2.56 
10.31 2.38 
10.59 1.85 
10.26 2.44 
10.46 2.66 
10.55 2.14 
10.22 2.09 
10.30 1.97 
10.53 2.78 
10.56 2.03 
10.57 2.51 
10.61 1.88 
10.64 1.91 
10.58 2.57 
10.29 2.23 
10.40 2.73 
10.32 2.37 
10.38 2.11 
10.42 2.64 
10.12 2.27 
10.51 1.89 
10.49 2.19 
10.45 2.21 
10.13 2.19 
10.27 2.67 
9.90 2.15 
10.51 1.92 
10.15 2.37 
10.22 2.27 
10.64 1.91 
10.53 2.04 
10.29 2.00 
10.22 1.92 
10.12 3.03 
11.41 2.07 
11.51 2.01 
10.76 2.29 
10.50 2.03 
10.21 1.95 
10.56 2.04 
10.45 2.04 
10.59 2.28 
10.12 2.51 
10.32 2.01 
10.48 1.90 
10.65 2.11 
10.24 2.15 
10.42 2.56 
10.52 1.83 
10.15 2.82 
10.35 1.99 
10.72 2.09 
10.48 2.11 
10.23 2.56 
10.72 2.45 
10.59 2.62 
10.26 2.88 
11.37 3.12 
11.22 2.70 
10.29 2.61 
10.33 3.13 
11.50 3.16 
11.13 2.79 
10.50 2.13 
10.53 1.99 
10.23 2.56 
10.27 2.01 
11.12 2.07 
10.31 2.16 
10.54 2.64 
11.00 2.14 
10.10 2.46 
10.24 2.19 
10.83 2.43 
11.02 2.70 
11.04 2.52 
10.96 2.50 
10.34 2.43 
10.38 2.30 
10.25 2.54 
10.39 2.89 
9.96 2.11 
10.07 2.53 
11.31 2.57 
11.03 2.30 
10.49 2.98 
11.12 2.23 
10.83 2.73 
10.13 2.06 
9.90 2.76 
11.16 1.97 
11.40 2.01 
10.24 2.73 
10.36 2.11 
10.24 2.25 
10.03 2.56 
10.65 2.02 
10.60 2.08 
10.43 2.10 
11.13 2.66 
10.80 2.23 
10.85 2.10 
10.51 2.33 
10.15 2.27 
10.18 1.92 
10.24 2.40 
10.64 2.45 
10.48 2.63 
10.69 2.68 
10.36 2.95 
10.43 2.35 
10.75 3.32 
10.31 2.16 
10.50 2.02 
10.32 2.64 
10.47 2.32 
10.20 3.21 
10.62 2.05 
10.51 2.23 
10.40 2.15 
10.40 3.01 
10.02 2.74 
10.45 2.26 
10.40 2.61 
10.32 2.34 
10.22 2.15 
10.62 2.49 
11.15 2.21 
11.72 1.84 
10.58 2.12 
10.36 2.51 
11.00 2.35 
10.79 2.07 
10.43 1.87 
10.60 2.01 
10.29 2.64 
10.12 2.79 
9.84 2.00 
10.31 1.96 
10.42 1.87 
10.63 2.13 
10.71 2.72 
10.31 2.47 
10.06 2.33 
10.62 1.82 
10.09 2.87 
10.23 1.99 
10.04 2.39 
10.27 1.88 
10.20 2.34 
10.15 2.62 
10.06 1.91 
10.53 2.17 
10.60 2.12 
11.11 1.91 
10.56 2.21 
11.17 2.05 
11.40 2.26 
10.28 2.11 
11.35 1.95 
11.13 2.46 
11.48 2.07 
11.75 2.20 
10.43 1.75 
10.05 2.19 
10.27 2.14 
11.43 2.14 
11.05 2.13 
10.68 1.85 
10.78 2.05 
10.29 2.62 
10.52 2.29 
11.46 2.53 
11.14 2.25 
9.94 2.16 
10.34 2.91 
10.12 2.78 
12.04 2.71 
11.59 2.28 
10.28 2.33 
10.29 2.41 
9.98 2.20 
10.30 3.00 
10.54 2.36 
10.14 2.06 
10.47 2.77 
10.55 2.72 
10.53 2.17 
10.08 2.47 
10.79 1.88 
11.21 1.82 
12.09 1.91 
10.12 2.17 
10.20 2.86 
10.28 2.35 
10.15 2.26 
10.17 2.63 
10.63 2.34 
10.36 2.21 
10.06 2.44 
9.87 2.06 
9.85 2.04 
11.56 1.93 
11.56 2.18 
10.22 1.91 
10.20 2.01 
10.02 2.07 
10.06 2.35 
11.08 3.81 
10.78 3.67 
9.67 2.30 
10.24 2.16 
11.08 1.97 
11.30 1.99 
10.89 1.92 
10.62 2.34 
10.55 1.93 
10.43 1.86 
10.37 2.36 
10.41 2.16 
11.31 1.82 
10.85 2.26 
10.43 2.77 
10.63 1.95 
10.36 2.14 
10.39 2.22 
10.23 2.10 
10.23 2.54 
10.28 2.00 
10.29 2.55 
10.40 2.21 
10.19 2.22 
10.16 2.28 
11.28 2.64 
12.05 2.31 
10.35 2.29 
10.43 2.91 
11.85 2.89 
11.87 2.55 
12.10 2.49 
11.89 2.89 
10.61 2.12 
10.73 2.38 
10.53 1.89 
11.09 1.85 
10.89 2.11 
10.21 2.09 
10.21 2.26 
10.28 2.29 
10.58 2.27 
11.47 2.14 
11.13 2.18 
10.48 2.20 
10.16 2.29 
10.24 1.83 
10.43 1.87 
11.01 1.88 
11.49 2.02 
10.28 2.22 
10.33 2.16 
10.14 2.18 
10.01 2.22 
11.26 2.01 
10.97 1.75 
10.28 1.95 
10.04 2.25 
9.94 2.30 
10.01 1.94 
10.15 2.66 
10.32 1.98 
10.10 1.94 
10.15 2.19 
9.83 1.94 
10.08 2.60 
9.92 1.95 
10.15 1.98 
11.20 1.87 
11.08 2.11 
10.32 2.23 
10.15 2.34 
10.29 1.94 
10.07 2.21 
9.96 2.32 
10.34 2.12 
10.19 2.92 
10.25 2.19 
10.56 2.34 
10.30 2.20 
10.28 2.11 
10.02 2.11 
10.32 1.98 
10.21 2.04 
10.21 1.80 
10.09 2.28 
10.41 2.39 
9.70 2.01 
10.55 2.06 
9.86 2.63 
9.97 2.27 
10.11 2.14 
9.81 1.89 
10.22 2.05 
10.43 1.97 
11.17 2.19 
9.76 1.76 
10.22 2.15 
11.78 2.01 
11.46 3.03 
10.16 1.94 
10.12 2.67 
10.41 2.53 
10.20 1.75 
10.45 2.85 
10.17 2.14 
10.56 2.11 
10.85 2.39 
10.18 3.09 
10.32 1.83 
10.59 2.01 
10.26 2.65 
10.38 2.68 
10.14 1.90 
10.62 2.17 
10.15 2.70 
10.10 2.18 
10.57 2.69 
10.23 2.16 
10.78 2.30 
11.03 2.33 
10.87 2.30 
10.93 2.68 
10.41 2.37 
9.96 2.18 
10.20 1.97 
10.02 2.12 
10.27 2.38 
10.05 2.12 
10.29 2.32 
10.17 2.23 
11.33 2.61 
11.37 3.14 
10.11 2.39 
10.09 2.24 
11.65 2.34 
11.74 2.53 
10.39 2.14 
10.24 1.97 
10.32 2.36 
10.28 2.31 
10.06 2.19 
10.10 2.35 
10.21 2.06 
10.21 2.52 
10.09 2.72 
10.45 2.27 
10.70 2.11 
11.50 1.92 
11.12 1.86 
10.32 2.32 
10.47 2.16 
10.53 2.23 
10.64 2.63 
11.05 2.07 
10.74 2.57 
11.05 2.37 
11.67 2.25 
10.17 2.00 
10.33 1.89 
10.07 2.01 
10.15 1.92 
11.31 2.30 
11.68 2.19 
11.97 2.24 
11.77 2.05 
9.84 1.93 
10.07 2.04 
9.88 2.49 
10.44 2.19 
11.46 2.02 
11.46 1.81 
10.34 2.31 
10.87 1.87 
10.13 2.28 
10.27 2.07 
10.52 2.11 
10.74 1.91 
10.53 1.89 
10.45 2.13 
10.54 2.00 
10.38 2.02 
11.61 2.45 
11.66 2.22 
10.15 2.42 
9.90 2.35 
9.89 2.24 
10.11 2.39 
11.34 2.11 
10.98 2.03 
10.17 1.93 
10.01 2.27 
10.28 2.23 
10.32 1.98 
10.43 2.27 
11.73 2.29 
11.02 2.55 
11.45 2.07 
11.48 2.23 
10.37 2.07 
10.22 1.89 
10.45 2.19 
10.64 1.94 
10.27 1.86 
10.56 2.07 
10.57 2.20 
11.14 2.41 
11.17 2.10 
10.76 2.76 
11.16 2.21 
10.38 2.39 
10.40 2.71 
10.53 2.30 
11.08 2.15 
11.23 2.07 
11.20 2.35 
11.02 2.03 
11.24 2.47 
11.35 2.50 
11.09 2.71 
10.88 2.86 
11.02 1.91 
11.21 2.26 
11.15 2.02 
10.32 1.94 
10.56 2.22 
11.19 2.39 
11.18 2.41 
10.92 2.15 
10.52 3.40 
10.92 2.63 
11.17 1.87 
10.49 2.20 
10.22 2.46 
11.27 2.49 
11.75 2.43 
10.28 1.90 
10.69 1.90 
10.48 2.09 
11.00 2.32 
10.34 2.17 
10.19 2.36 
10.62 2.02 
10.85 2.09 
10.19 2.69 
10.40 2.50 
10.49 2.32 
10.44 2.14 
10.30 1.88 
10.67 2.49 
10.54 2.86 
10.17 2.38 
10.36 1.80 
10.63 1.93 
10.38 2.05 
10.42 2.29 
10.41 2.24 
10.52 2.35 
10.86 1.93 
10.63 1.92 
10.81 2.08 
10.47 2.06 
10.20 2.19 
10.56 2.02 
10.25 2.62 
10.45 2.14 
10.68 2.20 
10.48 2.54 
10.40 2.03 
10.44 2.09 
10.44 2.38 
10.63 2.14 
10.90 1.81 
10.54 2.21 
10.49 2.07 
10.37 2.20 
10.50 2.28 
10.08 2.32 
10.60 2.08 
10.66 2.20 
10.32 2.46 
9.98 2.29 
10.19 2.96 
10.43 2.59 
10.49 2.41 
10.70 2.01 
10.26 1.87 
10.52 2.03 
10.32 2.16 
10.55 1.82 
10.60 2.10 
10.75 2.56 
10.37 2.21 
10.72 2.30 
11.94 2.31 
11.95 2.25 
10.44 2.86 
10.50 1.95 
11.96 2.23 
11.83 3.09 
10.62 2.70 
10.31 2.07 
10.01 2.54 
10.60 1.74 
10.01 2.99 
10.36 2.49 
10.50 2.05 
10.34 1.97 
10.70 2.22 
10.63 2.22 
10.73 2.02 
10.79 2.17 
10.17 2.16 
9.92 2.92 
10.26 1.95 
10.78 2.43 
10.61 2.89 
10.79 3.50 
11.07 2.24 
10.61 2.03 
10.93 2.58 
11.33 2.65 
10.96 3.34 
10.83 2.45 
10.99 2.06 
11.19 2.50 
10.70 3.26 
11.23 2.15 
10.69 2.12 
10.07 2.22 
10.29 2.23 
11.26 2.19 
10.57 2.19 
10.71 2.08 
11.13 2.10 
10.52 1.80 
10.39 1.99 
10.74 1.96 
10.64 2.49 
10.63 2.88 
10.20 2.03 
10.65 2.32 
10.17 2.14 
10.25 2.08 
11.19 1.92 
10.52 2.74 
10.75 1.88 
10.60 2.07 
10.65 1.94 
10.59 1.83 
10.84 1.99 
10.98 2.60 
11.30 2.04 
10.39 2.15 
10.75 3.50 
10.86 2.35 
10.31 1.78 
10.55 2.07 
9.81 2.25 
10.10 2.78 
10.26 1.99 
10.11 2.76 
9.96 2.64 
10.47 1.93 
10.67 2.27 
10.32 1.94 
10.56 2.36 
10.14 2.88 
10.19 2.35 
9.95 1.82 
10.05 2.28 
10.24 2.64 
10.35 2.23 
11.30 2.03 
10.96 2.97 
9.95 2.25 
10.09 2.33 
10.19 2.37 
9.95 2.48 
10.73 2.15 
10.32 2.47 
10.43 2.16 
10.69 2.19 
10.82 2.60 
10.82 3.19 
10.91 2.67 
11.28 2.82 
10.17 2.69 
10.30 2.50 
10.48 2.45 
10.29 2.43 
10.61 2.18 
10.17 2.40 
10.11 2.62 
10.29 2.37 
10.62 2.20 
10.04 2.55 
10.65 2.53 
10.18 2.59 
10.33 2.24 
10.08 2.24 
10.52 2.22 
10.23 2.50 
10.16 2.15 
10.26 2.07 
10.31 1.87 
10.20 1.98 
10.39 2.95 
10.88 2.19 
10.66 2.14 
10.16 2.31 
10.68 3.40 
10.37 2.12 
10.36 2.59 
10.69 2.42 
10.71 2.01 
10.33 2.57 
10.02 2.22 
10.65 2.32 
10.25 1.93 
10.81 2.04 
10.40 2.01 
10.54 2.31 
10.34 3.03 
11.62 2.28 
11.05 2.13 
10.43 1.85 
10.15 2.01 
10.42 2.22 
10.41 2.11 
10.34 2.04 
10.52 3.02 
10.60 1.77 
10.41 2.01 
10.12 2.16 
10.29 1.86 
10.40 1.93 
10.72 2.47 
10.10 2.09 
10.16 1.88 
10.65 2.12 
10.83 1.92 
10.41 2.05 
10.05 2.71 
10.51 2.04 
10.12 2.30 
10.75 2.02 
10.42 2.28 
10.29 2.08 
10.15 2.42 
10.44 2.58 
10.49 2.07 
10.48 1.90 
10.75 1.96 
10.55 2.36 
10.70 2.34 
10.72 2.18 
10.62 2.18 
10.52 2.20 
10.64 2.17 
10.27 2.92 
10.61 2.78 
10.58 2.70 
10.39 2.57 
10.56 1.91 
10.09 2.39 
10.78 1.93 
10.34 2.44 
10.83 2.15 
10.44 2.82 
10.31 2.59 
10.13 3.07 
10.22 2.98 
10.37 2.48 
10.37 2.41 
10.11 2.74 
10.20 2.17 
10.04 2.27 
10.35 2.52 
10.72 2.97 
11.06 2.15 
10.01 2.07 
10.31 2.13 
10.57 2.50 
10.68 2.15 
10.56 2.82 
10.32 2.57 
10.19 2.21 
10.48 2.09 
10.53 2.27 
10.13 2.48 
10.44 1.93 
11.06 2.02 
10.65 2.73 
9.87 2.85 
10.01 2.21 
10.46 2.20 
10.15 2.11 
10.24 2.02 
9.84 2.50 
10.09 2.84 
10.18 2.51 
10.18 1.84 
10.19 2.65 
10.67 2.39 
10.47 2.04 
10.43 2.71 
10.20 1.83 
10.44 2.54 
9.99 2.56 
10.23 1.92 
10.75 2.08 
10.65 2.21 
10.51 2.59 
10.27 1.95 
9.85 2.09 
10.47 1.84 
10.52 2.04 
10.26 1.93 
10.17 2.44 
10.12 2.36 
10.41 1.88 
12.02 2.10 
12.15 2.23 
12.31 2.58 
11.84 2.07 
11.76 2.44 
11.54 2.63 
12.10 2.42 
11.81 2.79 
10.60 2.02 
10.41 2.12 
10.84 2.33 
10.14 2.29 
11.04 2.26 
10.33 3.22 
10.54 2.20 
10.16 2.16 
10.39 2.08 
10.57 2.18 
10.58 2.21 
10.52 1.90 
10.03 2.06 
10.25 2.27 
10.18 2.35 
10.72 1.96 
10.81 2.18 
10.18 2.16 
11.39 2.22 
10.73 2.33 
10.56 2.12 
10.37 2.59 
10.46 2.21 
10.37 2.14 
10.85 2.47 
11.34 2.54 
10.58 2.09 
10.31 2.00 
11.79 2.86 
12.18 2.43 
10.92 2.43 
11.19 2.63 
11.04 2.81 
11.28 2.21 
11.19 2.25 
11.10 2.28 
10.73 2.33 
11.06 2.03 
10.94 2.52 
10.82 2.48 
10.88 2.41 
10.93 2.29 
11.23 2.05 
11.16 2.11 
11.21 2.14 
11.04 2.49 
10.93 2.84 
11.08 1.92 
11.12 2.22 
11.52 3.26 
11.27 2.60 
10.90 2.45 
9.96 2.81 
10.31 2.25 
11.02 2.98 
11.41 2.41 
11.66 1.85 
10.76 2.54 
11.09 2.11 
11.61 1.96 
11.72 2.03 
11.80 2.44 
11.79 2.34 
11.04 2.82 
10.18 3.25 
10.15 2.41 
11.33 2.25 
11.28 2.01 
11.39 2.22 
11.44 2.29 
11.36 2.12 
11.56 2.00 
10.29 1.74 
10.60 2.76 
11.17 2.41 
11.36 2.63 
11.06 2.22 
11.80 2.32 
12.12 2.52 
12.48 2.27 
11.46 3.04 
11.72 2.59 
11.60 3.29 
11.28 2.33 
10.57 2.17 
10.11 2.07 
11.71 2.29 
12.29 3.10 
11.94 2.47 
12.06 2.21 
11.53 2.36 
11.62 2.28 
11.38 2.46 
11.25 2.38 
12.59 2.58 
12.15 2.55 
12.19 2.04 
12.07 2.38 
10.59 2.95 
10.36 2.20 
12.00 2.07 
11.97 2.39 
10.42 1.87 
10.74 2.21 
11.71 2.25 
11.93 2.06 
10.27 2.03 
10.60 2.13 
10.51 1.92 
10.32 2.66 
11.90 2.30 
12.07 2.15 
10.82 2.21 
11.20 2.77 
11.16 2.76 
11.12 2.74 
11.80 3.02 
12.54 2.56 
10.93 3.72 
10.42 2.02 
11.46 2.26 
10.84 2.51 
10.88 2.19 
11.87 2.48 
10.59 2.31 
10.65 2.64 
11.82 2.17 
12.21 1.92 
11.82 2.45 
11.92 2.83 
10.08 2.43 
11.20 3.04 
10.98 2.73 
10.19 2.10 
10.37 1.98 
10.27 2.87 
11.79 2.03 
11.76 2.86 
10.53 2.00 
10.27 2.07 
10.29 1.89 
10.62 1.96 
10.35 1.88 
10.68 1.92 
9.86 2.54 
10.53 2.44 
10.56 2.45 
10.42 2.93 
10.85 2.00 
10.41 2.34 
9.87 2.17 
11.47 2.01 
11.13 3.18 
9.82 2.47 
10.11 2.58 
9.68 2.03 
9.82 2.67 
10.20 2.27 
10.94 2.04 
10.18 2.87 
10.42 2.52 
10.24 2.34 
11.21 2.65 
11.21 2.27 
10.37 2.94 
10.20 1.97 
9.87 2.08 
10.21 2.08 
10.50 2.04 
9.69 2.34 
9.87 2.48 
10.34 2.42 
10.18 2.64 
10.02 1.99 
10.35 2.35 
10.41 2.76 
10.04 1.99 
10.15 1.89 
10.28 2.37 
10.30 2.09 
11.67 1.91 
11.48 2.55 
10.14 2.20 
10.30 2.07 
10.70 2.06 
10.52 1.90 
10.40 2.44 
10.38 2.15 
10.28 2.11 
10.44 2.01 
10.08 2.48 
10.12 2.25 
