# dyad-tip, V78-L292, W41-Y77 
10.75 15.13 2.61 178.88 
11.00 15.59 2.44 175.66 
10.53 12.89 1.88 164.96 
9.84 12.89 2.31 173.14 
10.27 15.12 3.22 184.12 
10.64 14.40 2.94 167.87 
10.41 13.50 2.63 183.69 
10.78 12.82 1.98 186.06 
10.06 13.28 1.97 192.83 
9.88 13.66 2.42 199.57 
11.29 13.02 2.04 186.83 
10.77 12.47 1.78 188.08 
9.71 13.96 3.55 183.42 
9.14 13.47 3.07 173.69 
9.60 12.86 3.03 194.33 
9.73 12.74 2.46 183.31 
9.21 13.65 2.85 179.78 
9.65 13.23 3.15 193.05 
9.11 12.25 2.71 183.40 
9.42 12.95 2.59 182.94 
9.55 12.56 2.50 176.09 
10.18 13.16 2.19 175.27 
9.25 13.16 3.01 173.16 
9.01 13.41 3.95 168.46 
10.06 13.87 2.33 158.69 
9.33 12.84 1.96 163.52 
9.71 13.12 2.70 159.32 
10.10 12.72 2.06 169.43 
10.61 13.20 2.57 182.58 
10.24 12.38 3.56 183.59 
9.53 12.70 4.16 193.47 
10.62 12.36 2.06 176.87 
10.07 11.91 2.04 184.95 
10.39 12.40 4.03 176.68 
9.92 13.14 4.00 159.84 
9.36 13.96 3.48 189.63 
10.17 14.14 3.22 189.79 
9.45 13.72 2.36 187.35 
8.70 14.44 3.08 204.08 
10.80 12.14 2.19 166.03 
11.48 12.12 2.25 176.14 
11.22 11.80 3.60 180.10 
10.61 12.49 2.76 167.56 
10.81 12.63 4.04 177.62 
10.84 12.22 2.37 175.57 
10.47 12.74 2.69 183.88 
10.80 12.71 1.93 182.65 
9.08 14.06 3.73 190.98 
9.20 14.61 4.23 195.99 
11.14 12.67 2.35 185.42 
11.23 12.78 2.17 180.24 
11.31 12.87 2.23 187.26 
11.01 13.02 2.38 182.26 
11.64 12.24 1.91 179.45 
11.90 12.65 2.20 179.33 
10.45 13.13 2.64 169.24 
10.49 13.02 2.44 181.38 
12.04 13.94 2.29 173.89 
11.47 14.11 2.59 182.10 
11.91 13.52 2.10 180.72 
12.20 13.78 2.35 185.52 
11.90 14.54 4.61 183.97 
12.02 14.07 2.92 188.02 
9.58 13.64 3.01 173.82 
9.45 14.07 2.60 185.15 
9.52 13.93 3.53 173.34 
9.91 14.12 3.03 181.00 
8.81 13.97 2.59 173.91 
8.64 13.90 3.13 179.05 
9.30 13.11 4.33 193.02 
10.10 13.49 2.64 168.24 
10.28 13.13 2.40 174.58 
8.97 12.78 2.52 200.65 
8.81 13.25 3.31 202.77 
10.11 14.16 2.86 183.60 
9.54 14.24 2.86 179.93 
8.94 13.07 2.24 185.78 
9.30 12.70 2.39 199.82 
10.28 14.12 3.47 182.11 
11.27 12.89 4.45 176.65 
10.81 13.26 2.37 171.13 
9.63 14.34 2.89 193.80 
10.23 13.79 3.93 175.87 
10.64 13.66 3.07 166.98 
9.87 14.09 2.31 174.96 
9.65 14.13 2.78 178.42 
11.30 12.38 2.88 183.84 
10.13 14.13 4.66 170.42 
9.94 14.79 2.80 181.81 
10.04 14.19 2.87 185.99 
11.76 14.04 4.05 156.05 
10.81 13.43 3.62 151.55 
9.47 13.83 2.12 185.38 
9.64 14.08 2.96 184.56 
10.16 13.59 4.62 137.53 
11.19 13.98 3.52 178.16 
9.33 13.84 2.14 185.71 
9.02 13.80 2.13 182.26 
10.37 13.88 3.17 164.30 
11.02 14.27 3.40 170.51 
9.07 15.41 2.52 190.31 
9.46 15.44 2.56 188.24 
9.28 15.27 2.16 175.69 
9.34 15.17 2.81 176.81 
10.55 15.13 4.37 167.05 
11.14 13.44 2.52 177.95 
12.15 13.74 2.15 187.19 
11.52 14.20 2.52 192.81 
9.94 15.54 2.29 193.90 
10.56 14.40 4.55 157.61 
11.50 14.52 2.76 181.59 
10.38 15.26 2.76 189.33 
10.33 15.09 2.52 187.57 
10.74 14.92 2.27 197.18 
10.67 14.77 2.16 194.82 
11.04 14.24 2.50 189.19 
10.16 13.52 3.96 180.09 
10.29 13.78 3.64 180.34 
10.81 13.62 2.42 208.47 
10.83 14.24 3.89 202.02 
10.54 14.27 4.71 167.70 
10.41 13.15 3.74 176.42 
11.30 13.85 4.25 160.44 
8.54 14.63 3.28 177.94 
9.36 14.83 2.68 187.96 
9.57 14.64 2.80 192.61 
9.79 14.35 3.04 186.90 
9.67 14.18 3.35 189.22 
9.98 13.77 3.26 166.67 
9.79 13.02 3.50 177.93 
10.36 13.71 3.39 195.09 
10.14 13.47 3.00 197.27 
9.27 13.26 2.40 185.43 
10.05 13.80 4.66 170.88 
10.17 14.01 4.48 164.71 
10.09 13.24 2.37 182.60 
9.95 14.34 3.18 187.99 
9.40 14.64 3.24 191.67 
10.12 13.27 2.24 167.65 
10.29 12.93 2.33 158.21 
9.91 14.14 2.63 182.35 
9.73 14.09 4.26 181.34 
9.79 14.26 4.94 180.30 
9.80 13.78 3.46 178.58 
9.31 13.80 3.73 178.02 
9.18 14.23 4.69 176.78 
9.55 13.52 3.81 181.95 
10.38 13.65 3.97 176.05 
10.26 13.60 2.53 177.80 
9.86 13.65 2.23 190.27 
9.92 13.66 3.11 177.43 
10.38 13.14 2.71 184.63 
9.65 12.85 2.99 165.21 
10.93 13.62 2.18 185.16 
11.00 13.75 2.29 180.92 
9.78 14.05 2.20 180.00 
10.60 12.84 2.18 180.86 
10.51 13.36 2.54 191.62 
10.48 13.06 2.77 188.32 
10.88 13.86 2.14 171.65 
10.96 13.05 2.45 179.15 
10.46 13.25 2.10 180.93 
10.48 16.20 2.84 169.48 
10.46 16.64 2.90 180.72 
11.09 16.47 2.28 169.67 
10.58 15.21 3.07 171.62 
10.75 12.15 1.80 185.60 
10.48 12.77 2.23 194.28 
10.19 13.07 2.03 187.62 
9.76 13.26 2.58 193.94 
8.98 15.05 2.86 172.46 
9.91 14.64 3.20 181.63 
10.06 12.81 2.19 176.89 
10.26 12.09 1.92 171.64 
10.49 15.74 3.37 188.70 
10.26 15.32 3.81 186.50 
10.47 12.07 2.08 184.91 
10.62 13.28 2.73 176.12 
10.55 13.39 3.54 188.28 
10.00 13.04 2.13 193.34 
10.27 12.16 2.32 195.57 
9.02 15.20 3.36 188.66 
9.87 14.58 2.96 185.23 
9.83 14.28 2.54 190.65 
10.24 13.93 2.80 193.56 
10.51 13.69 3.06 194.92 
10.29 14.38 3.30 194.17 
10.03 13.77 2.55 200.74 
9.66 13.56 2.39 184.23 
10.44 14.06 3.46 211.02 
10.42 13.35 2.34 199.83 
10.24 13.34 2.83 198.34 
10.81 13.51 2.42 198.99 
10.13 13.74 3.53 211.95 
10.18 13.12 3.02 196.50 
9.54 14.59 2.60 211.80 
10.77 13.88 2.68 200.50 
9.94 12.97 2.47 200.54 
9.58 13.17 2.69 195.14 
10.10 13.66 2.88 195.21 
10.13 13.66 3.07 195.75 
9.35 14.56 2.81 199.67 
10.18 13.68 2.29 184.40 
10.20 12.89 2.87 194.62 
10.41 13.25 2.94 199.39 
10.64 14.02 1.90 180.84 
10.44 14.00 2.72 179.96 
9.52 13.40 2.52 188.39 
10.24 13.47 2.45 185.58 
8.81 13.66 2.74 192.62 
9.26 14.02 3.57 196.98 
10.33 13.57 3.93 197.14 
10.97 13.22 2.97 195.16 
10.86 13.81 2.98 185.80 
11.50 13.18 2.81 190.90 
10.94 13.01 2.61 187.78 
10.78 13.11 2.75 196.15 
9.05 13.91 4.23 190.48 
9.10 14.04 2.66 188.45 
9.86 13.10 3.19 190.21 
10.29 13.42 2.63 194.61 
9.22 13.86 3.46 190.75 
10.82 12.36 2.10 174.12 
11.07 12.70 2.30 180.53 
10.16 13.35 4.43 192.30 
10.68 13.69 4.65 190.92 
10.28 13.74 4.24 194.15 
9.99 13.80 4.38 193.96 
9.90 13.78 4.57 186.56 
10.23 13.68 3.88 182.77 
10.70 13.76 3.54 211.26 
9.29 12.74 2.69 169.23 
9.30 12.45 2.17 171.06 
10.03 14.46 3.39 195.83 
9.80 12.38 2.59 182.98 
9.66 12.09 2.18 190.95 
9.86 14.56 3.55 194.05 
9.99 14.66 3.62 200.85 
9.32 12.91 2.60 189.20 
10.31 13.28 2.47 191.98 
9.28 15.30 3.37 204.19 
10.04 14.55 3.82 197.35 
9.73 15.31 3.43 205.54 
9.61 13.37 2.54 160.23 
9.51 13.23 2.19 158.37 
9.87 15.70 3.07 204.01 
9.69 15.49 3.38 205.33 
10.78 12.85 2.33 168.60 
10.66 13.21 3.26 171.72 
9.63 15.37 3.74 187.92 
9.59 15.04 2.93 200.88 
9.74 13.15 2.66 178.61 
9.72 13.51 3.53 179.11 
9.45 15.22 3.25 179.06 
10.19 15.20 2.71 179.74 
10.11 16.57 3.38 173.56 
9.78 14.98 2.98 172.16 
9.51 12.90 5.44 162.04 
9.29 13.85 2.13 170.53 
9.35 14.08 2.64 175.64 
9.45 13.80 4.68 161.32 
9.91 15.22 3.32 177.18 
11.94 15.43 1.89 188.96 
9.08 13.70 3.56 192.71 
10.00 15.45 3.16 188.26 
12.30 14.88 2.17 188.61 
8.93 13.63 2.45 176.72 
9.57 13.99 2.55 178.48 
12.89 14.81 2.43 180.15 
12.51 14.91 2.52 190.47 
12.22 14.33 2.08 186.88 
11.66 14.43 2.63 195.51 
9.98 13.76 2.57 165.93 
9.58 14.09 2.83 171.27 
12.36 14.20 2.06 180.95 
11.26 14.16 2.42 187.85 
9.61 13.57 2.87 172.49 
9.43 12.97 2.75 163.46 
11.16 14.38 2.27 180.94 
11.03 14.87 2.73 185.84 
9.65 12.72 2.45 174.17 
10.05 12.64 2.89 162.87 
11.10 14.67 2.22 196.47 
11.16 14.56 2.95 189.52 
9.33 12.57 2.96 179.52 
10.19 12.68 2.46 176.61 
11.88 13.93 2.60 193.57 
11.35 13.99 2.02 194.85 
10.04 13.16 3.22 193.70 
9.46 13.44 2.45 174.61 
9.30 13.58 2.54 179.08 
10.20 13.43 2.52 167.61 
11.47 13.75 2.33 193.12 
10.57 13.02 2.84 202.51 
9.47 12.83 3.09 175.23 
10.43 12.36 2.41 179.46 
9.56 11.97 2.02 182.45 
9.81 12.16 3.27 178.98 
10.41 12.46 2.92 188.70 
9.37 14.50 3.29 198.01 
9.68 14.89 4.12 179.07 
10.47 12.32 2.05 187.85 
9.94 11.98 2.59 190.33 
9.75 14.60 3.40 183.69 
10.95 13.22 2.02 173.81 
10.88 12.42 2.03 171.43 
10.01 14.48 3.59 190.87 
10.12 14.52 4.40 184.93 
10.53 12.82 2.77 180.94 
10.39 13.37 2.61 170.23 
10.06 13.35 3.03 170.50 
10.62 12.79 2.98 195.76 
9.53 13.41 2.68 171.68 
9.90 12.65 2.49 181.73 
11.21 13.16 2.24 190.51 
11.43 13.15 1.97 188.95 
10.36 12.55 2.76 210.46 
10.91 12.04 2.33 194.13 
10.03 12.02 2.49 182.67 
10.92 12.13 2.73 177.79 
9.14 13.90 3.33 178.09 
9.32 13.28 2.78 167.10 
9.27 13.46 2.42 160.58 
9.77 14.33 2.94 180.36 
9.35 14.43 3.81 199.23 
8.96 12.95 2.77 180.97 
8.61 12.68 2.32 168.48 
9.33 14.45 3.50 193.47 
9.68 13.61 2.42 196.16 
10.23 14.20 2.32 194.12 
9.80 13.77 3.11 190.34 
10.35 14.37 2.92 194.92 
10.37 14.64 3.88 181.06 
9.93 14.69 3.04 188.25 
10.10 14.75 3.34 190.85 
10.10 15.22 4.08 184.93 
10.54 14.60 3.16 186.73 
10.13 13.70 2.83 175.23 
10.71 14.30 3.32 187.05 
10.79 14.45 4.32 182.54 
11.24 12.12 1.86 204.69 
10.99 11.95 2.53 196.01 
10.66 14.22 3.23 185.91 
9.93 13.97 3.17 183.86 
9.86 13.78 3.37 188.76 
9.50 11.93 2.28 183.63 
9.50 11.71 3.04 189.23 
10.01 14.86 3.62 182.79 
10.12 14.57 3.16 183.46 
10.53 14.65 3.28 193.84 
10.84 15.20 3.29 192.45 
9.65 12.37 4.10 182.89 
9.30 12.39 3.20 177.40 
10.56 16.04 3.47 203.60 
9.79 15.00 3.21 202.50 
10.61 14.67 2.92 199.11 
9.85 14.67 3.51 201.30 
9.89 14.24 2.78 211.01 
10.16 14.34 3.02 202.05 
8.78 12.73 2.97 182.07 
9.40 12.23 3.85 192.99 
9.53 14.75 3.61 207.20 
10.97 13.60 1.98 194.43 
10.25 13.25 1.99 181.96 
9.80 14.95 3.53 214.72 
10.38 14.96 2.93 211.64 
10.68 13.61 2.56 190.75 
11.53 13.62 2.51 199.84 
10.15 14.71 3.61 207.74 
9.86 15.07 3.29 198.63 
10.85 13.86 2.79 197.17 
11.01 13.48 2.40 194.98 
11.01 13.20 2.27 197.08 
11.33 13.71 2.53 195.11 
11.77 13.57 2.11 184.69 
10.98 12.65 3.26 178.36 
10.28 13.64 2.70 194.70 
10.94 13.55 2.35 197.19 
10.19 12.24 2.16 173.43 
9.88 11.25 2.72 178.20 
10.04 11.48 3.41 178.02 
10.94 13.62 2.77 194.06 
10.43 14.43 3.20 181.15 
9.49 13.96 3.46 193.41 
11.07 14.87 3.06 188.24 
10.08 12.46 2.29 174.39 
9.79 11.94 3.21 174.72 
11.11 14.28 2.85 196.94 
10.02 13.82 3.72 176.42 
10.10 13.53 3.03 180.67 
11.49 14.82 3.25 196.90 
10.78 15.57 2.38 194.76 
10.17 13.77 4.29 181.17 
11.49 13.23 2.44 153.36 
11.65 12.30 2.26 171.55 
10.21 13.73 3.38 177.80 
11.08 14.78 2.54 192.04 
10.79 15.11 3.07 195.65 
9.37 13.34 3.32 173.29 
9.89 13.40 2.97 189.11 
11.13 14.70 2.91 193.19 
10.17 13.30 2.38 173.42 
10.93 13.68 2.62 165.86 
9.89 13.75 3.49 166.70 
9.63 13.65 2.57 167.64 
9.64 14.25 2.86 171.54 
10.58 14.00 2.02 183.63 
10.24 13.44 2.24 182.48 
10.38 13.36 2.40 169.88 
10.42 13.54 2.18 158.74 
10.82 13.30 2.74 168.49 
10.47 14.71 4.07 186.07 
10.26 13.28 2.60 181.96 
9.89 13.66 3.49 179.21 
9.99 13.35 2.25 173.71 
10.14 13.43 3.10 174.03 
10.56 14.83 2.77 195.54 
11.00 14.61 2.70 193.99 
9.65 13.52 2.93 174.92 
9.92 13.13 3.77 173.44 
10.79 12.99 3.57 185.90 
9.71 12.62 3.22 175.15 
11.42 16.08 2.40 187.53 
11.66 14.80 2.32 197.41 
9.69 13.19 2.82 166.87 
9.72 13.60 2.83 158.28 
11.73 14.57 2.62 198.69 
12.21 15.06 2.30 192.21 
9.17 13.29 2.78 174.39 
10.93 13.67 2.18 176.35 
11.35 13.17 2.46 187.22 
9.34 13.04 3.32 160.90 
9.33 13.24 3.35 159.96 
9.51 13.34 3.32 169.81 
10.75 13.51 2.08 173.61 
11.08 12.80 1.87 184.91 
10.42 12.99 3.13 182.76 
10.49 13.43 3.25 187.18 
10.58 13.42 2.25 177.56 
10.85 13.43 2.50 184.95 
10.46 13.45 2.09 188.02 
10.40 13.74 3.20 182.52 
10.79 13.60 2.60 184.21 
10.71 12.71 2.20 189.04 
10.82 13.12 2.14 193.65 
10.22 12.01 2.17 154.43 
10.18 12.81 3.11 175.10 
11.30 12.75 2.82 185.35 
11.41 13.54 4.09 177.47 
10.49 13.39 2.55 174.91 
10.79 12.31 2.53 175.70 
11.17 12.70 2.69 186.38 
10.32 13.87 2.26 173.35 
10.73 13.34 2.29 175.90 
10.13 12.35 2.31 165.01 
10.20 13.25 3.10 186.89 
10.66 12.88 3.36 177.78 
9.84 12.49 2.68 171.74 
9.96 12.07 2.21 175.82 
11.12 12.44 3.40 172.65 
10.30 11.85 3.58 187.55 
10.22 12.86 2.82 176.03 
9.49 12.99 4.12 167.33 
10.30 11.88 3.01 162.86 
9.98 12.66 3.13 160.33 
10.02 12.72 2.03 170.23 
9.52 12.83 1.98 176.93 
10.22 12.92 3.74 150.69 
10.06 12.64 2.84 161.25 
10.07 12.40 3.26 168.31 
8.82 12.78 3.07 181.54 
9.61 12.24 2.49 165.16 
9.71 12.52 2.83 159.88 
10.16 12.53 3.35 155.75 
9.96 12.26 2.63 162.55 
10.69 13.72 1.74 187.24 
10.65 13.77 2.09 180.68 
9.98 12.80 2.71 170.91 
10.00 13.45 2.97 176.90 
10.04 12.42 2.77 175.74 
9.39 12.39 3.00 176.54 
9.45 13.80 3.67 172.83 
9.51 13.63 3.46 177.55 
9.47 13.77 3.29 166.23 
9.84 13.99 3.36 180.94 
9.57 13.51 3.01 179.55 
20.00 17.48 7.20 188.26 
19.68 17.26 7.55 172.04 
9.17 13.20 2.55 172.07 
9.47 13.75 2.74 164.28 
9.65 13.41 3.35 166.45 
9.70 13.14 2.63 168.27 
9.62 13.30 2.82 162.48 
9.96 13.40 3.21 161.09 
9.84 13.48 3.24 164.88 
9.04 13.41 3.18 171.47 
9.62 13.39 3.28 181.28 
9.67 13.57 3.60 188.54 
9.27 13.60 3.06 176.66 
9.33 13.11 2.78 183.37 
