# dyad-tip, V78-L292, W41-Y77 
17.43 16.82 7.53 176.33 
17.40 16.21 6.59 184.24 
10.33 15.44 2.47 183.02 
10.25 15.21 2.50 189.49 
16.57 16.02 6.00 189.01 
9.06 15.55 3.46 181.85 
9.28 15.58 2.53 181.04 
16.74 16.69 5.60 208.93 
10.54 15.29 2.90 167.54 
9.33 14.73 1.91 176.84 
16.16 16.10 5.04 207.65 
9.63 15.47 3.21 172.53 
10.11 15.33 2.70 162.99 
10.03 14.60 2.70 160.59 
10.36 14.77 2.48 173.02 
9.35 14.66 2.29 180.64 
10.62 14.42 1.94 174.59 
10.40 14.67 2.96 181.25 
10.29 14.30 2.66 189.07 
10.48 14.84 2.11 169.00 
9.77 15.04 3.30 177.52 
10.28 15.27 2.79 182.59 
10.05 14.75 2.31 180.22 
10.88 15.27 2.47 181.81 
9.72 15.13 2.73 188.08 
10.06 14.49 1.91 192.82 
10.54 14.46 2.28 188.20 
10.21 13.71 2.46 199.75 
9.69 15.60 2.70 177.38 
18.19 16.11 6.61 173.51 
10.70 15.44 2.44 199.34 
9.52 14.95 3.24 188.71 
17.81 16.81 6.58 180.07 
10.17 13.70 3.45 201.67 
9.68 15.61 3.19 182.68 
17.28 16.66 7.10 181.24 
17.78 17.19 6.03 182.69 
17.53 16.79 6.19 176.16 
18.28 17.35 5.94 164.26 
18.04 16.79 6.09 194.32 
18.16 16.86 6.25 180.95 
18.49 16.26 6.19 177.76 
18.54 16.21 6.40 185.08 
18.01 16.12 5.93 190.77 
18.38 16.44 5.42 189.15 
9.46 13.60 3.89 206.58 
9.81 14.32 2.17 192.43 
17.77 16.59 5.34 182.07 
17.54 16.48 5.64 181.02 
18.28 16.96 6.23 193.06 
18.56 15.88 6.05 198.47 
17.38 15.89 5.79 198.20 
17.90 16.37 5.92 187.15 
17.00 16.12 4.68 186.98 
17.85 16.22 4.60 180.97 
17.47 16.87 5.40 175.18 
17.47 17.08 6.12 181.98 
10.25 14.19 2.52 230.64 
9.14 13.45 3.98 235.02 
9.85 13.73 4.20 230.05 
9.61 13.41 3.90 207.74 
17.07 17.75 5.87 181.97 
16.71 17.56 5.40 177.53 
17.12 17.40 6.20 184.92 
16.61 17.86 5.67 189.17 
8.80 13.95 2.26 215.82 
9.02 14.44 3.76 191.95 
8.79 14.34 4.22 202.35 
8.69 14.45 3.74 200.06 
15.92 16.35 5.47 169.19 
15.90 16.28 6.32 192.20 
9.32 15.03 4.44 205.86 
10.14 14.51 3.66 207.77 
9.87 14.61 3.13 203.29 
9.97 14.12 3.35 200.06 
10.04 13.78 3.27 208.04 
8.79 13.73 3.62 212.04 
17.02 17.47 6.35 190.09 
16.72 17.72 6.13 198.08 
16.54 17.90 6.17 197.24 
17.06 18.39 6.39 200.03 
17.30 18.21 6.00 194.62 
17.01 17.92 6.20 202.88 
17.59 18.78 6.41 186.50 
10.02 15.51 3.24 170.54 
11.00 14.94 3.30 180.54 
17.74 17.89 5.77 200.32 
16.43 17.19 5.59 198.45 
16.38 17.12 5.66 208.40 
17.03 17.28 5.48 195.75 
10.58 13.81 2.93 164.56 
10.16 13.80 3.34 166.76 
17.75 17.23 5.37 184.80 
18.46 17.70 7.22 182.30 
10.34 13.83 2.43 163.75 
11.97 11.92 1.84 161.85 
12.36 12.46 2.32 159.03 
10.52 13.65 2.89 164.17 
18.02 16.20 6.00 182.03 
17.98 16.01 5.92 194.87 
10.16 13.43 3.92 178.84 
9.81 12.89 2.74 199.25 
9.97 13.33 3.22 203.07 
11.50 14.16 2.70 188.11 
11.34 14.29 3.36 196.92 
11.19 13.76 2.99 190.27 
18.04 16.74 5.83 188.93 
10.93 11.76 2.25 179.29 
11.56 13.59 2.11 179.75 
11.34 13.02 2.56 187.82 
11.13 12.16 2.12 153.45 
10.89 12.50 2.28 165.99 
11.45 12.89 2.24 185.72 
17.75 16.13 5.16 194.52 
10.65 12.51 1.97 160.57 
10.35 12.48 2.04 166.83 
17.65 16.64 6.04 193.30 
9.33 13.77 3.45 183.75 
9.02 14.23 4.33 191.86 
17.06 17.11 5.77 202.10 
11.05 12.56 2.31 175.22 
11.36 12.72 2.99 178.72 
16.00 17.33 5.51 188.52 
9.81 14.25 2.84 194.01 
11.11 11.60 2.20 174.67 
10.54 12.00 2.50 173.44 
9.55 14.48 3.29 189.37 
16.49 17.74 5.75 198.76 
11.13 12.11 2.19 163.12 
9.31 14.03 3.03 184.95 
18.08 18.18 7.63 174.76 
18.24 18.34 5.93 187.88 
10.17 14.59 2.27 174.88 
10.57 13.75 3.98 185.16 
10.84 13.86 3.12 184.35 
10.51 13.84 2.96 175.63 
9.69 13.97 3.26 170.04 
10.11 13.99 2.59 180.36 
17.91 19.04 5.01 192.07 
18.10 19.32 6.12 195.12 
10.49 14.37 3.73 180.43 
10.25 14.16 3.24 192.22 
18.26 19.47 6.29 210.87 
17.95 19.22 6.20 199.55 
17.73 19.10 6.61 201.65 
11.20 13.02 2.46 196.24 
11.70 12.97 3.05 194.44 
18.09 19.50 5.44 202.67 
17.98 19.41 5.00 203.18 
11.18 13.54 2.82 207.93 
11.78 13.77 2.82 198.42 
11.80 14.18 2.63 197.45 
10.37 13.08 3.67 187.82 
9.57 14.22 3.03 192.98 
10.60 14.28 3.37 156.00 
10.56 14.36 4.12 160.01 
10.03 13.42 3.13 187.88 
9.94 13.93 2.86 184.16 
10.93 14.65 3.33 189.18 
10.54 15.16 3.49 188.94 
10.22 14.01 2.61 191.16 
10.64 13.90 3.43 186.64 
9.85 13.65 3.79 200.17 
10.48 13.78 3.46 205.61 
11.43 14.34 2.34 184.07 
16.70 19.30 5.48 219.19 
16.98 18.65 5.59 216.56 
10.59 13.97 2.65 194.65 
10.95 14.76 2.45 189.25 
10.96 14.96 2.28 197.81 
10.68 14.98 3.35 214.47 
10.42 15.01 3.20 211.43 
10.51 15.14 2.74 205.18 
10.36 15.39 2.82 185.31 
9.65 15.41 3.73 195.28 
17.17 18.98 6.64 215.79 
17.21 18.86 5.47 218.63 
11.15 15.13 2.73 199.51 
11.33 15.01 1.98 181.76 
11.22 14.45 2.24 195.67 
10.84 14.23 2.86 188.75 
10.27 13.11 1.91 174.00 
10.57 13.24 2.13 163.76 
10.07 12.83 1.92 162.41 
9.71 13.08 2.80 168.28 
10.15 13.12 3.83 181.87 
9.54 13.49 5.00 176.74 
10.07 13.16 5.27 186.41 
10.84 12.95 2.86 181.13 
10.18 13.70 2.15 161.97 
10.37 13.09 2.16 174.15 
10.50 12.99 2.12 167.93 
9.21 13.19 5.56 175.40 
10.29 14.41 3.17 188.27 
10.10 13.81 2.64 188.63 
9.71 13.90 1.97 188.16 
10.19 13.98 3.24 182.30 
10.47 13.16 3.32 166.16 
10.50 12.89 1.89 178.38 
10.98 13.06 2.63 167.69 
10.75 14.30 3.10 164.63 
10.64 14.41 2.93 165.13 
11.02 12.47 2.22 157.17 
11.08 12.62 2.20 158.28 
10.59 12.69 1.94 165.06 
11.14 12.39 2.38 169.98 
10.62 12.55 1.90 173.57 
17.03 17.76 6.08 207.85 
10.23 13.68 3.98 160.80 
10.15 13.80 3.83 167.91 
16.99 18.14 6.02 183.77 
16.55 18.38 7.16 203.82 
17.98 19.54 5.64 193.07 
10.88 12.02 2.26 169.25 
11.32 12.19 2.24 181.28 
11.45 15.33 2.56 192.16 
10.35 14.79 3.33 193.14 
10.71 14.74 3.56 182.19 
10.50 14.27 2.37 182.73 
11.04 14.35 3.22 182.85 
10.14 14.15 2.16 180.08 
9.99 13.83 2.05 154.24 
10.00 13.43 2.57 158.05 
18.89 19.87 6.88 184.31 
18.64 20.03 7.57 187.93 
18.52 19.45 6.80 203.79 
18.72 19.99 6.57 195.59 
18.32 19.19 6.47 190.95 
18.65 18.71 6.97 187.71 
18.74 18.49 5.88 199.57 
17.57 17.67 7.04 183.96 
10.88 13.71 2.36 180.00 
10.20 13.54 2.17 178.24 
17.91 17.86 5.70 192.41 
18.03 16.89 6.05 187.37 
17.05 17.15 7.15 192.78 
16.96 16.77 4.80 208.61 
17.29 16.85 5.65 205.88 
16.88 17.05 6.31 202.47 
17.51 17.42 6.74 197.36 
17.47 17.46 6.20 186.62 
11.08 14.18 2.44 166.27 
11.61 13.76 1.95 180.25 
11.77 14.89 3.13 164.74 
11.02 14.65 2.37 163.37 
16.52 17.76 5.87 202.07 
9.47 12.38 2.34 186.87 
9.43 12.86 2.67 178.35 
16.52 18.26 6.59 209.55 
11.38 14.19 4.28 167.11 
10.47 14.85 4.86 168.09 
17.01 17.68 5.41 186.88 
10.28 12.32 1.99 180.97 
10.00 15.20 4.81 167.75 
15.74 17.24 5.54 184.86 
9.61 12.27 2.17 183.21 
9.38 14.84 4.20 169.10 
9.47 14.25 3.88 188.07 
10.00 14.18 3.57 183.49 
9.84 14.29 2.79 177.10 
9.81 14.03 2.89 176.21 
9.54 13.78 2.65 180.36 
9.92 12.25 2.48 172.00 
10.77 12.11 2.97 176.52 
10.34 12.32 2.44 165.67 
16.85 17.09 7.93 174.15 
17.36 16.63 6.67 187.25 
17.40 16.73 6.94 178.39 
9.95 13.45 2.67 188.19 
10.03 13.14 2.86 189.78 
17.78 17.25 7.44 179.97 
18.00 17.55 5.73 175.17 
9.54 12.98 3.16 184.83 
10.69 13.66 3.83 176.78 
18.04 17.13 5.88 198.55 
17.25 16.50 6.15 192.21 
17.27 16.62 4.64 194.23 
16.54 16.69 5.23 183.93 
11.27 13.97 2.80 172.71 
10.81 13.05 3.95 185.69 
10.80 14.21 2.60 174.40 
10.20 14.13 2.79 175.97 
17.24 17.64 5.52 189.32 
17.37 17.25 5.32 180.94 
11.69 13.20 3.80 176.02 
11.16 12.87 3.54 170.57 
10.16 15.32 3.07 193.80 
10.21 15.31 2.76 192.07 
17.71 16.19 5.54 199.69 
17.85 16.85 5.66 194.43 
17.31 16.75 4.76 205.04 
17.40 16.12 5.51 194.74 
17.57 17.04 4.87 189.67 
17.94 16.03 5.86 197.78 
17.40 16.27 5.86 192.52 
16.92 16.44 6.17 191.88 
9.92 13.32 2.97 194.41 
9.49 13.72 3.11 197.96 
16.66 16.55 6.14 191.74 
16.84 16.49 5.33 189.16 
16.79 17.13 5.51 190.61 
9.75 13.34 3.87 204.26 
9.38 14.02 3.81 186.36 
17.75 17.01 5.68 195.55 
17.33 16.90 4.52 188.70 
17.88 16.67 6.01 194.99 
17.98 17.65 5.70 200.67 
10.97 13.22 2.49 181.72 
11.06 13.67 3.47 174.85 
10.95 13.32 2.15 180.61 
10.67 13.58 2.50 180.19 
10.64 13.19 2.63 176.45 
10.23 13.67 2.50 177.20 
10.47 14.10 2.65 189.36 
10.46 13.90 2.97 183.92 
17.99 16.24 5.02 174.82 
18.69 16.02 5.32 189.89 
10.92 14.06 2.56 197.75 
11.46 14.59 3.22 198.15 
9.83 13.79 2.34 172.95 
9.96 13.71 2.73 170.55 
10.84 15.24 3.34 184.28 
11.37 14.59 3.11 203.21 
9.91 14.06 2.88 166.56 
9.77 14.29 7.62 165.31 
10.20 14.85 7.09 159.19 
9.73 13.32 3.19 171.75 
10.16 13.81 3.48 165.83 
9.38 13.32 2.18 162.52 
10.07 13.94 2.63 163.25 
10.75 13.86 6.14 150.63 
10.62 13.81 5.94 153.04 
10.41 13.52 5.70 151.23 
17.69 16.40 5.18 209.36 
9.66 13.35 2.91 157.16 
9.85 13.16 2.93 177.49 
9.24 13.55 3.45 185.86 
10.24 13.40 7.25 154.66 
18.07 17.52 5.09 198.36 
18.00 18.06 6.10 190.47 
10.11 13.46 6.54 141.39 
9.50 13.71 3.36 187.87 
9.77 14.52 2.90 178.99 
10.01 12.86 4.66 153.47 
10.46 13.69 6.12 153.76 
10.17 14.13 5.93 134.35 
9.31 14.56 2.92 200.60 
9.87 14.16 2.94 205.86 
17.08 17.11 5.65 195.36 
17.44 17.53 5.28 192.75 
10.24 12.74 5.13 142.72 
10.38 13.39 5.54 150.27 
9.81 13.71 3.13 208.78 
10.05 14.19 3.15 209.48 
17.47 17.26 4.57 201.47 
18.04 17.05 5.93 194.44 
9.71 12.38 2.46 191.59 
9.99 13.24 2.47 194.52 
17.76 16.59 6.04 199.47 
17.91 16.70 5.16 197.87 
10.27 12.64 2.66 198.37 
10.23 12.20 2.11 201.16 
16.79 16.37 7.01 206.22 
16.88 16.69 6.53 205.48 
16.78 17.06 6.37 194.76 
16.49 16.73 6.03 207.55 
16.12 17.44 4.86 209.30 
16.01 17.59 5.99 216.51 
16.56 17.67 5.38 203.89 
16.35 17.36 5.28 212.85 
16.03 17.23 5.39 207.50 
9.96 12.06 2.12 167.99 
9.34 12.10 3.63 161.08 
9.87 12.04 3.20 169.57 
8.68 12.31 3.69 167.80 
9.41 11.88 3.15 156.96 
9.35 12.37 3.78 163.84 
9.13 12.39 3.70 164.78 
9.04 12.49 3.38 168.88 
8.25 12.58 3.93 178.84 
8.88 12.77 3.24 166.81 
8.56 12.88 3.23 177.70 
10.17 12.95 2.38 192.15 
9.91 13.37 2.94 210.81 
8.79 13.21 3.80 175.13 
10.32 14.43 2.93 186.34 
10.22 14.20 2.99 193.08 
9.08 12.99 3.52 168.43 
9.64 12.49 2.75 173.83 
9.87 14.35 2.96 176.40 
10.30 14.60 2.69 188.30 
9.16 12.70 2.31 173.78 
9.03 12.75 2.63 163.95 
9.82 14.71 2.59 189.81 
10.05 14.56 2.27 177.54 
9.22 12.33 3.06 164.60 
10.02 12.83 3.12 197.17 
10.12 12.95 3.11 197.59 
9.02 12.27 2.98 180.45 
8.66 12.05 3.11 185.69 
9.51 11.84 2.68 189.94 
9.06 11.94 3.67 171.22 
9.77 12.27 4.67 175.51 
10.16 12.73 4.13 164.75 
8.78 13.49 2.89 178.75 
8.59 14.74 3.38 179.58 
8.96 13.92 2.75 169.95 
8.94 13.80 2.87 168.23 
8.49 13.10 2.49 172.52 
8.76 13.38 3.04 174.93 
9.17 12.95 3.31 179.95 
9.68 14.68 2.72 196.01 
9.75 14.65 3.06 198.03 
9.23 13.12 3.77 189.94 
9.51 14.36 3.64 194.41 
10.04 12.72 2.72 182.03 
9.31 13.34 3.61 183.06 
9.57 12.39 2.96 181.77 
9.61 13.21 3.71 196.93 
10.24 15.44 3.24 186.23 
9.53 15.70 3.17 195.37 
9.12 13.38 2.80 193.50 
9.69 13.48 3.47 183.76 
9.41 14.15 3.67 187.77 
11.41 14.25 6.32 168.06 
11.75 14.24 5.62 174.40 
9.98 13.37 2.96 185.62 
10.14 13.34 2.70 181.09 
9.15 13.24 4.43 191.60 
9.03 13.20 3.01 198.85 
10.27 14.00 1.95 181.04 
9.44 14.44 2.85 193.06 
11.75 12.85 4.77 177.94 
12.29 13.48 4.28 181.63 
10.55 15.12 2.77 200.16 
8.96 14.52 2.60 200.71 
12.58 13.07 4.63 180.42 
11.51 12.73 5.37 165.29 
11.30 12.95 4.78 165.84 
11.67 13.24 5.05 156.40 
9.89 13.93 2.81 180.42 
10.12 13.03 2.47 177.04 
8.66 14.11 3.56 175.57 
8.48 13.80 2.75 187.94 
12.55 13.73 6.08 154.36 
11.77 13.40 5.25 162.44 
8.89 13.77 3.14 182.39 
9.41 13.14 3.07 186.80 
9.17 13.05 3.33 193.20 
8.50 12.92 2.65 169.80 
8.76 13.22 3.14 181.34 
8.49 12.19 3.14 173.93 
9.26 12.38 2.52 183.22 
8.87 12.15 3.18 188.43 
9.31 12.26 2.88 187.17 
9.30 12.12 3.04 177.20 
8.90 12.02 3.95 185.27 
8.47 11.99 3.87 184.44 
7.95 12.20 4.31 179.58 
8.49 12.30 4.25 182.89 
11.04 14.18 4.31 151.69 
11.21 14.06 5.76 156.73 
12.10 12.72 2.09 176.17 
12.60 12.91 2.04 163.78 
8.69 12.37 3.17 184.83 
8.63 12.63 3.60 187.97 
10.18 13.52 4.89 168.61 
11.27 13.75 4.47 166.39 
10.88 13.94 6.02 161.64 
11.04 14.00 5.49 156.63 
10.80 13.48 6.00 154.44 
11.13 13.36 4.71 164.98 
10.05 12.25 3.20 190.23 
9.59 11.98 2.79 209.60 
9.70 12.46 2.55 198.50 
10.03 11.55 2.24 189.41 
11.61 11.84 2.25 187.80 
10.45 12.20 2.57 187.97 
11.70 13.90 5.74 146.67 
11.46 13.69 5.10 165.61 
10.06 12.22 2.89 194.88 
10.35 12.40 2.56 197.91 
12.18 14.08 1.98 178.45 
11.91 14.78 1.91 177.43 
9.77 12.00 2.27 193.12 
9.53 11.56 2.55 191.44 
10.05 11.48 2.03 185.88 
9.83 11.24 1.99 188.89 
9.49 11.76 2.02 187.57 
10.03 11.21 2.38 186.95 
9.57 13.06 4.53 181.65 
9.98 13.14 4.44 182.21 
9.63 12.82 3.84 165.77 
10.43 12.90 4.37 162.47 
10.67 11.61 2.73 195.82 
10.90 12.13 3.01 206.19 
10.16 12.46 2.06 177.58 
10.19 13.31 2.36 174.89 
9.95 12.49 4.56 157.73 
9.84 12.12 4.63 168.63 
