# dyad-tip, V78-L292, W41-Y77 
9.77 15.05 3.39 178.99 
9.98 14.87 2.89 176.06 
10.05 15.41 2.55 176.44 
10.37 15.49 2.88 182.77 
10.29 15.51 2.67 173.18 
10.57 15.54 2.53 176.08 
10.76 14.96 2.69 172.42 
11.63 12.43 2.41 197.84 
10.70 12.53 3.20 181.51 
11.25 12.20 2.10 186.03 
10.72 12.35 2.10 208.95 
11.10 12.71 2.19 205.86 
11.25 12.09 1.89 204.55 
10.15 15.46 3.38 197.16 
10.10 15.30 2.76 177.40 
10.51 15.65 2.50 164.02 
9.97 15.08 2.29 169.71 
10.46 14.92 2.03 164.59 
10.25 14.93 2.49 171.61 
10.08 14.68 3.26 176.60 
10.44 14.44 3.60 186.27 
10.88 14.44 2.51 183.94 
10.91 14.21 2.26 175.01 
10.93 15.01 2.63 167.83 
11.58 14.41 2.55 180.14 
11.34 13.84 2.10 186.11 
10.61 14.24 2.54 183.86 
10.59 13.88 2.70 189.87 
9.40 13.31 3.12 165.58 
17.87 16.41 5.88 184.24 
17.62 16.15 6.54 190.88 
9.09 13.30 2.43 162.46 
11.34 13.06 2.06 187.77 
11.10 12.98 2.21 192.46 
11.24 13.05 3.03 194.69 
10.46 12.74 2.42 209.38 
10.63 13.10 2.20 204.60 
10.21 13.68 3.09 205.27 
10.44 12.93 2.65 207.99 
11.17 12.28 2.35 194.08 
10.97 12.56 2.69 191.09 
11.15 13.31 2.87 193.11 
10.85 13.23 2.38 195.43 
17.98 16.63 7.60 187.35 
18.01 17.18 7.62 186.98 
11.72 12.60 1.94 194.96 
11.36 12.96 1.99 196.56 
18.34 16.74 7.42 197.13 
18.64 16.56 6.74 198.54 
17.82 15.88 8.03 195.95 
18.03 16.19 7.32 191.18 
18.01 16.52 7.03 186.05 
18.27 16.34 7.39 196.26 
10.07 14.20 2.79 189.51 
10.29 13.86 3.05 169.68 
18.43 15.86 6.84 203.70 
18.33 15.71 7.35 191.45 
10.93 11.73 2.04 212.25 
10.86 12.03 2.03 200.80 
10.80 13.42 2.83 170.57 
10.76 13.94 4.03 183.32 
9.50 13.34 3.81 178.38 
10.24 12.82 3.30 185.09 
18.26 15.74 6.02 181.15 
18.40 15.41 7.01 184.84 
10.97 12.28 2.25 212.30 
10.67 12.51 1.95 202.32 
11.57 15.20 3.29 172.42 
10.59 14.60 2.67 171.64 
9.81 14.65 2.68 162.27 
9.75 14.80 3.16 163.72 
10.31 13.02 2.82 179.70 
11.10 13.49 3.11 196.32 
10.78 14.92 2.20 178.89 
10.77 14.76 2.26 173.07 
10.11 14.92 1.97 172.41 
10.11 15.37 2.34 165.64 
10.99 12.99 2.31 178.36 
11.49 12.87 3.04 184.04 
11.01 12.46 3.41 178.85 
10.75 13.71 3.45 175.54 
10.53 12.56 2.76 201.34 
10.54 12.25 2.22 192.57 
8.87 15.21 2.24 172.24 
8.87 14.75 2.72 176.30 
11.11 12.33 2.54 165.32 
8.95 12.98 2.75 215.70 
9.10 12.86 2.37 219.20 
9.09 12.82 3.29 212.77 
10.51 13.23 2.35 204.43 
11.33 13.60 2.84 161.71 
9.92 15.03 2.31 177.32 
9.90 14.24 2.92 169.02 
11.15 14.05 2.42 174.22 
10.58 14.39 2.31 198.03 
9.35 14.59 4.29 194.17 
9.37 14.22 3.53 183.53 
8.97 12.67 3.02 180.15 
14.94 15.99 2.68 233.81 
14.12 15.55 2.12 239.62 
10.83 13.91 2.98 175.22 
10.42 13.75 2.84 178.24 
10.38 13.70 2.70 189.96 
9.88 14.10 2.49 178.69 
9.41 13.03 2.86 192.72 
9.03 13.50 3.54 185.71 
14.78 15.78 3.37 236.39 
9.30 16.06 2.33 189.19 
10.59 14.27 2.51 169.12 
15.29 16.03 2.31 229.14 
9.36 15.48 2.40 181.95 
18.99 16.82 6.78 190.68 
15.35 15.78 2.35 230.45 
14.94 15.85 2.04 230.39 
14.76 15.94 3.24 228.56 
14.59 15.69 1.99 225.82 
18.87 16.99 7.66 182.45 
18.68 15.78 7.47 189.24 
8.84 12.78 2.15 196.07 
9.29 13.80 3.38 197.91 
9.67 13.67 2.40 202.28 
10.37 16.00 3.33 176.12 
10.55 16.00 2.59 169.06 
11.07 15.41 2.36 176.11 
10.90 15.69 2.77 166.47 
10.62 13.58 2.87 181.94 
11.48 12.91 2.38 170.38 
11.48 13.31 3.25 185.44 
11.39 13.52 2.55 180.46 
9.87 15.31 2.67 192.11 
10.07 15.45 2.39 189.92 
10.14 15.85 2.98 203.90 
10.27 14.91 2.50 182.00 
10.60 15.03 2.98 186.51 
10.21 14.95 2.61 173.75 
9.77 14.62 2.96 177.69 
19.58 17.55 7.68 171.64 
9.97 13.59 2.68 188.39 
9.81 15.20 3.10 187.74 
9.47 14.84 3.66 182.94 
9.62 15.01 3.50 184.55 
10.04 15.42 3.63 176.98 
9.99 15.64 3.08 181.90 
10.46 15.88 3.62 173.28 
10.79 15.77 2.54 176.71 
11.25 16.42 2.94 170.56 
11.04 15.50 3.15 176.56 
11.32 15.75 2.09 164.79 
10.21 14.07 3.19 185.26 
10.11 14.57 2.67 199.38 
11.74 15.43 2.37 170.34 
10.33 14.19 3.19 183.82 
9.31 14.62 2.32 185.47 
9.88 12.79 3.69 178.35 
9.65 13.89 2.89 171.76 
11.03 15.27 2.92 182.85 
9.46 12.36 3.37 193.75 
9.32 12.09 4.56 185.92 
8.77 13.09 3.91 196.87 
9.14 12.24 3.45 194.89 
8.63 12.66 4.32 196.53 
9.16 13.34 3.29 176.84 
9.66 13.01 3.25 190.92 
9.56 13.06 3.78 184.15 
9.37 14.08 2.44 198.04 
9.30 14.39 2.79 203.62 
10.34 12.51 2.22 174.53 
10.55 12.74 2.28 179.33 
11.01 12.66 2.66 172.78 
8.92 14.54 3.06 178.75 
8.77 13.32 2.65 186.44 
8.78 13.35 2.56 178.25 
10.86 15.32 2.93 177.07 
10.95 16.00 2.39 185.57 
9.32 12.88 2.30 177.56 
9.36 13.68 3.38 190.56 
9.88 13.57 3.11 175.48 
18.05 17.48 7.00 164.99 
18.17 17.04 6.92 172.50 
9.59 12.20 2.32 174.98 
9.93 12.52 2.12 188.86 
9.46 13.86 3.42 180.09 
10.15 16.23 3.28 197.25 
10.53 16.09 2.84 182.44 
10.53 13.26 2.45 170.79 
18.45 16.28 5.98 190.13 
10.17 16.67 3.35 185.76 
10.12 16.12 2.59 180.31 
18.74 16.65 7.30 178.98 
10.79 13.42 3.06 167.53 
10.87 14.07 2.42 172.10 
18.90 16.55 6.10 177.86 
19.21 16.39 8.04 192.40 
10.69 14.75 2.71 170.63 
10.55 15.47 3.10 168.99 
10.57 12.90 2.07 180.16 
10.77 12.91 2.20 201.24 
10.47 13.48 1.87 190.45 
10.92 14.52 1.98 174.31 
11.21 14.84 2.73 187.85 
10.21 15.27 2.36 173.93 
9.99 15.39 3.25 178.86 
11.38 14.74 3.37 177.31 
10.67 14.65 3.53 176.36 
10.16 14.22 2.53 182.41 
10.40 14.73 2.93 187.72 
10.29 14.72 2.75 180.03 
9.16 12.67 4.05 186.50 
9.44 12.51 2.41 166.21 
19.61 17.85 7.85 185.47 
11.35 13.67 2.56 188.52 
10.30 13.41 2.54 201.64 
10.19 14.52 2.41 209.13 
10.36 13.89 3.14 181.75 
10.31 13.16 2.91 171.92 
9.95 13.45 2.74 178.82 
19.94 17.11 7.81 176.32 
11.71 14.29 2.30 177.68 
9.82 14.14 2.56 180.88 
10.37 14.50 2.73 183.44 
16.03 17.79 2.10 225.76 
16.02 17.81 2.50 234.08 
10.01 14.64 3.37 172.76 
9.56 14.70 3.43 176.41 
9.61 15.01 3.59 162.17 
10.12 14.19 2.85 189.27 
9.97 14.22 3.08 181.77 
9.72 13.53 3.27 171.90 
10.09 13.44 2.51 176.13 
10.14 13.20 3.35 175.50 
10.02 14.07 2.17 175.29 
10.42 15.23 2.98 171.74 
10.95 15.21 2.46 170.57 
10.99 15.20 2.95 179.94 
10.72 16.35 2.53 176.04 
17.94 14.83 6.80 183.91 
18.16 15.14 6.53 195.03 
10.65 13.76 3.00 167.66 
10.28 14.31 2.39 162.83 
10.59 14.28 2.17 161.33 
10.12 13.66 2.58 165.74 
10.52 13.75 3.13 178.91 
10.01 14.42 3.31 161.25 
11.51 14.70 2.66 167.81 
11.20 14.76 3.66 169.82 
11.33 14.51 2.97 166.66 
10.94 15.24 2.87 173.63 
10.58 13.95 3.12 177.95 
11.59 14.30 1.97 199.91 
12.24 14.31 2.41 198.44 
12.27 14.67 2.47 208.63 
17.86 14.00 6.98 189.51 
10.00 14.52 2.74 170.93 
10.48 14.08 3.42 157.84 
16.81 14.35 5.62 176.60 
17.18 14.67 6.30 195.52 
17.59 15.41 5.53 180.61 
17.75 14.65 5.90 188.72 
10.78 14.01 2.48 181.40 
10.25 13.65 2.28 183.63 
16.70 14.84 4.69 191.41 
16.18 14.03 4.96 182.64 
10.31 13.92 2.35 171.34 
10.34 14.42 2.75 171.73 
9.63 14.10 2.85 181.47 
10.30 12.84 3.74 188.45 
17.07 16.41 5.55 184.28 
10.13 12.36 1.95 195.69 
9.91 12.90 3.66 189.68 
9.85 14.09 2.62 179.12 
10.57 11.99 2.14 190.82 
16.70 16.22 5.79 190.57 
16.58 15.94 5.17 193.00 
10.10 13.18 3.39 186.87 
10.25 12.94 4.10 188.64 
10.05 12.65 3.36 178.29 
9.95 12.78 3.06 189.95 
9.93 12.98 3.80 180.48 
10.69 14.95 3.20 175.07 
10.48 14.46 2.82 163.40 
10.34 12.85 2.98 179.83 
10.05 13.08 3.34 187.42 
16.87 16.90 2.63 225.03 
16.37 16.25 2.35 224.62 
15.96 16.39 2.59 227.61 
15.35 15.76 2.46 222.05 
9.58 13.65 3.93 169.37 
17.11 17.31 6.32 198.94 
16.68 16.38 2.79 224.83 
10.10 12.95 3.23 203.12 
17.48 16.10 5.53 192.26 
15.94 15.58 2.26 225.56 
15.96 15.77 3.12 223.80 
17.56 16.34 5.69 197.01 
10.41 15.67 3.00 168.09 
10.75 15.13 2.47 171.66 
17.88 16.85 6.36 191.11 
18.03 17.35 5.92 193.16 
17.72 17.00 6.59 186.31 
11.10 12.16 2.35 175.78 
9.47 13.20 4.31 182.33 
15.30 15.09 2.30 235.21 
15.14 14.61 2.04 230.51 
15.63 15.20 2.09 225.66 
11.46 12.94 2.01 167.02 
8.96 14.34 4.16 190.74 
14.99 15.83 2.00 233.60 
15.00 15.06 2.56 244.12 
15.68 15.16 2.42 227.65 
16.05 15.94 2.29 236.09 
15.21 16.06 2.97 233.99 
10.51 14.64 1.94 185.65 
10.15 14.51 1.89 178.66 
15.51 16.52 2.41 232.21 
15.35 16.00 2.26 230.29 
15.43 15.81 2.43 233.29 
15.46 16.30 2.04 241.03 
15.12 15.84 2.29 228.60 
9.21 13.57 4.63 191.00 
9.29 13.10 4.13 194.33 
15.11 15.63 2.14 215.20 
15.10 16.45 1.90 235.10 
15.62 16.23 2.07 231.95 
16.50 16.30 6.30 184.65 
16.79 16.39 4.63 184.70 
15.47 16.26 2.06 233.21 
15.57 15.94 2.54 226.97 
16.91 15.76 5.97 175.88 
8.58 14.04 3.75 175.66 
8.47 14.30 3.06 177.69 
16.58 15.75 5.63 183.30 
11.55 13.85 2.92 200.04 
11.18 13.57 2.59 192.94 
11.21 13.48 2.55 192.74 
10.61 11.65 3.31 187.35 
15.64 16.63 2.42 223.21 
15.85 16.23 2.94 228.75 
10.45 11.94 4.10 179.20 
10.12 12.40 3.22 193.76 
16.92 15.06 6.08 181.34 
17.61 15.98 6.18 185.25 
17.74 16.22 6.21 168.75 
17.18 15.72 6.19 176.23 
10.48 11.50 3.66 201.15 
10.32 12.24 4.10 192.43 
15.42 17.18 2.14 227.42 
14.95 17.14 2.45 228.50 
10.52 12.00 4.70 189.91 
10.15 12.08 3.99 196.00 
17.65 15.81 7.13 173.53 
9.55 15.66 3.55 185.38 
9.00 14.97 4.07 178.13 
18.55 16.99 7.47 173.01 
15.58 18.02 2.12 231.97 
14.93 17.72 2.28 233.43 
15.05 16.84 2.23 229.72 
15.87 16.53 2.21 229.30 
9.36 12.78 3.85 179.92 
9.82 12.38 2.39 179.56 
11.86 12.26 2.13 189.11 
11.57 12.54 1.97 199.04 
15.27 15.76 2.28 225.38 
10.06 14.00 2.16 166.98 
10.26 13.90 1.91 172.19 
10.59 14.39 2.40 172.85 
10.54 12.36 2.67 183.25 
10.28 12.90 3.15 177.39 
10.69 14.51 2.38 161.06 
9.96 15.15 2.34 163.33 
10.18 13.47 3.57 181.83 
11.64 13.57 2.81 178.95 
11.63 14.02 2.54 179.47 
10.49 16.77 4.05 180.41 
10.05 12.90 2.23 178.93 
9.63 12.82 3.45 187.78 
9.91 15.87 3.80 178.24 
15.29 16.72 2.10 220.47 
15.91 16.49 2.37 225.56 
15.74 16.75 2.08 231.47 
15.76 16.80 2.25 226.29 
10.38 13.87 1.95 189.65 
10.44 13.86 1.99 180.20 
15.88 16.44 2.34 227.11 
15.53 16.09 2.01 230.27 
9.79 13.45 2.92 179.63 
9.53 12.65 1.92 174.08 
15.73 15.96 3.36 211.32 
14.86 16.49 2.23 219.31 
15.35 16.58 2.63 223.84 
14.91 16.37 2.30 232.55 
9.90 13.36 2.36 183.99 
9.24 12.96 2.15 177.24 
14.88 16.85 2.65 230.12 
14.86 16.54 2.41 225.77 
10.65 15.55 2.99 161.00 
10.09 15.54 2.72 174.55 
9.23 13.15 2.43 188.81 
9.71 12.51 2.38 195.52 
14.28 16.30 2.02 223.94 
14.79 16.11 1.91 227.05 
9.68 15.23 3.19 180.89 
9.82 15.32 3.42 178.50 
9.37 12.70 2.13 181.55 
10.86 14.13 2.60 172.07 
10.88 13.92 2.56 164.38 
9.44 12.87 2.24 189.51 
9.45 12.75 1.94 188.95 
16.20 14.07 5.73 193.94 
16.89 14.75 6.37 184.03 
9.96 15.05 2.42 163.92 
10.23 14.78 2.44 184.06 
16.51 14.15 6.56 191.67 
16.22 14.10 5.66 177.29 
10.61 15.54 2.39 186.96 
10.62 15.49 2.66 177.03 
10.49 15.03 2.60 164.84 
10.33 15.68 2.31 174.60 
10.35 11.94 2.16 196.44 
9.38 12.53 2.40 183.54 
9.57 12.91 1.97 190.52 
9.39 12.96 2.37 188.34 
17.40 14.55 5.18 182.15 
10.29 13.84 3.21 181.33 
9.84 11.53 2.20 183.71 
17.25 14.85 6.30 179.09 
17.11 14.13 6.10 184.62 
16.72 14.36 5.91 196.34 
10.97 13.99 3.31 194.56 
10.96 13.46 3.12 196.96 
17.87 15.60 6.25 184.75 
9.64 11.33 1.93 196.71 
10.41 12.70 4.05 179.59 
16.68 15.11 5.93 174.97 
9.93 11.76 1.90 192.10 
11.28 13.64 3.86 184.59 
9.16 15.11 4.51 185.59 
15.40 15.37 2.45 216.70 
15.83 15.76 2.55 221.08 
9.73 14.59 3.75 188.60 
9.45 15.31 4.10 190.35 
9.92 12.05 2.02 181.06 
10.37 13.29 2.23 166.22 
10.34 13.20 2.29 165.39 
17.19 15.42 8.46 175.20 
17.39 15.93 7.58 168.76 
9.66 12.51 1.96 191.78 
9.46 11.89 2.41 197.03 
9.76 13.87 2.62 167.90 
9.62 13.36 2.49 159.47 
10.82 13.42 2.65 172.84 
10.42 13.04 2.37 164.37 
17.82 16.02 8.09 188.48 
17.04 15.51 6.72 180.63 
9.96 12.31 2.04 193.57 
14.90 15.49 2.29 230.40 
15.18 16.17 2.06 228.88 
10.48 12.78 2.22 177.89 
10.49 15.51 2.14 165.32 
15.73 17.95 2.12 226.12 
14.90 16.82 2.17 221.82 
10.00 15.01 2.96 158.69 
10.28 14.99 2.59 160.67 
10.29 14.85 3.49 155.69 
10.43 12.99 1.99 167.27 
10.67 13.80 2.52 169.06 
10.93 14.15 2.61 166.00 
10.84 13.60 2.04 186.48 
17.75 17.26 7.54 185.22 
17.90 17.75 6.49 182.71 
10.25 12.49 2.09 192.48 
10.16 13.27 2.45 189.71 
10.18 13.33 3.61 178.23 
10.61 13.58 3.48 180.39 
17.25 16.68 7.06 182.62 
17.20 16.55 5.63 185.51 
16.82 16.35 6.07 189.80 
16.99 16.74 5.93 180.23 
11.29 13.57 3.54 210.25 
11.16 13.66 2.28 201.80 
17.27 17.55 5.96 177.90 
17.22 17.17 6.50 162.13 
17.14 17.31 6.14 185.27 
17.43 17.22 5.56 189.01 
10.69 12.47 2.64 176.31 
10.85 12.86 3.47 188.48 
11.26 12.99 4.47 186.66 
11.34 12.89 3.24 185.50 
11.02 12.55 2.06 175.38 
10.61 12.76 2.26 167.39 
17.03 16.05 5.86 174.90 
17.17 16.32 5.75 182.79 
16.91 15.53 5.63 178.13 
14.78 16.93 2.23 222.37 
15.26 17.23 2.24 228.36 
16.67 16.56 5.13 174.00 
16.82 16.18 6.42 175.51 
15.52 17.30 1.99 224.48 
16.38 17.00 2.12 235.09 
15.67 16.26 2.16 235.53 
15.65 16.24 2.10 230.47 
